{
    "_id": "LLPsEKLoVmoPleJS",
    "data": {
        "attributes": {
            "ac": {
                "value": 20
            },
            "hardness": 0,
            "hasHealth": true,
            "hp": {
                "details": "",
                "max": 200,
                "temp": 0,
                "tempmax": 0,
                "value": 200
            },
            "stealth": {
                "details": "(expert)",
                "value": 20
            }
        },
        "creatureType": "",
        "details": {
            "description": "A caustic green film clings to the ceiling above, watching for prey to pass beneath it.",
            "disable": "DC 33 Survival (expert) to carefully peel the slime off the ceiling without touching it",
            "isComplex": false,
            "level": {
                "value": 9
            },
            "reset": "1 hour, as the slime feasts and then slowly creeps back up to the ceiling",
            "routine": ""
        },
        "saves": {
            "fortitude": {
                "saveDetail": "",
                "value": 25
            },
            "reflex": {
                "saveDetail": "",
                "value": 15
            },
            "will": {
                "saveDetail": "",
                "value": 0
            }
        },
        "source": {
            "value": ""
        },
        "statusEffects": [],
        "traits": {
            "ci": [],
            "di": {
                "custom": "",
                "selected": {},
                "value": [
                    "critical-hits",
                    "object-immunities",
                    "precision"
                ]
            },
            "dr": [],
            "dv": [
                {
                    "exceptions": "",
                    "label": "Cold",
                    "type": "cold",
                    "value": "20"
                },
                {
                    "exceptions": "",
                    "label": "Fire",
                    "type": "fire",
                    "value": "20"
                }
            ],
            "rarity": {
                "value": "common"
            },
            "size": {
                "value": "med"
            },
            "traits": {
                "custom": "",
                "value": [
                    "environmental"
                ]
            }
        }
    },
    "effects": [],
    "flags": {},
    "img": "systems/pf2e/icons/default-icons/hazard.svg",
    "items": [
        {
            "_id": "aNYeaG5N3o5PQ9IB",
            "data": {
                "actionCategory": {
                    "value": ""
                },
                "actionType": {
                    "value": "reaction"
                },
                "actions": {
                    "value": null
                },
                "description": {
                    "value": "<p><strong>Trigger</strong> A creature walks beneath the slime. <br /><strong>Effect</strong> The green slime drops on top of the creature, attempting to dissolve it into a nutritious slurry. The target must attempt a <span data-pf2-check=\"reflex\" data-pf2-dc=\"28\" data-pf2-label=\"Dissolving Ambush DC\" data-pf2-show-dc=\"gm\">Reflex</span> save.<br /><br /><strong>Critical Success</strong> The target leaps out of the way, and it is unaffected.<br /><strong>Success</strong> A small amount of the slime splashes onto the target. The target is drained 1.<br /><strong>Failure</strong> The slime lands on its target. The target is drained 1, and this condition value increases by 1 at the end of its turn each round until the slime is removed. If the target reaches drained 4, the next time its drained value would increase, it dies and collapses into a slurry of nutrients. A slime covering a target can no longer be removed through Survival checks, and damage dealt to the slime is also dealt to the target (applying the target's immunities, weaknesses, and resistances rather than those of the green slime).<br /><strong>Critical Failure</strong> The slime completely coats its target. This has the same effect as a failure, except the target is immediately drained 2, becomes drained 4 after 1 round, and dies after 2 rounds.</p>"
                },
                "requirements": {
                    "value": ""
                },
                "rules": [],
                "slug": null,
                "source": {
                    "value": ""
                },
                "traits": {
                    "custom": "",
                    "rarity": {
                        "value": "common"
                    },
                    "value": []
                },
                "trigger": {
                    "value": ""
                },
                "weapon": {
                    "value": ""
                }
            },
            "effects": [],
            "flags": {},
            "img": "systems/pf2e/icons/actions/Reaction.webp",
            "name": "Dissolving Ambush",
            "sort": 100000,
            "type": "action"
        }
    ],
    "name": "Green Slime",
    "token": {
        "disposition": 0,
        "height": 1,
        "img": "systems/pf2e/icons/default-icons/hazard.svg",
        "name": "Green Slime",
        "width": 1
    },
    "type": "hazard"
}
