{
    "_id": "Z5E6UrUkiVW2UQRO",
    "data": {
        "attributes": {
            "ac": {
                "value": 33
            },
            "hardness": 21,
            "hasHealth": true,
            "hp": {
                "details": "",
                "max": 84,
                "temp": 0,
                "tempmax": 0,
                "value": 84
            },
            "stealth": {
                "details": "(expert)",
                "value": 30
            }
        },
        "creatureType": "",
        "details": {
            "description": "Wiring keeping the furniture together unravels, causing the spring-loaded pieces of furniture and wire to shoot outward.",
            "disable": "DC 34 Thievery (expert) to identify and harmlessly cut the taut wiring",
            "isComplex": false,
            "level": {
                "value": 12
            },
            "reset": "",
            "routine": ""
        },
        "saves": {
            "fortitude": {
                "saveDetail": "",
                "value": 25
            },
            "reflex": {
                "saveDetail": "",
                "value": 19
            },
            "will": {
                "saveDetail": "",
                "value": 0
            }
        },
        "source": {
            "value": "Pathfinder #154: Siege of the Dinosaurs"
        },
        "statusEffects": [],
        "traits": {
            "ci": [],
            "di": {
                "custom": "",
                "selected": {},
                "value": [
                    "critical-hits",
                    "object-immunities",
                    "precision"
                ]
            },
            "dr": [],
            "dv": [],
            "rarity": {
                "value": "common"
            },
            "size": {
                "value": "med"
            },
            "traits": {
                "custom": "",
                "value": [
                    "mechanical"
                ]
            }
        }
    },
    "effects": [],
    "flags": {},
    "img": "systems/pf2e/icons/default-icons/hazard.svg",
    "items": [
        {
            "_id": "Eoo8nFMnqyYVA8S9",
            "data": {
                "actionCategory": {
                    "value": ""
                },
                "actionType": {
                    "value": "reaction"
                },
                "actions": {
                    "value": null
                },
                "description": {
                    "value": "<p><strong>Trigger</strong> A creature moves within 5 feet of the pile of broken furniture;</p>\n<p><strong>Effect</strong> The pile of furniture and entangling wires explodes outward. The trap deals [[/r 6d10+27 #slashing]]{6d10+27 slashing damage} (<span data-pf2-check=\"reflex\" data-pf2-dc=\"32\" data-pf2-traits=\"damaging-effect\" data-pf2-label=\"Unsprung Wires DC\" data-pf2-show-dc=\"gm\">basic Reflex</span> save). On a failed save, the target takes a -10-foot penalty to all its Speeds for 1 round (1 minute on a critical failure).</p>"
                },
                "requirements": {
                    "value": ""
                },
                "rules": [],
                "slug": null,
                "source": {
                    "value": ""
                },
                "traits": {
                    "custom": "",
                    "rarity": {
                        "value": "common"
                    },
                    "value": []
                },
                "trigger": {
                    "value": ""
                },
                "weapon": {
                    "value": ""
                }
            },
            "effects": [],
            "flags": {},
            "img": "systems/pf2e/icons/actions/Reaction.webp",
            "name": "Unsprung Wires",
            "sort": 100000,
            "type": "action"
        }
    ],
    "name": "Explosive Furniture Trap",
    "token": {
        "disposition": 0,
        "height": 1,
        "img": "systems/pf2e/icons/default-icons/hazard.svg",
        "name": "Explosive Furniture Trap",
        "width": 1
    },
    "type": "hazard"
}
