{
    "_id": "9LnXsMRwYcxi7nDO",
    "data": {
        "boosts": {
            "0": {
                "value": [
                    "cha",
                    "wis"
                ]
            },
            "1": {
                "value": [
                    "cha",
                    "con",
                    "dex",
                    "int",
                    "str",
                    "wis"
                ]
            }
        },
        "description": {
            "value": "<p><strong>Prerequisite</strong>: Region - Mwangi Expanse</p>\n<hr />\n<p>Though many Bekyars worship demons, you seek to pave a different path for yourself and your kindred, while also attempting to change other Mwangi's treatment of your culture.</p>\n<p>Choose two ability boosts. One must be to <strong>Wisdom</strong> or <strong>Charisma</strong>, and one is a free ability boost.</p>\n<p>You're trained in the Diplomacy skill and the Abyss Lore skill. You gain the @Compendium[pf2e.feats-srd.Group Impression]{Group Impression} skill feat.</p>"
        },
        "items": {
            "n8ngr": {
                "id": "KpFetnUqTiweypZk",
                "img": "systems/pf2e/icons/features/feats/feats.webp",
                "level": "1",
                "name": "Group Impression",
                "pack": "pf2e.feats-srd"
            }
        },
        "rules": [],
        "source": {
            "value": ""
        },
        "trainedLore": "Abyss Lore",
        "trainedSkills": {
            "value": [
                "dip"
            ]
        },
        "traits": {
            "custom": "",
            "rarity": {
                "value": "common"
            },
            "value": []
        }
    },
    "effects": [],
    "flags": {},
    "img": "systems/pf2e/icons/default-icons/background.svg",
    "name": "Bekyar Restorer",
    "type": "background"
}
