{
    "_id": "wYpWQCD2IYqDtqpc",
    "data": {
        "baseItem": null,
        "brokenThreshold": {
            "value": 0
        },
        "bulkCapacity": {
            "value": ""
        },
        "collapsed": {
            "value": false
        },
        "containerId": {
            "value": ""
        },
        "description": {
            "value": "<p>This set of healer's tools contains a seemingly endless supply of bandages, herbs, and healing items of impeccable quality, granting you a +3 item bonus to Medicine checks.</p>\n<p><strong>Activate</strong> <span class=\"pf2-icon\">A</span> Treat Poison or 8 hours (Treat Disease)</p>\n<p><strong>Effect</strong> You can activate the tools when you use them to Treat Poison in order to produce the effects of a 6th-level @Compendium[pf2e.spells-srd.Neutralize Poison]{Neutralize Poison}, or when you Treat Disease in order to produce the effects of a 6th-level @Compendium[pf2e.spells-srd.Remove Disease]{Remove Disease}.</p>\n<p>Once these medicines have been used to treat a patient's poison or disease, they can't be used again to treat the same affliction for that patient.</p>\n<hr />\n<p>Automatically applied effects:</p>\n<ul>\n<li>+3 item bonus to Medicine checks.</li>\n</ul>"
        },
        "equipped": {
            "value": false
        },
        "equippedBulk": {
            "value": ""
        },
        "hardness": {
            "value": 0
        },
        "hp": {
            "value": 0
        },
        "identification": {
            "misidentified": {},
            "status": "identified",
            "unidentified": {
                "data": {
                    "description": {
                        "value": ""
                    }
                },
                "img": "",
                "name": ""
            }
        },
        "invested": {
            "value": false
        },
        "level": {
            "value": 18
        },
        "maxHp": {
            "value": 0
        },
        "negateBulk": {
            "value": "0"
        },
        "preciousMaterial": {
            "value": ""
        },
        "preciousMaterialGrade": {
            "value": ""
        },
        "price": {
            "value": "19,000 gp"
        },
        "quantity": {
            "value": 1
        },
        "rules": [
            {
                "key": "PF2E.RuleElement.FlatModifier",
                "selector": "medicine",
                "type": "item",
                "value": 3
            }
        ],
        "size": {
            "value": "med"
        },
        "source": {
            "value": ""
        },
        "stackGroup": {
            "value": ""
        },
        "traits": {
            "custom": "",
            "rarity": {
                "value": "common"
            },
            "usage": {
                "value": "held-in-two-hands"
            },
            "value": [
                "magical",
                "necromancy"
            ]
        },
        "usage": {
            "value": "held-in-one-hand"
        },
        "weight": {
            "value": "1"
        }
    },
    "effects": [],
    "flags": {},
    "img": "systems/pf2e/icons/equipment/held-items/marvelous-medicines.webp",
    "name": "Marvelous Medicines (Greater)",
    "type": "equipment"
}
