{
    "_id": "0c7zLY9c88K2n0GC",
    "data": {
        "baseItem": null,
        "brokenThreshold": {
            "value": 0
        },
        "bulkCapacity": {
            "value": "1"
        },
        "capacity": {
            "type": "weight",
            "value": 0,
            "weightless": false
        },
        "collapsed": {
            "value": false
        },
        "containerId": {
            "value": ""
        },
        "currency": {
            "cp": 0,
            "ep": 0,
            "gp": 0,
            "pp": 0,
            "sp": 0
        },
        "description": {
            "value": "<p><span>This unobtrusive belt pouch is popular among Pathfinders who operate in places where the Society is not welcome. It is constantly under the effects of a 3rd-level @Compendium[pf2e.spells-srd.Magic Aura]{Magic Aura} spell to appear non-magical. The pouch's normal space holds as much as an ordinary belt pouch, but it also has a small extradimensional space that holds up to 1 Bulk of items. A creature actively inspecting the pouch in its ordinary state discovers the existence of the extradimensional space only on a critical success to Search the pouch (see the Concealing an Item action of the Stealth skill), though when the extradimensional space is active, it's obvious to anyone examining the pouch that it is more than it seems.</span></p>\n<p><span><strong>Activate</strong> <span class=\"pf2-icon\">A</span> Interact; <strong>Effect</strong> You switch the pouch to allow access to its extradimensional space instead of its normal space, or vice versa. This lasts until you next activate it. Items in the other space are inaccessible and hard to find until you switch the pouch back.</span></p>"
        },
        "equipped": {
            "value": false
        },
        "equippedBulk": {
            "value": ""
        },
        "hardness": {
            "value": 0
        },
        "hp": {
            "value": 0
        },
        "identification": {
            "misidentified": {},
            "status": "identified",
            "unidentified": {
                "data": {
                    "description": {
                        "value": ""
                    }
                },
                "img": "",
                "name": ""
            }
        },
        "invested": {
            "value": false
        },
        "level": {
            "value": 6
        },
        "maxHp": {
            "value": 0
        },
        "negateBulk": {
            "value": "1"
        },
        "preciousMaterial": {
            "value": ""
        },
        "preciousMaterialGrade": {
            "value": ""
        },
        "price": {
            "value": "200 gp"
        },
        "quantity": {
            "value": 1
        },
        "rules": [],
        "size": {
            "value": "med"
        },
        "source": {
            "value": ""
        },
        "stackGroup": {
            "value": ""
        },
        "traits": {
            "custom": "",
            "rarity": {
                "value": "uncommon"
            },
            "value": [
                "abjuration",
                "extradimensional",
                "invested",
                "magical"
            ]
        },
        "usage": {
            "value": "held-in-one-hand"
        },
        "weight": {
            "value": "L"
        }
    },
    "effects": [],
    "flags": {},
    "img": "systems/pf2e/icons/equipment/worn-items/other-worn-items/pathfinders-pouch.webp",
    "name": "Pathfinder's Pouch",
    "type": "backpack"
}
