{
    "_id": "BNelZMBHKlPAWl9Z",
    "data": {
        "baseItem": null,
        "brokenThreshold": {
            "value": 0
        },
        "bulkCapacity": {
            "value": ""
        },
        "collapsed": {
            "value": false
        },
        "containerId": {
            "value": ""
        },
        "description": {
            "value": "<p><span>This item appears to be a miniature replica of a theater. It includes a small pocket full of minute set dressing and costumed paper dolls.<br /></span></p>\n<p><span><strong>Activate</strong> (1 minute) command, envision, Interact; <strong>Effect</strong> You place the miniature theater on the ground, filling it with any set dressing and up to six figures you choose. Then, you tap a rhythm on the miniature, causing it to grow into a modest stage 20 feet wide and 15 feet deep. It's dressed with the decorations you selected, and simple mannequins wear the costumes you chose. A wooden proscenium arch frames the stage, and simple curtains along the sides conceal the wings. As a magical structure, the stage has the structure trait.<br /></span></p>\n<p><span>All the stage's set dressing is illusory and disappears if taken more than 20 feet from the stage. The costumes are physical but with illusory embellishments that fade at the same range, revealing only plain, white smocks.</span></p>"
        },
        "equipped": {
            "value": false
        },
        "equippedBulk": {
            "value": ""
        },
        "hardness": {
            "value": 0
        },
        "hp": {
            "value": 0
        },
        "identification": {
            "misidentified": {},
            "status": "identified",
            "unidentified": {
                "data": {
                    "description": {
                        "value": ""
                    }
                },
                "img": "",
                "name": ""
            }
        },
        "invested": {
            "value": false
        },
        "level": {
            "value": 5
        },
        "maxHp": {
            "value": 0
        },
        "negateBulk": {
            "value": "0"
        },
        "preciousMaterial": {
            "value": ""
        },
        "preciousMaterialGrade": {
            "value": ""
        },
        "price": {
            "value": "138 gp"
        },
        "quantity": {
            "value": 1
        },
        "rules": [],
        "size": {
            "value": "med"
        },
        "source": {
            "value": ""
        },
        "stackGroup": {
            "value": ""
        },
        "traits": {
            "custom": "",
            "rarity": {
                "value": "common"
            },
            "usage": {
                "value": "held-in-one-hand"
            },
            "value": [
                "conjuration",
                "magical",
                "structure"
            ]
        },
        "usage": {
            "value": "held-in-one-hand"
        },
        "weight": {
            "value": "L"
        }
    },
    "effects": [],
    "flags": {},
    "img": "systems/pf2e/icons/equipment/structures/pocket-stage.webp",
    "name": "Pocket Stage",
    "type": "equipment"
}
