{
    "_id": "OKAR7GIyJac8dmsi",
    "data": {
        "MAP": {
            "value": ""
        },
        "ability": {
            "value": "str"
        },
        "baseItem": "longsword",
        "bonus": {
            "value": 1
        },
        "bonusDamage": {
            "value": 0
        },
        "brokenThreshold": {
            "value": 0
        },
        "bulkCapacity": {
            "value": ""
        },
        "collapsed": {
            "value": false
        },
        "containerId": {
            "value": ""
        },
        "damage": {
            "damageType": "slashing",
            "dice": 1,
            "die": "d8",
            "value": ""
        },
        "description": {
            "value": "<p><strong>Perception</strong> +11; precise vision 30 feet, imprecise hearing 30 feet<br /><strong>Communication</strong> speech (Common and four other common languages)<br /><strong>Skills</strong> Performance +15<br /><strong>Int</strong> +2, <strong>Wis</strong> +2, <strong>Cha</strong> +4<br /><strong>Will</strong> +13 (+17 against attempts to quiet its singing)</p>\n<hr />\n<p>A <em>singing sword</em> is a <em>+1 striking </em>longsword imbued with the consciousness of a boisterous bard, and therefore constantly sings at all times. A singing sword can't stop singing and in fact communicates in no way other than by singing. A successful Diplomacy or Intimidation check against its Will DC can convince it to quiet its singing to a whisper for 10 minutes, or 20 minutes on a critical success, though it quickly grows displeased at anyone who attempts this repeatedly. The singing sword can spend its actions to attack on its own, with the effects of a dancing weapon's activation, except that its attack modifier is +12. Additionally, it can perform the following activations; each casts a composition spell and follows all the usual rules for compositions.</p>\n<p><strong>Activate</strong> <span class=\"pf2-icon\">A</span> command; <strong>Frequency</strong> once per minute; <strong>Effect</strong> The <em>singing sword</em> casts inspire courage.</p>\n<p><strong>Activate</strong> <span class=\"pf2-icon\">A</span> command; <strong>Frequency</strong> once per minute; <strong>Effect</strong> The <em>singing sword</em> casts inspire defense.</p>\n<p><strong>Activate</strong> <span class=\"pf2-icon\">R</span> command; <strong>Frequency</strong> once per hour; <strong>Trigger</strong> You or an ally within 60 feet rolls a saving throw against an auditory effect; <strong>Effect</strong> The <em>singing sword</em> casts counter performance.</p>"
        },
        "equipped": {
            "value": false
        },
        "equippedBulk": {
            "value": ""
        },
        "group": {
            "value": "sword"
        },
        "hands": {
            "value": ""
        },
        "hardness": {
            "value": 0
        },
        "hp": {
            "value": 0
        },
        "identification": {
            "misidentified": {},
            "status": "identified",
            "unidentified": {
                "data": {
                    "description": {
                        "value": ""
                    }
                },
                "img": "",
                "name": ""
            }
        },
        "invested": {
            "value": false
        },
        "level": {
            "value": 5
        },
        "maxHp": {
            "value": 0
        },
        "negateBulk": {
            "value": "0"
        },
        "potencyRune": {
            "value": 1
        },
        "preciousMaterial": {
            "value": ""
        },
        "preciousMaterialGrade": {
            "value": ""
        },
        "price": {
            "value": "0 gp"
        },
        "property1": {
            "critDamage": "",
            "critDamageType": "",
            "critDice": null,
            "critDie": "",
            "criticalConditionType": "",
            "criticalConditionValue": null,
            "damageType": "",
            "dice": null,
            "die": "",
            "strikeConditionType": "",
            "strikeConditionValue": null,
            "value": ""
        },
        "propertyRune1": {
            "value": ""
        },
        "propertyRune2": {
            "value": ""
        },
        "propertyRune3": {
            "value": ""
        },
        "propertyRune4": {
            "value": ""
        },
        "quantity": {
            "value": 1
        },
        "range": {
            "value": "melee"
        },
        "reload": {
            "value": ""
        },
        "rules": [],
        "size": {
            "value": "med"
        },
        "source": {
            "value": ""
        },
        "splashDamage": {
            "value": null
        },
        "stackGroup": {
            "value": ""
        },
        "strikingRune": {
            "value": "striking"
        },
        "traits": {
            "custom": "",
            "rarity": {
                "value": "rare"
            },
            "value": [
                "enchantment",
                "intelligent",
                "occult",
                "versatile-p"
            ]
        },
        "usage": {
            "value": "held-in-one-hand"
        },
        "weaponType": {
            "value": "martial"
        },
        "weight": {
            "value": "1"
        }
    },
    "effects": [],
    "flags": {},
    "img": "systems/pf2e/icons/equipment/weapons/specific-magic-weapons/singing-sword.webp",
    "name": "Singing Sword",
    "type": "weapon"
}
