{
    "_id": "ANvbi1zKF1So8bON",
    "data": {
        "MAP": {
            "value": ""
        },
        "ability": {
            "value": "str"
        },
        "baseItem": "warhammer",
        "bonus": {
            "value": 1
        },
        "bonusDamage": {
            "value": 0
        },
        "brokenThreshold": {
            "value": 0
        },
        "bulkCapacity": {
            "value": ""
        },
        "collapsed": {
            "value": false
        },
        "containerId": {
            "value": ""
        },
        "damage": {
            "damageType": "bludgeoning",
            "dice": 1,
            "die": "d8",
            "value": ""
        },
        "description": {
            "value": "<p>The sturdy, steel head of this +3 major striking @Compendium[pf2e.equipment-srd.Flaming]{Flaming} @Compendium[pf2e.equipment-srd.Shock]{Shock} orichalcum warhammer is shaped like a blazing comet.</p>\n<p><strong>Activate</strong> <span class=\"pf2-icon\">R</span> command; <strong>Trigger</strong> Your attack roll with the <em>sky hammer</em> is a critical success; <strong>Effect</strong> A 6th-level arcane @Compendium[pf2e.spells-srd.Fireball]{Fireball} spell explodes, centered on the <em>sky hammer</em>. The spell DC is 45. You are immune to the <em>fireball's</em> effect, though your allies are not.</p>\n<hr />\n<p><strong>Craft Requirements</strong> Supply a casting of <em>fireball</em> (6th level), and the initial raw materials must include 12,375 gp of orichalcum.</p>"
        },
        "equipped": {
            "value": false
        },
        "equippedBulk": {
            "value": ""
        },
        "group": {
            "value": "hammer"
        },
        "hands": {
            "value": ""
        },
        "hardness": {
            "value": 0
        },
        "hp": {
            "value": 0
        },
        "identification": {
            "misidentified": {},
            "status": "identified",
            "unidentified": {
                "data": {
                    "description": {
                        "value": ""
                    }
                },
                "img": "",
                "name": ""
            }
        },
        "invested": {
            "value": false
        },
        "level": {
            "value": 20
        },
        "maxHp": {
            "value": 0
        },
        "negateBulk": {
            "value": "0"
        },
        "potencyRune": {
            "value": 3
        },
        "preciousMaterial": {
            "value": "orichalcum"
        },
        "preciousMaterialGrade": {
            "value": "high"
        },
        "price": {
            "value": "70,000 gp"
        },
        "property1": {
            "critDamage": "",
            "critDamageType": "",
            "critDice": null,
            "critDie": "",
            "criticalConditionType": "",
            "criticalConditionValue": null,
            "damageType": "",
            "dice": null,
            "die": "",
            "strikeConditionType": "",
            "strikeConditionValue": null,
            "value": ""
        },
        "propertyRune1": {
            "value": "flaming"
        },
        "propertyRune2": {
            "value": "shock"
        },
        "propertyRune3": {
            "value": ""
        },
        "propertyRune4": {
            "value": ""
        },
        "quantity": {
            "value": 1
        },
        "range": {
            "value": "melee"
        },
        "reload": {
            "value": ""
        },
        "rules": [],
        "size": {
            "value": "med"
        },
        "source": {
            "value": ""
        },
        "splashDamage": {
            "value": null
        },
        "stackGroup": {
            "value": ""
        },
        "strikingRune": {
            "value": "majorStriking"
        },
        "traits": {
            "custom": "",
            "rarity": {
                "value": "rare"
            },
            "value": [
                "evocation",
                "magical",
                "shove"
            ]
        },
        "usage": {
            "value": "held-in-one-hand"
        },
        "weaponType": {
            "value": "martial"
        },
        "weight": {
            "value": "1"
        }
    },
    "effects": [],
    "flags": {},
    "img": "systems/pf2e/icons/equipment/weapons/specific-magic-weapons/sky-hammer.webp",
    "name": "Sky Hammer",
    "type": "weapon"
}
