{
    "_id": "mfvNh0UBzR1vXHRW",
    "data": {
        "attributes": {
            "ac": {
                "value": 0
            },
            "hardness": 0,
            "hasHealth": true,
            "hp": {
                "details": "",
                "max": 8,
                "temp": 0,
                "value": 8
            },
            "stealth": {
                "details": "<p>(trained)</p>",
                "value": 7
            }
        },
        "creatureType": "",
        "details": {
            "description": "<p>A pile of dust and bone meal, several inches deep and 10 feet across on each side, blocks the tunnel to the surface. It is suffused with the despair of the slowly dying, and summons vengeful skeletal hands to hunt down anyone who dares attempt to leave the area.</p>",
            "disable": "<p><span data-pf2-check=\"religion\" data-pf2-traits=\"haunt\" data-pf2-label=\"Administer Burial Rites DC\" data-pf2-dc=\"15\" data-pf2-show-dc=\"gm\">Religion</span> (trained) to speak the proper burial rites, <span data-pf2-check=\"occultism\" data-pf2-traits=\"haunt\" data-pf2-label=\"Exorcise Spirits DC\" data-pf2-dc=\"15\" data-pf2-show-dc=\"gm\">Occultism</span> (trained) to exorcise the lingering souls, or <span data-pf2-check=\"intimidation\" data-pf2-traits=\"haunt\" data-pf2-label=\"Scare Away Spirits DC\" data-pf2-dc=\"17\" data-pf2-show-dc=\"gm\">Intimidation</span> to scare the fearful souls away.</p>\n<p>These actions have the verbal trait. Each check to disable the hazard requires 2 actions, and two total successes are required to disable the haunt.</p>",
            "isComplex": true,
            "level": {
                "value": 1
            },
            "reset": "<p>The haunt deactivates if no creatures remain within 30 feet but resets immediately thereafter unless disabled. If tthe haunt is disabled, it resets after 24 hours.</p>",
            "routine": "<p><span class=\"pf2-icon\">1</span> Spectral hands grasp at creatures in the area. Each creature within 30 feet of the dust pile takes [[/r 1d4 #negative]]{1d4 negative damage} (<span data-pf2-check=\"will\" data-pf2-traits=\"haunt\" data-pf2-label=\"Grasping Hands DC\" data-pf2-dc=\"17\" data-pf2-show-dc=\"gm\">basic Will</span> save<span data-visibility=\"gm\">; creatures that critically fail this saving throw are @Compendium[pf2e.conditionitems.Slowed]{Slowed 1} for 1 round</span>).</p>"
        },
        "saves": {
            "fortitude": {
                "saveDetail": "",
                "value": 0
            },
            "reflex": {
                "saveDetail": "",
                "value": 0
            },
            "will": {
                "saveDetail": "",
                "value": 0
            }
        },
        "source": {
            "value": "Pathfinder Bounty #12: Somewhere Below"
        },
        "statusEffects": [],
        "traits": {
            "ci": [],
            "di": {
                "custom": "",
                "selected": {},
                "value": []
            },
            "dr": [],
            "dv": [],
            "rarity": {
                "value": "rare"
            },
            "size": {
                "value": "med"
            },
            "traits": {
                "custom": "",
                "value": [
                    "haunt"
                ]
            }
        }
    },
    "effects": [],
    "flags": {},
    "img": "systems/pf2e/icons/default-icons/hazard.svg",
    "items": [
        {
            "_id": "PkLITinx6YSh892W",
            "data": {
                "actionCategory": {
                    "value": "offensive"
                },
                "actionType": {
                    "value": "reaction"
                },
                "actions": {
                    "value": null
                },
                "description": {
                    "value": "<p data-visibility=\"gm\"><strong>Trigger</strong> A creature comes within 30 feet of the remains;</p>\n<p><strong>Effect</strong> The haunt summons three @Compendium[pf2e.pathfinder-bestiary-2.Crawling Hand]{Crawling Hands}, which emerge from the pile of dust to attack nearby creatures.<span data-visibility=\"gm\"> The hands roll initiative and remain for 7 rounds, after which the summoning spell ends and the hands disappear. The hands also disappear if someone disables the trap before the duration expires.</span></p>\n<p data-visibility=\"gm\">The summoned hands can use 3 actions each round and can use reactions, unlike most summoned creatures.</p>"
                },
                "requirements": {
                    "value": ""
                },
                "rules": [],
                "slug": null,
                "source": {
                    "value": ""
                },
                "traits": {
                    "custom": "",
                    "rarity": {
                        "value": "common"
                    },
                    "value": [
                        "conjuration",
                        "occult",
                        "summon"
                    ]
                },
                "trigger": {
                    "value": ""
                },
                "weapon": {
                    "value": ""
                }
            },
            "effects": [],
            "flags": {},
            "img": "systems/pf2e/icons/actions/Reaction.webp",
            "name": "Summon Crawling Hands",
            "sort": 0,
            "type": "action"
        }
    ],
    "name": "Hands of Slow Death",
    "token": {
        "disposition": 0,
        "height": 1,
        "img": "systems/pf2e/icons/default-icons/hazard.svg",
        "name": "Hands of Slow Death",
        "width": 1
    },
    "type": "hazard"
}
