{
    "_id": "BudeoAoJ4dOxjj0K",
    "data": {
        "attributes": {
            "ac": {
                "value": 0
            },
            "hardness": 0,
            "hasHealth": true,
            "hp": {
                "details": "",
                "max": 0,
                "temp": 0,
                "tempmax": 0,
                "value": 0
            },
            "stealth": {
                "details": "+0 or Detect Magic",
                "value": 0
            }
        },
        "creatureType": "",
        "customModifiers": {},
        "details": {
            "description": "A ring of eight dragon pillar replicas mark the border of a dome of magical prismatic energy that entirely contains the Fortress of Sorrow.",
            "disable": "Each dragon pillar that is destroyed removes the corresponding color's effect from Dahak's shell; as long as even one color remains active, the pillars marking the shell's border cannot be damaged themselves, but a successful DC 32 Thievery (master) check or a successful dispel magic (6th level; counteract DC 30) against one of the eight pillars can cause a randomly determined active color in the shell defense (below) to become deactivated for [[/br 1d4 #rounds]]{1d4 rounds}.",
            "isComplex": false,
            "level": {
                "value": 12
            },
            "reset": "",
            "routine": ""
        },
        "saves": {
            "fortitude": {
                "saveDetail": "",
                "value": 0
            },
            "reflex": {
                "saveDetail": "",
                "value": 0
            },
            "will": {
                "saveDetail": "",
                "value": 0
            }
        },
        "source": {
            "value": ""
        },
        "statusEffects": [],
        "traits": {
            "ci": [],
            "di": {
                "custom": "",
                "selected": {},
                "value": []
            },
            "dr": [],
            "dv": [],
            "rarity": {
                "value": "common"
            },
            "size": {
                "value": "med"
            },
            "traits": {
                "custom": "Unique",
                "value": [
                    "magical",
                    "custom"
                ]
            }
        }
    },
    "effects": [],
    "flags": {},
    "img": "systems/pf2e/icons/default-icons/hazard.svg",
    "items": [
        {
            "_id": "HPLwJZH8RwLW9c13",
            "data": {
                "actionCategory": {
                    "value": ""
                },
                "actionType": {
                    "value": "passive"
                },
                "actions": {
                    "value": null
                },
                "description": {
                    "value": "<p><span data-pf2-check=\"fortitude\" data-pf2-dc=\"32\" data-pf2-traits=\"divine,evocation,incapacitation,custom\" data-pf2-label=\"Black Eye Beam DC\" data-pf2-show-dc=\"gm\">Fortitude</span> save.</p>\n<hr />\n<p><strong>Critical Success</strong> The target is unaffected.</p>\n<p><strong>Success</strong> The target is @Compendium[pf2e.conditionitems.Blinded]{Blinded} for 1 round.</p>\n<p><strong>Failure</strong> The target is @Compendium[pf2e.conditionitems.Blinded]{Blinded} for 1 hour.</p>\n<p><strong>Critical Failure</strong> The target is @Compendium[pf2e.conditionitems.Blinded]{Blinded} for 24 hours.</p>"
                },
                "requirements": {
                    "value": ""
                },
                "rules": [],
                "slug": null,
                "source": {
                    "value": ""
                },
                "traits": {
                    "custom": "Range 120 feet",
                    "rarity": {
                        "value": "common"
                    },
                    "selected": {
                        "custom": "Range 120 feet",
                        "divine": "Divine",
                        "evocation": "Evocation",
                        "incapacitation": "Incapacitation"
                    },
                    "value": [
                        "divine",
                        "evocation",
                        "incapacitation",
                        "custom"
                    ]
                },
                "trigger": {
                    "value": ""
                },
                "weapon": {
                    "value": ""
                }
            },
            "effects": [],
            "flags": {},
            "img": "systems/pf2e/icons/default-icons/action.svg",
            "name": "Black Eye Beam",
            "sort": 1300000,
            "type": "action"
        },
        {
            "_id": "uapfpdQSjUz13nBn",
            "data": {
                "attack": {
                    "value": ""
                },
                "attackEffects": {
                    "custom": "",
                    "value": [
                        "Black Eye Beam",
                        "Blue Eye Beam",
                        "Green Eye Beam",
                        "Indigo Eye Beam",
                        "Orange Eye Beam",
                        "Red Eye Beam",
                        "Violet Eye Beam",
                        "Yellow Eye Beam"
                    ]
                },
                "bonus": {
                    "value": 20
                },
                "damageRolls": {},
                "description": {
                    "value": "<p><strong>Range</strong>: 120 feet.</p>\n<p><strong>Effect</strong>: The target is subjected to an effect determined by the pillar's color and summarized in the passive actions. On a critical hit, the target's save result is one degree worse.</p>"
                },
                "rules": [],
                "slug": null,
                "source": {
                    "value": ""
                },
                "traits": {
                    "custom": "Divine, Range 120 feet",
                    "rarity": {
                        "value": "common"
                    },
                    "selected": {
                        "custom": "Divine, Range 120 feet",
                        "evocation": "Evocation"
                    },
                    "value": [
                        "evocation",
                        "custom"
                    ]
                },
                "weaponType": {
                    "value": "ranged"
                }
            },
            "effects": [],
            "flags": {},
            "img": "systems/pf2e/icons/default-icons/melee.svg",
            "name": "Eye Beam",
            "sort": 1400000,
            "type": "melee"
        },
        {
            "_id": "Od7nphkGvQM8Iv5L",
            "data": {
                "actionCategory": {
                    "value": ""
                },
                "actionType": {
                    "value": "passive"
                },
                "actions": {
                    "value": null
                },
                "description": {
                    "value": "<p><span data-pf2-check=\"fortitude\" data-pf2-dc=\"32\" data-pf2-traits=\"divine,evocation,incapacitation,custom\" data-pf2-label=\"Blue Eye Beam DC\" data-pf2-show-dc=\"gm\">Fortitude</span> save.</p>\n<hr />\n<p><strong>Critical Success</strong>: The target is unaffected.</p>\n<p><strong>Success</strong>: The target is @Compendium[pf2e.conditionitems.Petrified]{Petrified} for 1 round.</p>\n<p><strong>Failure</strong>: The target is @Compendium[pf2e.conditionitems.Petrified]{Petrified} for 1 hour.</p>\n<p><strong>Critical Failure</strong>: The target is @Compendium[pf2e.conditionitems.Petrified]{Petrified} permanently.</p>"
                },
                "requirements": {
                    "value": ""
                },
                "rules": [],
                "slug": null,
                "source": {
                    "value": ""
                },
                "traits": {
                    "custom": "Range 120 feet",
                    "rarity": {
                        "value": "common"
                    },
                    "selected": {
                        "custom": "Range 120 feet",
                        "divine": "Divine",
                        "evocation": "Evocation",
                        "incapacitation": "Incapacitation"
                    },
                    "value": [
                        "divine",
                        "evocation",
                        "incapacitation",
                        "custom"
                    ]
                },
                "trigger": {
                    "value": ""
                },
                "weapon": {
                    "value": ""
                }
            },
            "effects": [],
            "flags": {},
            "img": "systems/pf2e/icons/default-icons/action.svg",
            "name": "Blue Eye Beam",
            "sort": 1500000,
            "type": "action"
        },
        {
            "_id": "SHZi101TqFOYWlIL",
            "data": {
                "actionCategory": {
                    "value": ""
                },
                "actionType": {
                    "value": "passive"
                },
                "actions": {
                    "value": null
                },
                "description": {
                    "value": "<p>[[/r 6d6 #poison]]{6d6 poison damage}.</p>\n<p><span data-pf2-check=\"reflex\" data-pf2-dc=\"32\" data-pf2-traits=\"divine,evocation,poison,custom,damaging-effect\" data-pf2-label=\"Green Eye Beam DC\" data-pf2-show-dc=\"gm\">basic Reflex</span> save.</p>"
                },
                "requirements": {
                    "value": ""
                },
                "rules": [],
                "slug": null,
                "source": {
                    "value": ""
                },
                "traits": {
                    "custom": "Range 120 feet",
                    "rarity": {
                        "value": "common"
                    },
                    "selected": {
                        "custom": "Range 120 feet",
                        "divine": "Divine",
                        "evocation": "Evocation",
                        "poison": "Poison"
                    },
                    "value": [
                        "divine",
                        "evocation",
                        "poison",
                        "custom"
                    ]
                },
                "trigger": {
                    "value": ""
                },
                "weapon": {
                    "value": ""
                }
            },
            "effects": [],
            "flags": {},
            "img": "systems/pf2e/icons/default-icons/action.svg",
            "name": "Green Eye Beam",
            "sort": 1600000,
            "type": "action"
        },
        {
            "_id": "jI9GCbJaB0b3F4Kw",
            "data": {
                "actionCategory": {
                    "value": ""
                },
                "actionType": {
                    "value": "passive"
                },
                "actions": {
                    "value": null
                },
                "description": {
                    "value": "<p><span data-pf2-check=\"will\" data-pf2-dc=\"32\" data-pf2-traits=\"divination,evocation,incapacitation,custom\" data-pf2-label=\"Indigo Eye Beam DC\" data-pf2-show-dc=\"gm\">Will</span> save.</p>\n<hr />\n<p><strong>Critical Success</strong>: The target is unaffected.</p>\n<p><strong>Success</strong>: The target is @Compendium[pf2e.conditionitems.Slowed]{Slowed} 1 for 1 round.</p>\n<p><strong>Failure</strong>: The target is @Compendium[pf2e.conditionitems.Confused]{Confused} for 1 round.</p>\n<p><strong>Critical Failure</strong>: The target is @Compendium[pf2e.conditionitems.Controlled]{Controlled} by the dragon pillar and remains within 60 feet of it at all times, defending the dragon pillar from all non-Cinderclaws. While a target is @Compendium[pf2e.conditionitems.Controlled]{Controlled}, it is treated as a Cinderclaw ally by the dragon pillar. The dragon pillar can control up to 3 targets at a time; any targets in excess who critically fail this saving throw are instead @Compendium[pf2e.conditionitems.Confused]{Confused} for [[/r1d4+1]] rounds. A @Compendium[pf2e.conditionitems.Controlled]{Controlled} creature can attempt a new Will save once every 24 hours to escape control, but doing so automatically causes the dragon pillar to attack it with a new eye beam to attempt to re-establish control. The control ends if the pillar is destroyed.</p>"
                },
                "requirements": {
                    "value": ""
                },
                "rules": [],
                "slug": null,
                "source": {
                    "value": ""
                },
                "traits": {
                    "custom": "Range 120 feet",
                    "rarity": {
                        "value": "common"
                    },
                    "selected": {
                        "custom": "Range 120 feet",
                        "divination": "Divination",
                        "evocation": "Evocation",
                        "incapacitation": "Incapacitation"
                    },
                    "value": [
                        "divination",
                        "evocation",
                        "incapacitation",
                        "custom"
                    ]
                },
                "trigger": {
                    "value": ""
                },
                "weapon": {
                    "value": ""
                }
            },
            "effects": [],
            "flags": {},
            "img": "systems/pf2e/icons/default-icons/action.svg",
            "name": "Indigo Eye Beam",
            "sort": 1700000,
            "type": "action"
        },
        {
            "_id": "Ari4IpvWQTIYV64K",
            "data": {
                "actionCategory": {
                    "value": ""
                },
                "actionType": {
                    "value": "passive"
                },
                "actions": {
                    "value": null
                },
                "description": {
                    "value": "<p>[[/r 6d6 #electricity]]{6d6 electricity damage}.</p>\n<p><span data-pf2-check=\"reflex\" data-pf2-dc=\"32\" data-pf2-traits=\"divine,electricity,evocation,custom,damaging-effect\" data-pf2-label=\"Yellow Eye Beam DC\" data-pf2-show-dc=\"gm\">basic Reflex</span> save.</p>"
                },
                "requirements": {
                    "value": ""
                },
                "rules": [],
                "slug": null,
                "source": {
                    "value": ""
                },
                "traits": {
                    "custom": "Range 120 feet",
                    "rarity": {
                        "value": "common"
                    },
                    "selected": {
                        "custom": "Range 120 feet",
                        "divine": "Divine",
                        "electricity": "Electricity",
                        "evocation": "Evocation"
                    },
                    "value": [
                        "divine",
                        "electricity",
                        "evocation",
                        "custom"
                    ]
                },
                "trigger": {
                    "value": ""
                },
                "weapon": {
                    "value": ""
                }
            },
            "effects": [],
            "flags": {},
            "img": "systems/pf2e/icons/default-icons/action.svg",
            "name": "Yellow Eye Beam",
            "sort": 1800000,
            "type": "action"
        },
        {
            "_id": "sXWZxvJlU7LZrpHC",
            "data": {
                "actionCategory": {
                    "value": ""
                },
                "actionType": {
                    "value": "passive"
                },
                "actions": {
                    "value": null
                },
                "description": {
                    "value": "<p>[[/r 6d6 #acid]]{6d6 acid damage}.</p>\n<p><span data-pf2-check=\"reflex\" data-pf2-dc=\"32\" data-pf2-traits=\"acid,divine,evocation,custom,damaging-effect\" data-pf2-label=\"Orange Eye Beam DC\" data-pf2-show-dc=\"gm\">basic Reflex</span> save.</p>"
                },
                "requirements": {
                    "value": ""
                },
                "rules": [],
                "slug": null,
                "source": {
                    "value": ""
                },
                "traits": {
                    "custom": "range 120 feet",
                    "rarity": {
                        "value": "common"
                    },
                    "selected": {
                        "acid": "Acid",
                        "custom": "range 120 feet",
                        "divine": "Divine",
                        "evocation": "Evocation"
                    },
                    "value": [
                        "acid",
                        "divine",
                        "evocation",
                        "custom"
                    ]
                },
                "trigger": {
                    "value": ""
                },
                "weapon": {
                    "value": ""
                }
            },
            "effects": [],
            "flags": {},
            "img": "systems/pf2e/icons/default-icons/action.svg",
            "name": "Orange Eye Beam",
            "sort": 1900000,
            "type": "action"
        },
        {
            "_id": "jNcUglLORusRcA4f",
            "data": {
                "actionCategory": {
                    "value": ""
                },
                "actionType": {
                    "value": "passive"
                },
                "actions": {
                    "value": null
                },
                "description": {
                    "value": "<p>[[/r 6d6 #fire]]{6d6 fire damage}.</p>\n<p><span data-pf2-check=\"reflex\" data-pf2-dc=\"32\" data-pf2-traits=\"divine,evocation,fire,custom,damaging-effect\" data-pf2-label=\"Red Eye Beam DC\" data-pf2-show-dc=\"gm\">basic Reflex</span> save.</p>"
                },
                "requirements": {
                    "value": ""
                },
                "rules": [],
                "slug": null,
                "source": {
                    "value": ""
                },
                "traits": {
                    "custom": "range 120 feet",
                    "rarity": {
                        "value": "common"
                    },
                    "selected": {
                        "custom": "range 120 feet",
                        "divine": "Divine",
                        "evocation": "Evocation",
                        "fire": "Fire"
                    },
                    "value": [
                        "divine",
                        "evocation",
                        "fire",
                        "custom"
                    ]
                },
                "trigger": {
                    "value": ""
                },
                "weapon": {
                    "value": ""
                }
            },
            "effects": [],
            "flags": {},
            "img": "systems/pf2e/icons/default-icons/action.svg",
            "name": "Red Eye Beam",
            "sort": 2000000,
            "type": "action"
        },
        {
            "_id": "w5Yk889pfRGklcLm",
            "data": {
                "actionCategory": {
                    "value": ""
                },
                "actionType": {
                    "value": "passive"
                },
                "actions": {
                    "value": null
                },
                "description": {
                    "value": "<p><span data-pf2-check=\"will\" data-pf2-dc=\"32\" data-pf2-traits=\"divine,evocation,incapacitation,custom\" data-pf2-label=\"Violet Eye Beam DC\" data-pf2-show-dc=\"gm\">Will</span> save.</p>\n<hr />\n<p><strong>Critical Success:</strong> The target is unaffected.</p>\n<p><strong>Success</strong>: The target is @Compendium[pf2e.conditionitems.Stunned]{Stunned} 1.</p>\n<p><strong>Failure</strong>: The target is @Compendium[pf2e.conditionitems.Stunned]{Stunned} 3.</p>\n<p><strong>Critical Failure</strong>: The target is @Compendium[pf2e.conditionitems.Stunned]{Stunned} 7.</p>"
                },
                "requirements": {
                    "value": ""
                },
                "rules": [],
                "slug": null,
                "source": {
                    "value": ""
                },
                "traits": {
                    "custom": "range 120 feet",
                    "rarity": {
                        "value": "common"
                    },
                    "selected": {
                        "custom": "range 120 feet",
                        "divine": "Divine",
                        "evocation": "Evocation",
                        "incapacitation": "Incapacitation"
                    },
                    "value": [
                        "divine",
                        "evocation",
                        "incapacitation",
                        "custom"
                    ]
                },
                "trigger": {
                    "value": ""
                },
                "weapon": {
                    "value": ""
                }
            },
            "effects": [],
            "flags": {},
            "img": "systems/pf2e/icons/default-icons/action.svg",
            "name": "Violet Eye Beam",
            "sort": 2100000,
            "type": "action"
        },
        {
            "_id": "wXqVDCpWmbgHRsvv",
            "data": {
                "actionCategory": {
                    "value": ""
                },
                "actionType": {
                    "value": "action"
                },
                "actions": {
                    "value": null
                },
                "description": {
                    "value": "<p><strong>Trigger</strong>: a creature attempts and fails to disable one of the shell colors via Thievery or dispel magic;</p>\n<p><strong>Effect</strong>: Dahak's shell @Compendium[pf2e.actionspf2e.Strike]{Strikes} the triggering creature with a random eye beam. Roll [[/r 1d8]] to determine the color:</p>\n<ol>\n<li>Red</li>\n<li>Orange</li>\n<li>Yellow</li>\n<li>Green</li>\n<li>Blue</li>\n<li>Indigo</li>\n<li>Violet</li>\n<li>Black</li>\n</ol>"
                },
                "requirements": {
                    "value": ""
                },
                "rules": [],
                "slug": null,
                "source": {
                    "value": ""
                },
                "traits": {
                    "custom": "",
                    "rarity": {
                        "value": "common"
                    },
                    "selected": {},
                    "value": []
                },
                "trigger": {
                    "value": ""
                },
                "weapon": {
                    "value": ""
                }
            },
            "effects": [],
            "flags": {},
            "img": "systems/pf2e/icons/actions/OneAction.webp",
            "name": "Prismatic Beam",
            "sort": 2200000,
            "type": "action"
        },
        {
            "_id": "yBzadQTPzGdYAxAW",
            "data": {
                "actionCategory": {
                    "value": ""
                },
                "actionType": {
                    "value": "action"
                },
                "actions": {
                    "value": null
                },
                "description": {
                    "value": "<p><strong>Effect</strong>: The target suffers an effect corresponding to the eye beam's color, but with a save DC of 32. On a critical hit, the target's save result is one degree worse.</p>"
                },
                "requirements": {
                    "value": ""
                },
                "rules": [],
                "slug": null,
                "source": {
                    "value": ""
                },
                "traits": {
                    "custom": "",
                    "rarity": {
                        "value": "common"
                    },
                    "selected": {},
                    "value": []
                },
                "trigger": {
                    "value": ""
                },
                "weapon": {
                    "value": ""
                }
            },
            "effects": [],
            "flags": {},
            "img": "systems/pf2e/icons/actions/OneAction.webp",
            "name": "Eye Beam",
            "sort": 2300000,
            "type": "action"
        },
        {
            "_id": "qfAZ12H9DKd8pEad",
            "data": {
                "actionCategory": {
                    "value": ""
                },
                "actionType": {
                    "value": "passive"
                },
                "actions": {
                    "value": null
                },
                "description": {
                    "value": "<p>When a creature physically passes through the shell, the creature is affected simultaneously by all colors of energy currently active in the shell; apply these effects in the following order: red, orange, yellow, green, blue, indigo, violet, black. These effects are the same as that of the eye beams, but with a save DC of 32. Each effect requires its own save.</p>"
                },
                "requirements": {
                    "value": ""
                },
                "rules": [],
                "slug": null,
                "source": {
                    "value": ""
                },
                "traits": {
                    "custom": "",
                    "rarity": {
                        "value": "common"
                    },
                    "selected": {
                        "abjuration": "Abjuration",
                        "divine": "Divine",
                        "light": "Light"
                    },
                    "value": [
                        "abjuration",
                        "divine",
                        "light"
                    ]
                },
                "trigger": {
                    "value": ""
                },
                "weapon": {
                    "value": ""
                }
            },
            "effects": [],
            "flags": {},
            "img": "systems/pf2e/icons/default-icons/action.svg",
            "name": "Shell Defense",
            "sort": 2400000,
            "type": "action"
        }
    ],
    "name": "Dahak's Shell",
    "token": {
        "disposition": 0,
        "height": 1,
        "img": "systems/pf2e/icons/default-icons/hazard.svg",
        "name": "Dahak's Shell",
        "width": 1
    },
    "type": "hazard"
}
