{
    "_id": "EA5vuSgJfiHH7plD",
    "data": {
        "actionCategory": {
            "value": ""
        },
        "actionType": {
            "value": "passive"
        },
        "actions": {
            "value": null
        },
        "description": {
            "value": "<p>You follow tracks, moving at up to half your travel speed. After a successful check to Track, you can continue following the tracks at half your Speed without attempting additional checks for up to 1 hour. In some cases, you might Track in an encounter. In this case, Track is a single action and doesn't have the exploration trait, but you might need to roll more often because you're in a tense situation. The GM determines how often you must attempt this check.</p>\n<p>You attempt your <span data-pf2-action=\"track\" data-pf2-glyph=\"A\">Survival</span> check when you start Tracking, once every hour you continue tracking, and any time something significant changes in the trail. The GM determines the DCs for such checks, depending on the freshness of the trail, the weather, and the type of ground.</p>\n<hr />\n<p><strong>Success</strong> You find the trail or continue to follow the one you're already following.</p>\n<p><strong>Failure</strong> You lose the trail but can try again after a 1-hour delay.</p>\n<p><strong>Critical Failure</strong> You lose the trail and can't try again for 24 hours.</p>\n<h2 class=\"title\">Sample Track Tasks</h2>\n<ul>\n<li><strong>Untrained</strong> the path of a large army following a road</li>\n<li><strong>Trained</strong> relatively fresh tracks of a rampaging bear through the plains</li>\n<li><strong>Expert</strong> a nimble panther's tracks through a jungle, tracks obscured by rainfall</li>\n<li><strong>Master</strong> tracks obscured by winter snow, tracks of a mouse or smaller creature, tracks left on surfaces that can't hold prints like bare rock</li>\n<li><strong>Legendary</strong> old tracks through a windy desert's sands, tracks obscured by a major blizzard or hurricane</li>\n</ul>"
        },
        "requirements": {
            "value": ""
        },
        "rules": [],
        "source": {
            "value": ""
        },
        "traits": {
            "custom": "",
            "rarity": {
                "value": "common"
            },
            "value": [
                "move",
                "concentrate",
                "skill",
                "exploration"
            ]
        },
        "trigger": {
            "value": ""
        },
        "weapon": {
            "value": ""
        }
    },
    "effects": [],
    "flags": {},
    "img": "systems/pf2e/icons/default-icons/mystery-man.svg",
    "name": "Track",
    "type": "action"
}
