{
    "_id": "p2aGtovaY1feytws",
    "data": {
        "description": {
            "value": "<p>Granted by activating @Compendium[pf2e.equipment-srd.Aeon Stone (Black Pearl)]{Aeon Stone (Black Pearl)}</p>\n<hr />\n<p>Automatically applied effects:</p>\n<ul>\n<li>+4 status bonus to saving throws vs. mental effects</li>\n</ul>"
        },
        "duration": {
            "expiry": "turn-start",
            "sustained": false,
            "unit": "unlimited",
            "value": -1
        },
        "level": {
            "value": 12
        },
        "rules": [
            {
                "key": "PF2E.RuleElement.FlatModifier",
                "label": "Black Pearl Aeon Stone (vs. a mental effect)",
                "predicate": {
                    "all": [
                        "mental"
                    ]
                },
                "selector": "saving-throw",
                "type": "status",
                "value": 4
            }
        ],
        "source": {
            "value": ""
        },
        "start": {
            "initiative": null,
            "value": 0
        },
        "target": null,
        "tokenIcon": {
            "show": true
        },
        "traits": {
            "custom": "",
            "rarity": {
                "value": "common"
            },
            "value": []
        }
    },
    "effects": [],
    "flags": {},
    "img": "systems/pf2e/icons/equipment/worn-items/other-worn-items/aeon-stone-black-pearl.webp",
    "name": "Effect: Aeon Stone (Black Pearl)",
    "type": "effect"
}
