{
    "_id": "8jNxwdzrSMFyoHJ5",
    "data": {
        "attributes": {
            "ac": {
                "value": 10
            },
            "hardness": 0,
            "hasHealth": true,
            "hp": {
                "details": "",
                "max": 10,
                "temp": 0,
                "value": 10
            },
            "stealth": {
                "details": "<p>DC 10</p>",
                "value": 0
            }
        },
        "creatureType": "",
        "details": {
            "description": "<p>Mogaru's tail sweeps forth, causing an arc of devastation in a 60-foot cone.</p>",
            "disable": "<p><span data-pf2-check=\"performance\" data-pf2-label=\"Divert Mogaru's Attention DC\" data-pf2-dc=\"45\" data-pf2-show-dc=\"gm\">Performance</span> (legendary) or <span data-pf2-check=\"deception\" data-pf2-label=\"Divert Mogaru's Attention DC\" data-pf2-dc=\"48\" data-pf2-show-dc=\"gm\">Deception</span> (legendary) to momentarily divert Mogaru's attention</p>",
            "isComplex": false,
            "level": {
                "value": 18
            },
            "reset": "<p>Mogaru doesn't swat his tail again for [[/br 1d4 #rounds]]{1d4 rounds}.</p>",
            "routine": ""
        },
        "saves": {
            "fortitude": {
                "saveDetail": "",
                "value": 0
            },
            "reflex": {
                "saveDetail": "",
                "value": 0
            },
            "will": {
                "saveDetail": "",
                "value": 0
            }
        },
        "source": {
            "value": "Pathfinder #167: Ready? Fight!"
        },
        "statusEffects": [],
        "traits": {
            "ci": [],
            "di": {
                "custom": "",
                "selected": {},
                "value": []
            },
            "dr": [],
            "dv": [],
            "rarity": {
                "value": "common"
            },
            "size": {
                "value": "med"
            },
            "traits": {
                "custom": "",
                "value": [
                    "kaiju"
                ]
            }
        }
    },
    "effects": [],
    "flags": {},
    "img": "systems/pf2e/icons/default-icons/hazard.svg",
    "items": [
        {
            "_id": "yW1zq1AuOImW36SW",
            "data": {
                "actionCategory": {
                    "value": "offensive"
                },
                "actionType": {
                    "value": "reaction"
                },
                "actions": {
                    "value": null
                },
                "description": {
                    "value": "<p><strong>Trigger</strong> A creature takes a hostile action against Mogaru, produces a visible area effect, or flies within 120 feet of Mogaru;</p>\n<p><strong>Effect</strong> Creatures in the area must succeed at a <span data-pf2-check=\"reflex\" data-pf2-label=\"Tail Swat DC\" data-pf2-dc=\"40\" data-pf2-show-dc=\"gm\">Reflex</span> save or take [[/r 6d10 + 28 # bludgeoning damage]]{6d10 + 28 bludgeoning damage}.</p>\n<hr />\n<p><strong>Critical Success</strong> The creature is unaffected.</p>\n<p><strong>Success</strong> The creature takes half damage and is pushed 20 feet away. If flying, it descends 20 feet.</p>\n<p><strong>Failure</strong> The creature takes full damage, is pushed 40 feet, and descends 60 feet (if flying) or is knocked @Compendium[pf2e.conditionitems.Prone]{Prone}.</p>\n<p><strong>Critical Failure</strong> The creature takes double damage, is pushed 60 feet away, descends 120 feet (if flying) or is knocked prone, and is @Compendium[pf2e.conditionitems.Stunned]{Stunned 2}.</p>"
                },
                "requirements": {
                    "value": ""
                },
                "rules": [],
                "slug": null,
                "source": {
                    "value": ""
                },
                "traits": {
                    "custom": "",
                    "rarity": {
                        "value": "common"
                    },
                    "value": []
                },
                "trigger": {
                    "value": ""
                },
                "weapon": {
                    "value": ""
                }
            },
            "effects": [],
            "flags": {},
            "img": "systems/pf2e/icons/actions/Reaction.webp",
            "name": "Tail Swat",
            "sort": 0,
            "type": "action"
        }
    ],
    "name": "Swatting Tail",
    "token": {
        "disposition": 0,
        "height": 1,
        "img": "systems/pf2e/icons/default-icons/hazard.svg",
        "name": "Swatting Tail",
        "width": 1
    },
    "type": "hazard"
}
