{
    "_id": "Cf0CDTZvGaYDAXUN",
    "data": {
        "actionCategory": {
            "value": ""
        },
        "actionType": {
            "value": "action"
        },
        "actions": {
            "value": 2
        },
        "description": {
            "value": "<p><strong>Frequency</strong> once per day</p>\n<hr />\n<p>You’ve spent many an evening learning songs and tales featuring calacas, death’s wandering minstrels. You dramatically unleash a stunning blast of sound by smashing an instrument you hold or belting out a discordant note. This has the effects of @Compendium[pf2e.spells-srd.Synaptic Pulse]{Synaptic Pulse}, but the effect is auditory rather than mental. The DC is either your class DC or spell DC, whichever is higher.</p>"
        },
        "featType": {
            "value": "ancestry"
        },
        "level": {
            "value": 13
        },
        "location": "",
        "prerequisites": {
            "value": [
                {
                    "value": "expert in Performance"
                }
            ]
        },
        "rules": [],
        "source": {
            "value": ""
        },
        "traits": {
            "custom": "",
            "rarity": {
                "value": "common"
            },
            "value": [
                "auditory",
                "divine",
                "duskwalker",
                "enchantment",
                "incapacitation"
            ]
        }
    },
    "effects": [],
    "flags": {},
    "img": "systems/pf2e/icons/features/feats/feats.webp",
    "name": "Calaca's Showstopper",
    "type": "feat"
}
