{
    "_id": "ZPK2Un5ChzeNc9Dx",
    "data": {
        "actionCategory": {
            "value": ""
        },
        "actionType": {
            "value": "passive"
        },
        "actions": {
            "value": null
        },
        "description": {
            "value": "<p>You've learned a few magical techniques for getting yourself both into and out of trouble unnoticed. You gain @Compendium[pf2e.spells-srd.Misdirection]{Misdirection} and @Compendium[pf2e.spells-srd.Silence]{Silence} as 2nd-level arcane or occult innate spells.</p>\n<p>The tradition of these spells must match the tradition you use for your gnome ancestry options. You can cast each spell once per day and can target only yourself.</p>"
        },
        "featType": {
            "value": "ancestry"
        },
        "level": {
            "value": 9
        },
        "prerequisites": {
            "value": [
                {
                    "value": "at least one arcane or occult innate spell gained from a gnome heritage or gnome ancestry feat"
                }
            ]
        },
        "rules": [],
        "source": {
            "value": ""
        },
        "traits": {
            "custom": "",
            "rarity": {
                "value": "common"
            },
            "value": [
                "gnome"
            ]
        }
    },
    "effects": [],
    "flags": {},
    "img": "systems/pf2e/icons/features/feats/feats.webp",
    "name": "Cautious Curiosity",
    "type": "feat"
}
