{
    "_id": "qWb5IxkBUpJWKSLf",
    "data": {
        "actionCategory": {
            "value": ""
        },
        "actionType": {
            "value": "passive"
        },
        "actions": {
            "value": null
        },
        "description": {
            "value": "<p>You gain 3 additional Hit Points for each champion archetype class feat you have. As you continue selecting champion archetype class feats, you continue to gain additional Hit Points in this way.</p>"
        },
        "featType": {
            "value": "archetype"
        },
        "level": {
            "value": 4
        },
        "location": "",
        "prerequisites": {
            "value": [
                {
                    "value": "Champion Dedication"
                },
                {
                    "value": "class granting no more Hit Points per level than 8 + your Constitution modifier"
                }
            ]
        },
        "rules": [
            {
                "key": "PF2E.RuleElement.ActiveEffectLike",
                "mode": "add",
                "path": "data.data.custom.modifiers.champion-dedication-count",
                "value": 1
            },
            {
                "key": "PF2E.RuleElement.FlatModifier",
                "selector": "hp",
                "value": "3*@data.custom.modifiers.champion-dedication-count"
            }
        ],
        "source": {
            "value": ""
        },
        "traits": {
            "custom": "",
            "rarity": {
                "value": "common"
            },
            "value": [
                "archetype"
            ]
        }
    },
    "effects": [],
    "flags": {},
    "img": "systems/pf2e/icons/features/feats/feats.webp",
    "name": "Champion Resiliency",
    "type": "feat"
}
