{
    "_id": "nJe8eQUrIpKWLXh5",
    "data": {
        "actionCategory": {
            "value": ""
        },
        "actionType": {
            "value": "passive"
        },
        "actions": {
            "value": null
        },
        "description": {
            "value": "<p>You can drive your allies into a frenzy, granting them incredible benefits. You can ignore the requirements on Share Rage, using it multiple times in a Rage. Allies affected by Share Rage who accept your anathema for the duration of the Rage gain your instinct ability and the specialization ability it gains from weapon specialization, but not greater weapon specialization.</p>"
        },
        "featType": {
            "value": "class"
        },
        "level": {
            "value": 20
        },
        "prerequisites": {
            "value": [
                {
                    "value": "Share Rage"
                }
            ]
        },
        "rules": [],
        "source": {
            "value": ""
        },
        "traits": {
            "custom": "",
            "rarity": {
                "value": "common"
            },
            "value": [
                "auditory",
                "barbarian",
                "rage",
                "visual"
            ]
        }
    },
    "effects": [],
    "flags": {},
    "img": "systems/pf2e/icons/features/feats/feats.webp",
    "name": "Contagious Rage",
    "type": "feat"
}
