{
    "_id": "nEmaHLsZEBru1Jjv",
    "data": {
        "actionCategory": {
            "value": ""
        },
        "actionType": {
            "value": "reaction"
        },
        "actions": {
            "value": null
        },
        "description": {
            "value": "<p><strong>Trigger</strong> A creature within your reach uses an auditory effect, manipulate action, or move action; makes a ranged attack; or leaves a square during its move action.</p>\n<p><strong>Requirements</strong> You are affected by @Compendium[pf2e.spells-srd.Inspire Courage]{Inspire Courage}.</p>\n<hr />\n<p>You bellow a ferocious call to arms, inspiring yourself to lash out at a foe. Make a melee @Compendium[pf2e.actionspf2e.Strike]{Strike}against the triggering creature. If the attack is a critical hit and the trigger was a manipulate action, the action is disrupted.</p>"
        },
        "featType": {
            "value": "class"
        },
        "level": {
            "value": 8
        },
        "prerequisites": {
            "value": [
                {
                    "value": "warrior muse"
                }
            ]
        },
        "rules": [],
        "source": {
            "value": ""
        },
        "traits": {
            "custom": "",
            "rarity": {
                "value": "common"
            },
            "value": [
                "auditory",
                "bard",
                "concentrate"
            ]
        }
    },
    "effects": [],
    "flags": {},
    "img": "systems/pf2e/icons/features/feats/feats.webp",
    "name": "Courageous Opportunity",
    "type": "feat"
}
