{
    "_id": "CpjN7v1QN8TQFcvI",
    "data": {
        "actionCategory": {
            "value": ""
        },
        "actionType": {
            "value": "passive"
        },
        "actions": {
            "value": null
        },
        "description": {
            "value": "<p>You have a deep understanding of the crossbow. When you're wielding a crossbow and use Hunt Prey or use Interact to reload your crossbow, you gain a +2 circumstance bonus to the damage roll on your next Strike with that crossbow.</p>\n<p>If the crossbow is a simple crossbow, also increase the damage die size for that attack by one step.</p>\n<p>You must make the attack before the end of your next turn or these benefits are lost.</p>"
        },
        "featType": {
            "value": "class"
        },
        "level": {
            "value": 1
        },
        "location": "",
        "prerequisites": {
            "value": []
        },
        "rules": [
            {
                "key": "PF2E.RuleElement.ToggleProperty",
                "label": "Reloaded crossbow or Hunted Prey",
                "property": "flags.pf2e.rollOptions.damage-roll.crossbow-ace"
            },
            {
                "key": "PF2E.RuleElement.FlatModifier",
                "predicate": {
                    "all": [
                        "crossbow-ace"
                    ]
                },
                "selector": "damage",
                "type": "circumstance",
                "value": 2
            },
            {
                "key": "PF2E.RuleElement.DamageDice",
                "label": "Crossbow Ace",
                "name": "crossbow-ace-dice-override",
                "override": {
                    "dieSize": "d10"
                },
                "predicate": {
                    "all": [
                        "crossbow-ace"
                    ]
                },
                "selector": "crossbow-damage"
            },
            {
                "key": "PF2E.RuleElement.DamageDice",
                "label": "Crossbow Ace",
                "name": "crossbow-ace-dice-override-hand",
                "override": {
                    "dieSize": "d8"
                },
                "predicate": {
                    "all": [
                        "crossbow-ace"
                    ]
                },
                "selector": "hand-crossbow-damage"
            },
            {
                "key": "PF2E.RuleElement.DamageDice",
                "label": "Crossbow Ace",
                "name": "crossbow-ace-dice-override-heavy",
                "override": {
                    "dieSize": "d12"
                },
                "predicate": {
                    "all": [
                        "crossbow-ace"
                    ]
                },
                "selector": "heavy-crossbow-damage"
            },
            {
                "key": "PF2E.RuleElement.DamageDice",
                "label": "Crossbow Ace",
                "name": "crossbow-ace-dice-override",
                "override": {
                    "dieSize": "d10"
                },
                "predicate": {
                    "all": [
                        "crossbow-ace"
                    ]
                },
                "selector": "alchemical-crossbow-damage"
            },
            {
                "key": "PF2E.RuleElement.DamageDice",
                "label": "Crossbow Ace",
                "name": "crossbow-ace-dice-override",
                "override": {
                    "dieSize": "d10"
                },
                "predicate": {
                    "all": [
                        "crossbow-ace"
                    ]
                },
                "selector": "spiritsight-crossbow-damage"
            }
        ],
        "source": {
            "value": ""
        },
        "traits": {
            "custom": "",
            "rarity": {
                "value": "common"
            },
            "value": [
                "ranger"
            ]
        }
    },
    "effects": [],
    "flags": {},
    "img": "systems/pf2e/icons/features/feats/feats.webp",
    "name": "Crossbow Ace",
    "type": "feat"
}
