{
    "_id": "jzflcD1XnBp2bSZI",
    "data": {
        "actionCategory": {
            "value": ""
        },
        "actionType": {
            "value": "reaction"
        },
        "actions": {
            "value": null
        },
        "description": {
            "value": "<p><strong>Trigger</strong> You observe a target's attitude toward yourself or your allies decrease as a result of an ally's behavior.</p>\n<hr />\n<p>You know how to maintain a good impression and manage your image, even while keeping uncouth company.</p>\n<p>Make a Deception check against the target's Will DC. Regardless of your result, the target is temporarily immune to your Distracting Flattery for 10 minutes.</p>\n<hr />\n<p><strong>Success</strong> The target's attitude doesn't decrease as a result of <br />your ally's social blunder.</p>\n<p><strong>Failure</strong> The target's attitude decreases, as normal.</p>\n<p><strong>Critical Failure</strong> Your attempt makes matters worse, decreasing the target's attitude toward you by one step, in addition to any <br />changes from the behavior that triggered this reaction.</p>"
        },
        "featType": {
            "value": "archetype"
        },
        "level": {
            "value": 4
        },
        "location": "",
        "prerequisites": {
            "value": [
                {
                    "value": "Dandy Dedication"
                },
                {
                    "value": "expert in Deception"
                }
            ]
        },
        "rules": [],
        "source": {
            "value": ""
        },
        "traits": {
            "custom": "",
            "rarity": {
                "value": "common"
            },
            "value": [
                "archetype",
                "skill"
            ]
        }
    },
    "effects": [],
    "flags": {},
    "img": "systems/pf2e/icons/features/feats/feats.webp",
    "name": "Distracting Flattery",
    "type": "feat"
}
