{
    "_id": "PqZZSo06BH5N7x7C",
    "data": {
        "actionCategory": {
            "value": ""
        },
        "actionType": {
            "value": "action"
        },
        "actions": {
            "value": 1
        },
        "description": {
            "value": "<p><strong>Requirements</strong> Your most recent action was to cast a non-<br />cantrip spell.</p>\n<hr />\n<p>You transfer vestiges of magical energy to the air around you, creating a vortex that deflects ranged attacks. Until the start of your next turn, you gain a +1 status bonus to AC against ranged weapon attacks and physical ranged unarmed attacks.</p>"
        },
        "featType": {
            "value": "class"
        },
        "level": {
            "value": 6
        },
        "location": "",
        "prerequisites": {
            "value": []
        },
        "rules": [
            {
                "key": "PF2E.RuleElement.ToggleProperty",
                "label": "Use Diverting Vortex",
                "property": "flags.pf2e.rollOptions.ac.diverting-vortex"
            },
            {
                "key": "PF2E.RuleElement.FlatModifier",
                "predicate": {
                    "all": [
                        "ranged",
                        "mundane"
                    ]
                },
                "roll-options": [
                    "all"
                ],
                "selector": "ac",
                "type": "status",
                "value": 1
            }
        ],
        "source": {
            "value": ""
        },
        "traits": {
            "custom": "",
            "rarity": {
                "value": "common"
            },
            "value": [
                "sorcerer"
            ]
        }
    },
    "effects": [],
    "flags": {},
    "img": "systems/pf2e/icons/features/feats/feats.webp",
    "name": "Diverting Vortex",
    "type": "feat"
}
