{
    "_id": "F0MYBfiyOD8YHq5t",
    "data": {
        "actionCategory": {
            "value": ""
        },
        "actionType": {
            "value": "passive"
        },
        "actions": {
            "value": null
        },
        "description": {
            "value": "<p>You understand the fundamental elements of nature such that you can imbue them into your body and manifest as a living embodiment of those elements.</p>\n<p>Add the forms in @Compendium[pf2e.spells-srd.Elemental Form]{Elemental Form} to your <em>wild shape</em> list.</p>\n<p>Whenever you're polymorphed into another form using <em>wild shape</em>, you gain resistance 5 to fire.</p>"
        },
        "featType": {
            "value": "class"
        },
        "level": {
            "value": 10
        },
        "location": "",
        "prerequisites": {
            "value": [
                {
                    "value": "Wild Shape"
                }
            ]
        },
        "rules": [],
        "source": {
            "value": ""
        },
        "traits": {
            "custom": "",
            "rarity": {
                "value": "common"
            },
            "value": [
                "druid"
            ]
        }
    },
    "effects": [],
    "flags": {},
    "img": "systems/pf2e/icons/features/feats/feats.webp",
    "name": "Elemental Shape",
    "type": "feat"
}
