{
    "_id": "2bNd89jYmEO8wSay",
    "data": {
        "actionCategory": {
            "value": ""
        },
        "actionType": {
            "value": "passive"
        },
        "actions": {
            "value": null
        },
        "description": {
            "value": "<p>Your rubbery physique makes it easier for you to wedge yourself into tight spaces and more difficult for your enemies to dislodge you.</p>\n<p>You become trained in Acrobatics. If you would automatically become trained in Acrobatics (from your background or class, for example), you instead become trained in a skill of your choice.</p>\n<p>If you roll a success to @Compendium[pf2e.actionspf2e.Squeeze]{Squeeze}, you get a critical success instead. While you're Squeezing, you gain a +4 circumstance bonus to your Fortitude or Reflex DCs against attempts to Shove you or otherwise move you from your space.</p>"
        },
        "featType": {
            "value": "ancestry"
        },
        "level": {
            "value": 1
        },
        "prerequisites": {
            "value": [
                {
                    "value": "unbreakable goblin heritage"
                }
            ]
        },
        "rules": [],
        "source": {
            "value": ""
        },
        "traits": {
            "custom": "",
            "rarity": {
                "value": "common"
            },
            "value": [
                "goblin"
            ]
        }
    },
    "effects": [],
    "flags": {},
    "img": "systems/pf2e/icons/features/feats/feats.webp",
    "name": "Extra Squishy",
    "type": "feat"
}
