{
    "_id": "UqA9GdO2pGQwg9cd",
    "data": {
        "actionCategory": {
            "value": ""
        },
        "actionType": {
            "value": "passive"
        },
        "actions": {
            "value": null
        },
        "description": {
            "value": "<p>You broaden your ability to channel your power into halcyon magic. You gain one more common halcyon spell of each level of halcyon spell you can cast other than your highest (you do not gain an additional cantrip). You also gain one additional halcyon spell slot for each level of halcyon spell you can cast, other than the highest.</p>"
        },
        "featType": {
            "value": "archetype"
        },
        "level": {
            "value": 12
        },
        "prerequisites": {
            "value": [
                {
                    "value": "Halcyon Spellcasting Initiate"
                }
            ]
        },
        "rules": [],
        "source": {
            "value": ""
        },
        "traits": {
            "custom": "",
            "rarity": {
                "value": "common"
            },
            "value": [
                "archetype"
            ]
        }
    },
    "effects": [],
    "flags": {},
    "img": "systems/pf2e/icons/features/feats/feats.webp",
    "name": "Flexible Halcyon Spellcasting",
    "type": "feat"
}
