{
    "_id": "zgriBCYR4TmBoDqO",
    "data": {
        "actionCategory": {
            "value": ""
        },
        "actionType": {
            "value": "action"
        },
        "actions": {
            "value": 1
        },
        "description": {
            "value": "<p><strong>Requirements</strong> You are in a forest or jungle environment near an environmental feature that would allow you to Take Cover.</p>\n<hr />\n<p>You are skilled at quickly hiding behind bits of underbrush or foliage. You @Compendium[pf2e.actionspf2e.Take Cover]{Take Cover} and then use that cover to @Compendium[pf2e.actionspf2e.Hide]{Hide}.</p>"
        },
        "featType": {
            "value": "ancestry"
        },
        "level": {
            "value": 5
        },
        "prerequisites": {
            "value": [
                {
                    "value": "Expert in Stealth"
                }
            ]
        },
        "rules": [],
        "source": {
            "value": ""
        },
        "traits": {
            "custom": "",
            "rarity": {
                "value": "common"
            },
            "value": [
                "elf"
            ]
        }
    },
    "effects": [],
    "flags": {},
    "img": "systems/pf2e/icons/features/feats/feats.webp",
    "name": "Forest Stealth",
    "type": "feat"
}
