{
    "_id": "bXoGskH0SYfdcEtJ",
    "data": {
        "actionCategory": {
            "value": ""
        },
        "actionType": {
            "value": "passive"
        },
        "actions": {
            "value": null
        },
        "description": {
            "value": "<p>You can guide your crop to move without notice. When you and any of your crop are Avoiding Notice, you can choose one member of your crop to temporarily gain the benefits of the Quiet Allies skill feat until the group is no longer Avoiding Notice. The group rolls two checks instead of one, using the higher die roll. This is a fortune effect.</p>"
        },
        "featType": {
            "value": "archetype"
        },
        "level": {
            "value": 8
        },
        "prerequisites": {
            "value": [
                {
                    "value": "Bellflower Dedication"
                }
            ]
        },
        "rules": [],
        "source": {
            "value": ""
        },
        "traits": {
            "custom": "",
            "rarity": {
                "value": "common"
            },
            "value": [
                "archetype"
            ]
        }
    },
    "effects": [],
    "flags": {},
    "img": "systems/pf2e/icons/features/feats/feats.webp",
    "name": "Garden Path",
    "type": "feat"
}
