{
    "_id": "weYZzyMmlCIC2TZt",
    "data": {
        "actionCategory": {
            "value": ""
        },
        "actionType": {
            "value": "passive"
        },
        "actions": {
            "value": null
        },
        "description": {
            "value": "<p>You can extend a tangle of vines or tendrils to support your arms and extend your reach. When you wield a melee weapon that requires two hands, doesn't have reach, and deals at least 1d6 damage, you can change between a typical two-handed grip and an extended two-handed grasp using an Interact action. Weapons wielded in your extended grasp gain reach of 10 feet. This grasp is less stable and powerful than a typical grip, reducing the weapon's damage die by 1 step.</p>"
        },
        "featType": {
            "value": "ancestry"
        },
        "level": {
            "value": 1
        },
        "prerequisites": {
            "value": []
        },
        "rules": [],
        "source": {
            "value": ""
        },
        "traits": {
            "custom": "",
            "rarity": {
                "value": "common"
            },
            "value": [
                "leshy"
            ]
        }
    },
    "effects": [],
    "flags": {},
    "img": "systems/pf2e/icons/features/feats/feats.webp",
    "name": "Grasping Reach",
    "type": "feat"
}
