{
    "_id": "uAdnQZSkUuxcpEwz",
    "data": {
        "actionCategory": {
            "value": ""
        },
        "actionType": {
            "value": "passive"
        },
        "actions": {
            "value": null
        },
        "description": {
            "value": "<p>You always seem to bounce back from the worst. When you use @Compendium[pf2e.feats-srd.Charmed Life]{Charmed Life}, roll the save twice (including the +2 circumstance bonus from Charmed Life) and use the better result.</p>"
        },
        "featType": {
            "value": "class"
        },
        "level": {
            "value": 18
        },
        "location": "",
        "prerequisites": {
            "value": [
                {
                    "value": "Charmed Life"
                }
            ]
        },
        "rules": [],
        "source": {
            "value": ""
        },
        "traits": {
            "custom": "",
            "rarity": {
                "value": "common"
            },
            "value": [
                "fortune",
                "swashbuckler"
            ]
        }
    },
    "effects": [],
    "flags": {},
    "img": "systems/pf2e/icons/features/feats/feats.webp",
    "name": "Incredible Luck (Swashbuckler)",
    "type": "feat"
}
