{
    "_id": "aOYnK0xe9DKFtx7d",
    "data": {
        "actionCategory": {
            "value": ""
        },
        "actionType": {
            "value": "passive"
        },
        "actions": {
            "value": null
        },
        "description": {
            "value": "<p>You know how to alter the perceptions of others. You can cast @Compendium[pf2e.spells-srd.Aura of the Unremarkable]{Aura of the Unremarkable} once per day as an innate arcane spell. The spell uses your class DC or spell DC, whichever is higher.</p>"
        },
        "featType": {
            "value": "archetype"
        },
        "level": {
            "value": 14
        },
        "location": "",
        "prerequisites": {
            "value": [
                {
                    "value": "Butterfly Blade Dedication"
                }
            ]
        },
        "rules": [],
        "source": {
            "value": ""
        },
        "traits": {
            "custom": "",
            "rarity": {
                "value": "uncommon"
            },
            "value": [
                "archetype"
            ]
        }
    },
    "effects": [],
    "flags": {},
    "img": "systems/pf2e/icons/default-icons/feats.webp",
    "name": "Innocent Butterfly",
    "type": "feat"
}
