{
    "_id": "1YFrl8I6ZGo7BIM9",
    "data": {
        "actionCategory": {
            "value": ""
        },
        "actionType": {
            "value": "passive"
        },
        "actions": {
            "value": null
        },
        "description": {
            "value": "<p>You are dedicated to the cause of the Shining Sentinels. You gain expert proficiency in Religion. When you are between an ally and a foe and would provide lesser cover to your ally against the foe's attacks, you twist to become even more obtrusive, providing standard cover instead.</p>\n<p><strong>Special</strong> You cannot select another dedication feat until you have gained two other feats from the Knight Vigilant archetype.</p>"
        },
        "featType": {
            "value": "class"
        },
        "level": {
            "value": 6
        },
        "location": "",
        "prerequisites": {
            "value": [
                {
                    "value": "trained in Religion"
                },
                {
                    "value": "any good alignment"
                },
                {
                    "value": "member of the Knights of Lastwall of knight rank"
                }
            ]
        },
        "rules": [
            {
                "key": "PF2E.RuleElement.ActiveEffectLike",
                "mode": "upgrade",
                "path": "data.skills.rel.rank",
                "value": 2
            }
        ],
        "source": {
            "value": ""
        },
        "traits": {
            "custom": "",
            "rarity": {
                "value": "uncommon"
            },
            "value": [
                "archetype",
                "dedication"
            ]
        }
    },
    "effects": [],
    "flags": {},
    "img": "systems/pf2e/icons/features/feats/feats.webp",
    "name": "Knight Vigilant Dedication",
    "type": "feat"
}
