{
    "_id": "u6SDVWbzHnBBPNMo",
    "data": {
        "actionCategory": {
            "value": ""
        },
        "actionType": {
            "value": "passive"
        },
        "actions": {
            "value": null
        },
        "description": {
            "value": "<p>You have studied languages and their development. You become trained in Society; if you were already trained in Society, you instead become an expert in Society. You gain the @Compendium[pf2e.feats-srd.Multilingual]{Multilingual} skill feat twice.</p>\n<p><strong>Special</strong> You can't select another dedication feat until you have gained two other feats from the linguist archetype.</p>"
        },
        "featType": {
            "value": "archetype"
        },
        "level": {
            "value": 2
        },
        "location": "",
        "prerequisites": {
            "value": [
                {
                    "value": "You speak at least three languages."
                }
            ]
        },
        "rules": [
            {
                "key": "PF2E.RuleElement.ActiveEffectLike",
                "mode": "upgrade",
                "path": "data.skills.soc.rank",
                "value": 1
            }
        ],
        "source": {
            "value": ""
        },
        "traits": {
            "custom": "",
            "rarity": {
                "value": "common"
            },
            "value": [
                "archetype",
                "dedication"
            ]
        }
    },
    "effects": [],
    "flags": {},
    "img": "systems/pf2e/icons/features/feats/feats.webp",
    "name": "Linguist Dedication",
    "type": "feat"
}
