{
    "_id": "hgfRHSS5BsoyQ9Fj",
    "data": {
        "actionCategory": {
            "value": ""
        },
        "actionType": {
            "value": "passive"
        },
        "actions": {
            "value": null
        },
        "description": {
            "value": "<p>You channel the magic of marids. You can cast @Compendium[pf2e.spells-srd.Hydraulic Push]{Hydraulic Push} and @Compendium[pf2e.spells-srd.Obscuring Mist]{Obscuring Mist} each once per day as 2nd-level arcane innate spells.</p>"
        },
        "featType": {
            "value": "ancestry"
        },
        "level": {
            "value": 9
        },
        "location": "",
        "prerequisites": {
            "value": []
        },
        "rules": [],
        "source": {
            "value": ""
        },
        "traits": {
            "custom": "",
            "rarity": {
                "value": "common"
            },
            "value": [
                "undine"
            ]
        }
    },
    "effects": [],
    "flags": {},
    "img": "systems/pf2e/icons/features/feats/feats.webp",
    "name": "Marid Magic",
    "type": "feat"
}
