{
    "_id": "nuBY8Ek4JBFQJzoh",
    "data": {
        "actionCategory": {
            "value": ""
        },
        "actionType": {
            "value": "passive"
        },
        "actions": {
            "value": null
        },
        "description": {
            "value": "<p>When you succeed at identifying a creature using Recall Knowledge, that creature is @Compendium[pf2e.conditionitems.Flat-Footed]{Flat-Footed} against your attacks until the start of your next turn; if you critically succeed, it’s flat-footed against your attacks for 1 minute. This feat serves as the rogue's mastermind racket for the purpose of meeting prerequisites.</p>"
        },
        "featType": {
            "value": "archetype"
        },
        "level": {
            "value": 6
        },
        "location": "",
        "prerequisites": {
            "value": [
                {
                    "value": "Butterfly Blade Dedication"
                }
            ]
        },
        "rules": [],
        "source": {
            "value": ""
        },
        "traits": {
            "custom": "",
            "rarity": {
                "value": "uncommon"
            },
            "value": [
                "archetype"
            ]
        }
    },
    "effects": [],
    "flags": {},
    "img": "systems/pf2e/icons/default-icons/feats.webp",
    "name": "Mastermind's Eye",
    "type": "feat"
}
