{
    "_id": "C80vQCKQBGRaqcmq",
    "data": {
        "actionCategory": {
            "value": ""
        },
        "actionType": {
            "value": "passive"
        },
        "actions": {
            "value": null
        },
        "description": {
            "value": "<p>You've learned to split your focus between multiple classes with ease. You gain a 2nd-level multiclass dedication feat, even if you normally couldn't take another dedication feat until you take more feats from your current archetype. If you're a half-elf, you don't need to meet the feat's ability score prerequisites.</p>"
        },
        "featType": {
            "value": "ancestry"
        },
        "level": {
            "value": 9
        },
        "prerequisites": {
            "value": []
        },
        "rules": [],
        "source": {
            "value": ""
        },
        "traits": {
            "custom": "",
            "rarity": {
                "value": "common"
            },
            "value": [
                "human"
            ]
        }
    },
    "effects": [],
    "flags": {},
    "img": "systems/pf2e/icons/features/feats/feats.webp",
    "name": "Multitalented",
    "type": "feat"
}
