{
    "_id": "tB6V6rWv8vAFsKsX",
    "data": {
        "actionCategory": {
            "value": ""
        },
        "actionType": {
            "value": "action"
        },
        "actions": {
            "value": 2
        },
        "description": {
            "value": "<p><strong>Frequency</strong> once per day</p>\n<hr />\n<p>Your nanites fly out of your body, swarming around you in a cloud.</p>\n<p>You become @Compendium[pf2e.conditionitems.Concealed]{Concealed} for a number of rounds equal to half your level. You can’t use this concealment to @Compendium[pf2e.actionspf2e.Hide]{Hide} or @Compendium[pf2e.actionspf2e.Sneak]{Sneak}, as normal for concealment that makes your position obvious.</p>\n<p>While Nanite Shroud is active, you can’t use other abilities that require the use of your nanites.</p>"
        },
        "featType": {
            "value": "ancestry"
        },
        "level": {
            "value": 5
        },
        "location": "",
        "prerequisites": {
            "value": []
        },
        "rules": [],
        "source": {
            "value": ""
        },
        "traits": {
            "custom": "",
            "rarity": {
                "value": "common"
            },
            "value": [
                "android",
                "concentrate"
            ]
        }
    },
    "effects": [],
    "flags": {},
    "img": "systems/pf2e/icons/features/feats/feats.webp",
    "name": "Nanite Shroud",
    "type": "feat"
}
