{
    "_id": "e4KB4pSkx2lDBNw3",
    "data": {
        "actionCategory": {
            "value": ""
        },
        "actionType": {
            "value": "passive"
        },
        "actions": {
            "value": null
        },
        "description": {
            "value": "<p>You can set up a disguise in half the usual time (generally 5 minutes). If you're a master, it takes one-tenth the usual time (usually 1 minute). If you're legendary, you can create a full disguise and Impersonate as a 3-action activity.</p>"
        },
        "featType": {
            "value": "skill"
        },
        "level": {
            "value": 2
        },
        "prerequisites": {
            "value": [
                {
                    "value": "expert in Deception"
                }
            ]
        },
        "rules": [],
        "source": {
            "value": ""
        },
        "traits": {
            "custom": "",
            "rarity": {
                "value": "common"
            },
            "value": [
                "general",
                "skill"
            ]
        }
    },
    "effects": [],
    "flags": {},
    "img": "systems/pf2e/icons/features/feats/feats.webp",
    "name": "Quick Disguise",
    "type": "feat"
}
