{
    "_id": "fqw1ELaqavuKLHIj",
    "data": {
        "actionCategory": {
            "value": ""
        },
        "actionType": {
            "value": "free"
        },
        "actions": {
            "value": null
        },
        "description": {
            "value": "<p><strong>Frequency</strong> once per day</p>\n<hr />\n<p>Despite a lifetime filled with questionable decisions, you've managed to survive, as though you have uncanny luck that lets you avoid the consequences of your own actions. For the remainder of your turn, if you roll a failure or critical failure on a saving throw against a harmful effect, you get a success instead. Further, enemies and hazards that would damage you this turn roll the minimum possible damage.</p>\n<p>These benefits apply only to harmful effects incurred entirely during your turn in which you activate Reckless Abandon, such as running through a @Compendium[pf2e.spells-srd.Prismatic Wall]{Prismatic Wall}. Persistent damage and conditions that were applied prior to your turn proceed normally, and as soon as your turn ends you are subject to the full consequences of any dangers still threatening you.</p>"
        },
        "featType": {
            "value": "ancestry"
        },
        "level": {
            "value": 17
        },
        "prerequisites": {
            "value": []
        },
        "rules": [],
        "source": {
            "value": ""
        },
        "traits": {
            "custom": "",
            "rarity": {
                "value": "common"
            },
            "value": [
                "fortune",
                "goblin"
            ]
        }
    },
    "effects": [],
    "flags": {},
    "img": "systems/pf2e/icons/features/feats/feats.webp",
    "name": "Reckless Abandon (Goblin)",
    "type": "feat"
}
