{
    "_id": "OINfbwNZGnlyMqPR",
    "data": {
        "actionCategory": {
            "value": ""
        },
        "actionType": {
            "value": "passive"
        },
        "actions": {
            "value": null
        },
        "description": {
            "value": "<p><strong>Requirements</strong> You are in @Compendium[pf2e.feats-srd.Monastic Archer Stance]{Monastic Archer Stance}, are wielding <br />a bow, and have a free hand.</p>\n<hr />\n<p>Snatching an arrow out of the air, you instantly put it to your bow and return fire. When you successfully @Compendium[pf2e.feats-srd.Deflect Arrow]{Deflect an Arrow} as part of that reaction you can immediately make a ranged bow Strike by firing the arrow you deflected from your own bow.</p>"
        },
        "featType": {
            "value": "class"
        },
        "level": {
            "value": 6
        },
        "location": "",
        "prerequisites": {
            "value": [
                {
                    "value": "Deflect Arrow"
                },
                {
                    "value": "Monastic Archer Stance"
                }
            ]
        },
        "rules": [],
        "source": {
            "value": ""
        },
        "traits": {
            "custom": "",
            "rarity": {
                "value": "common"
            },
            "value": [
                "monk"
            ]
        }
    },
    "effects": [],
    "flags": {},
    "img": "systems/pf2e/icons/features/feats/feats.webp",
    "name": "Return Fire",
    "type": "feat"
}
