{
    "_id": "f0s3WwaJN5f2UTYY",
    "data": {
        "actionCategory": {
            "value": ""
        },
        "actionType": {
            "value": "passive"
        },
        "actions": {
            "value": null
        },
        "description": {
            "value": "<p>You are able to reverse engineer items into formulas more effectively than most. You gain a +2 circumstance bonus to Crafting checks to reverse engineer a formula from an item.</p>\n<p>Additionally, if you get a critical success on your Crafting check, you can opt to not only create the formula but also reassemble the original item at the same time, leaving you with the formula and the item instead ofthe formula and raw materials equal to half the item's value.</p>"
        },
        "featType": {
            "value": "archetype"
        },
        "level": {
            "value": 4
        },
        "prerequisites": {
            "value": [
                {
                    "value": "expert in Crafting"
                },
                {
                    "value": "Scounger Dedication"
                }
            ]
        },
        "rules": [],
        "source": {
            "value": ""
        },
        "traits": {
            "custom": "",
            "rarity": {
                "value": "common"
            },
            "value": [
                "archetype",
                "skill"
            ]
        }
    },
    "effects": [],
    "flags": {},
    "img": "systems/pf2e/icons/features/feats/feats.webp",
    "name": "Reverse Engineering",
    "type": "feat"
}
