{
    "_id": "iyXw5PnevT2jT8kU",
    "data": {
        "actionCategory": {
            "value": ""
        },
        "actionType": {
            "value": "action"
        },
        "actions": {
            "value": 3
        },
        "description": {
            "value": "<p>You read the body language of an intelligent creature within 30 feet and pick up on subtle cues to detect its general propensity for good or evil and law or chaos. The GM rolls a secret Perception check, comparing the result against the target's Deception DC.</p>\n<hr />\n<p><strong>Critical Success</strong> You ascertain the target's alignment.</p>\n<p><strong>Success</strong> You ascertain the target's alignment, but only along one axis (your choice of either the good-evil axis or the lawful-chaotic axis).</p>\n<p><strong>Failure</strong> You do not learn the target's alignment.</p>\n<p><strong>Critical Failure</strong> You incorrectly ascertain the target's alignment, misidentifying their alignment along either one axis or both (GM's choice).</p>"
        },
        "featType": {
            "value": "archetype"
        },
        "level": {
            "value": 4
        },
        "prerequisites": {
            "value": []
        },
        "rules": [],
        "source": {
            "value": ""
        },
        "traits": {
            "custom": "",
            "rarity": {
                "value": "common"
            },
            "selected": {
                "archetype": "Archetype",
                "secret": "Secret"
            },
            "value": [
                "archetype",
                "secret"
            ]
        }
    },
    "effects": [],
    "flags": {},
    "img": "systems/pf2e/icons/features/feats/feats.webp",
    "name": "Sense Alignment",
    "type": "feat"
}
