{
    "_id": "6cQSPqXoAO6oJl0i",
    "data": {
        "actionCategory": {
            "value": ""
        },
        "actionType": {
            "value": "action"
        },
        "actions": {
            "value": 1
        },
        "description": {
            "value": "<p>You enter a stance that lets you throw shuriken with lightning speed.</p>\n<p>While in this stance, you can use your monk feats or monk abilities that normally require unarmed attacks with shuriken instead.</p>\n<p>@Compendium[pf2e.feat-effects.Stance: Shooting Stars Stance]{Stance: Shooting Stars Stance}</p>"
        },
        "featType": {
            "value": "class"
        },
        "level": {
            "value": 2
        },
        "location": "",
        "prerequisites": {
            "value": [
                {
                    "value": "Monastic Weaponry"
                }
            ]
        },
        "rules": [],
        "source": {
            "value": ""
        },
        "traits": {
            "custom": "",
            "rarity": {
                "value": "common"
            },
            "value": [
                "monk",
                "stance"
            ]
        }
    },
    "effects": [],
    "flags": {},
    "img": "systems/pf2e/icons/features/feats/feats.webp",
    "name": "Shooting Stars Stance",
    "type": "feat"
}
