{
    "_id": "qxQf0HiYBh26mCMT",
    "data": {
        "actionCategory": {
            "value": ""
        },
        "actionType": {
            "value": "passive"
        },
        "actions": {
            "value": null
        },
        "description": {
            "value": "<p>You’re used to dealing with dangerous situations and sinister creatures. You become trained in Deception (or another skill of your choice, if you’re already trained in Deception), and you gain the @Compendium[pf2e.feats-srd.Lengthy Diversion]{Lengthy Diversion} skill feat as a bonus feat.</p>"
        },
        "featType": {
            "value": "ancestry"
        },
        "level": {
            "value": 1
        },
        "location": "",
        "prerequisites": {
            "value": []
        },
        "rules": [],
        "source": {
            "value": ""
        },
        "traits": {
            "custom": "",
            "rarity": {
                "value": "common"
            },
            "value": [
                "fetchling"
            ]
        }
    },
    "effects": [],
    "flags": {},
    "img": "systems/pf2e/icons/features/feats/feats.webp",
    "name": "Shrouded Mien",
    "type": "feat"
}
