{
    "_id": "UdwXT24zrLzg2ZIV",
    "data": {
        "actionCategory": {
            "value": ""
        },
        "actionType": {
            "value": "passive"
        },
        "actions": {
            "value": null
        },
        "description": {
            "value": "<p>Your swim Speed increases to match your land Speed.</p>"
        },
        "featType": {
            "value": "ancestry"
        },
        "level": {
            "value": 9
        },
        "location": "",
        "prerequisites": {
            "value": []
        },
        "rules": [],
        "source": {
            "value": ""
        },
        "traits": {
            "custom": "",
            "rarity": {
                "value": "common"
            },
            "value": [
                "undine"
            ]
        }
    },
    "effects": [],
    "flags": {},
    "img": "systems/pf2e/icons/features/feats/feats.webp",
    "name": "Strong Swimmer",
    "type": "feat"
}
