{
    "_id": "L231BR4815B6hwKT",
    "data": {
        "actionCategory": {
            "value": ""
        },
        "actionType": {
            "value": "passive"
        },
        "actions": {
            "value": null
        },
        "description": {
            "value": "<p>You have a connection to the celestial realms, allowing you to summon a celestial ally. Once per day, you can cast @Compendium[pf2e.spells-srd.Summon Celestial]{Summon Celestial} as a 5th-level divine innate spell, but the celestial summoned must be from the same category as your own lineage, such as a creature with the angel trait if you are angelkin.</p>"
        },
        "featType": {
            "value": "ancestry"
        },
        "level": {
            "value": 13
        },
        "prerequisites": {
            "value": [
                {
                    "value": "any aasimar lineage feat"
                }
            ]
        },
        "rules": [],
        "source": {
            "value": ""
        },
        "traits": {
            "custom": "",
            "rarity": {
                "value": "common"
            },
            "value": [
                "aasimar"
            ]
        }
    },
    "effects": [],
    "flags": {},
    "img": "systems/pf2e/icons/features/feats/feats.webp",
    "name": "Summon Celestial Kin",
    "type": "feat"
}
