{
    "_id": "FdP21jbjHHGpHut1",
    "data": {
        "actionCategory": {
            "value": ""
        },
        "actionType": {
            "value": "passive"
        },
        "actions": {
            "value": null
        },
        "description": {
            "value": "<p>Your victims tend to expire long before your poisons, since the latter have been specifically formulated to last longer. The maximum duration of any poison you create increases by an amount equal to the poison's stage 1 interval, to a maximum of twice the poison's maximum duration.</p>"
        },
        "featType": {
            "value": "class"
        },
        "level": {
            "value": 4
        },
        "prerequisites": {
            "value": []
        },
        "rules": [],
        "source": {
            "value": ""
        },
        "traits": {
            "custom": "",
            "rarity": {
                "value": "common"
            },
            "value": [
                "alchemist"
            ]
        }
    },
    "effects": [],
    "flags": {},
    "img": "systems/pf2e/icons/features/feats/feats.webp",
    "name": "Tenacious Toxins",
    "type": "feat"
}
