{
    "_id": "oL6f86dy4yyx5N54",
    "data": {
        "actionCategory": {
            "value": ""
        },
        "actionType": {
            "value": "passive"
        },
        "actions": {
            "value": null
        },
        "description": {
            "value": "<p>When you critically hit an undead creature, or an undead creature critically fails a saving throw against one of your abilities, you drive your divine wrath home in your enemy's heart. The undead is @Compendium[pf2e.conditionitems.Enfeebled]{Enfeebled} 1 for 1 round.</p>"
        },
        "featType": {
            "value": "ancestry"
        },
        "level": {
            "value": 5
        },
        "prerequisites": {
            "value": [
                {
                    "value": "death warden dwarf heritage"
                }
            ]
        },
        "rules": [],
        "source": {
            "value": ""
        },
        "traits": {
            "custom": "",
            "rarity": {
                "value": "common"
            },
            "value": [
                "dwarf",
                "divine"
            ]
        }
    },
    "effects": [],
    "flags": {},
    "img": "systems/pf2e/icons/features/feats/feats.webp",
    "name": "Tomb-Watcher's Glare",
    "type": "feat"
}
