{
    "_id": "fXEeTSVINdWaKHhw",
    "data": {
        "actionCategory": {
            "value": ""
        },
        "actionType": {
            "value": "passive"
        },
        "actions": {
            "value": null
        },
        "description": {
            "value": "<p><strong>Minor Boon (Single Use)</strong>: Abadar warns his favored against those who might unfairly take advantage. Once, when someone rolls a success on a Deception check to Lie maliciously to you and you alone, they get a critical failure instead.</p>\n<p>Abadar typically chooses to grant this boon in response to an extremely consequential lie.</p>"
        },
        "featType": {
            "value": "deityboon"
        },
        "level": {
            "value": 0
        },
        "prerequisites": {
            "value": []
        },
        "rules": [],
        "source": {
            "value": ""
        },
        "traits": {
            "custom": "",
            "rarity": {
                "value": "common"
            },
            "selected": {},
            "value": []
        }
    },
    "effects": [],
    "flags": {},
    "img": "systems/pf2e/icons/deity/Abadar.webp",
    "name": "Abadar - Minor Boon",
    "type": "feat"
}
