{
    "_id": "XFiI9qC4MNX4WUdh",
    "data": {
        "actionCategory": {
            "value": ""
        },
        "actionType": {
            "value": "passive"
        },
        "actions": {
            "value": null
        },
        "description": {
            "value": "<p><strong>Major Boon(Daily)</strong>: Lamashtu uses your body to birth a new monster, regardless of your gender.</p>\n<p>Once per day, you can spend 1 minute to birth a monster determined by the GM, which rips its way from your belly. The monster's level is up to your level and it does as it pleases, following Lamashtu's will, though it doesn't attack you unless you have lost her favor. You are @Compendium[pf2e.conditionitems.Drained]{Drained} 3 from the ordeal.</p>"
        },
        "featType": {
            "value": "deityboon"
        },
        "level": {
            "value": 0
        },
        "prerequisites": {
            "value": []
        },
        "rules": [],
        "source": {
            "value": ""
        },
        "traits": {
            "custom": "",
            "rarity": {
                "value": "common"
            },
            "selected": {},
            "value": []
        }
    },
    "effects": [],
    "flags": {},
    "img": "systems/pf2e/icons/deity/Lamashtu.webp",
    "name": "Lamashtu - Major Boon",
    "type": "feat"
}
