{
    "_id": "gDBa72Y2jokr8Zzg",
    "data": {
        "actionCategory": {
            "value": ""
        },
        "actionType": {
            "value": "passive"
        },
        "actions": {
            "value": null
        },
        "description": {
            "value": "<p><strong>Moderate Curse</strong>: Lamashtu marks you as prey.</p>\n<p>Any creature with imprecise or better scent can smell you from 100 × the usual range of their scent and can't shake the feeling that you smell like prey, so they might attack you even if they would normally avoid attacking creatures of your ancestry.</p>\n<p>This smell doesn't magically compel their action, and the scent of prey doesn't overcome a deeper bond such as that with an animal companion.</p>"
        },
        "featType": {
            "value": "curse"
        },
        "level": {
            "value": 0
        },
        "prerequisites": {
            "value": []
        },
        "rules": [],
        "source": {
            "value": ""
        },
        "traits": {
            "custom": "",
            "rarity": {
                "value": "common"
            },
            "selected": {},
            "value": []
        }
    },
    "effects": [],
    "flags": {},
    "img": "systems/pf2e/icons/deity/Lamashtu.webp",
    "name": "Lamashtu - Moderate Curse",
    "type": "feat"
}
