{
    "_id": "T6RsavB4ZZGdlNuA",
    "data": {
        "attributes": {
            "ac": {
                "value": 10
            },
            "hardness": 0,
            "hasHealth": false,
            "hp": {
                "details": "",
                "max": 0,
                "temp": 0,
                "tempmax": 0,
                "value": 0
            },
            "stealth": {
                "details": "(trained)",
                "value": 18
            }
        },
        "creatureType": "",
        "details": {
            "description": "Ethereal hands stretch out from the walls and floor, attempting to restrain nearby creatures.",
            "disable": "DC 30 Religion (master) to exorcise the spirits or DC 32 Intimidation (expert) to scare away the hands",
            "isComplex": false,
            "level": {
                "value": 8
            },
            "reset": "",
            "routine": ""
        },
        "saves": {
            "fortitude": {
                "saveDetail": "",
                "value": 0
            },
            "reflex": {
                "saveDetail": "",
                "value": 0
            },
            "will": {
                "saveDetail": "",
                "value": 0
            }
        },
        "source": {
            "value": "Pathfinder #158: Sixty Feet Under"
        },
        "statusEffects": [],
        "traits": {
            "ci": [],
            "di": {
                "custom": "",
                "selected": {},
                "value": []
            },
            "dr": [],
            "dv": [],
            "rarity": {
                "value": "common"
            },
            "size": {
                "value": "med"
            },
            "traits": {
                "custom": "",
                "value": [
                    "haunt"
                ]
            }
        }
    },
    "effects": [],
    "flags": {},
    "img": "systems/pf2e/icons/default-icons/hazard.svg",
    "items": [
        {
            "_id": "pWqtIfqDJ0Fag2CW",
            "data": {
                "actionCategory": {
                    "value": "offensive"
                },
                "actionType": {
                    "value": "reaction"
                },
                "actions": {
                    "value": null
                },
                "description": {
                    "value": "<p><strong>Trigger</strong> A creature moves into the area marked on the map;</p>\n<p><strong>Effect</strong> Misty blue hands stretch out from the hallway's stone tiles and grasp at the triggering creature, which must attempt a <span data-pf2-check=\"reflex\" data-pf2-dc=\"26\" data-pf2-traits=\"force,negative,occult,damaging-effect\" data-pf2-label=\"Waylay DC\" data-pf2-show-dc=\"gm\">Reflex</span> save to avoid becoming hindered or harmed by the ethereal hands.</p>\n<hr />\n<p><strong>Critical Success</strong> The target is unaffected.</p>\n<p><strong>Success</strong> The target is @Compendium[pf2e.conditionitems.Slowed]{Slowed 1} for 1 round.</p>\n<p><strong>Failure</strong> The target is @Compendium[pf2e.conditionitems.Slowed]{Slowed 2} for 1 round and takes [[/r 2d10+10 #negative]]{2d10+10 negative damage}.</p>\n<p><strong>Critical Failure</strong> The target is @Compendium[pf2e.conditionitems.Slowed]{Slowed 2} for 1 round and takes [[/r 4d10+15 #negative]]{4d10+15 negative damage}.</p>"
                },
                "requirements": {
                    "value": ""
                },
                "rules": [],
                "slug": null,
                "source": {
                    "value": ""
                },
                "traits": {
                    "custom": "",
                    "rarity": {
                        "value": "common"
                    },
                    "value": [
                        "force",
                        "negative",
                        "occult"
                    ]
                },
                "trigger": {
                    "value": ""
                },
                "weapon": {
                    "value": ""
                }
            },
            "effects": [],
            "flags": {},
            "img": "systems/pf2e/icons/actions/Reaction.webp",
            "name": "Waylay",
            "sort": 100000,
            "type": "action"
        }
    ],
    "name": "Hands Of The Forgotten",
    "token": {
        "disposition": 0,
        "height": 1,
        "img": "systems/pf2e/icons/default-icons/hazard.svg",
        "name": "Hands Of The Forgotten",
        "width": 1
    },
    "type": "hazard"
}
