{
    "_id": "ub9gwFXnMuKvhnPL",
    "data": {
        "actionCategory": {
            "value": ""
        },
        "actionType": {
            "value": "passive"
        },
        "actions": {
            "value": null
        },
        "description": {
            "value": "<p><strong>Favored Weapons</strong>: @Compendium[pf2e.equipment-srd.Halberd]{Halberd}, @Compendium[pf2e.equipment-srd.Lance]{Lance}</p>\n<p>Members of the Order of the Nail see civilized society as an ideal and seek to unite all people within their cultural baseline. They also seek to destroy anyone who does not accept Chelaxian culture along with the wild beasts that threaten the safety of civilization.</p>\n<hr />\n<p><strong>Lesser Benefit</strong>: @Compendium[pf2e.feats-srd.Trailblazing Stride]{Trailblazing Stride}</p>\n<p><strong>Greater Benefit</strong>: @Compendium[pf2e.feats-srd.Reveal Beasts]{Reveal Beasts}</p>"
        },
        "featType": {
            "value": "classfeature"
        },
        "level": {
            "value": 0
        },
        "location": "",
        "prerequisites": {
            "value": []
        },
        "rules": [],
        "source": {
            "value": ""
        },
        "traits": {
            "custom": "",
            "rarity": {
                "value": "common"
            },
            "value": []
        }
    },
    "effects": [],
    "flags": {},
    "img": "systems/pf2e/icons/default-icons/feat.svg",
    "name": "Order of the Nail",
    "type": "feat"
}
