{
    "_id": "MGn2wezOr3VAdO3U",
    "data": {
        "actionCategory": {
            "value": ""
        },
        "actionType": {
            "value": "passive"
        },
        "actions": {
            "value": null
        },
        "description": {
            "value": "<p>Your perpetual infusions improve, allowing you to use Quick Alchemy to create more powerful items with no cost. The items you can select depend on your research field and must be in your formula book.</p>\n<p>@Compendium[pf2e.classfeatures.Perpetual Potency (Bomber)]{Perpetual Potency (Bomber)}</p>\n<p>@Compendium[pf2e.classfeatures.Perpetual Potency (Chirurgeon)]{Perpetual Potency (Chirurgeon)}</p>\n<p>@Compendium[pf2e.classfeatures.Perpetual Potency (Mutagenist)]{Perpetual Potency (Mutagenist)}</p>\n<p>@Compendium[pf2e.classfeatures.Perpetual Potency (Toxicologist)]{Perpetual Potency (Toxicologist)}</p>"
        },
        "featType": {
            "value": "classfeature"
        },
        "level": {
            "value": 11
        },
        "location": "",
        "prerequisites": {
            "value": []
        },
        "rules": [],
        "source": {
            "value": ""
        },
        "traits": {
            "custom": "",
            "rarity": {
                "value": "common"
            },
            "value": [
                "alchemist"
            ]
        }
    },
    "effects": [],
    "flags": {},
    "img": "systems/pf2e/icons/default-icons/feat.svg",
    "name": "Perpetual Potency",
    "type": "feat"
}
