{
    "_id": "BSlvgDdLkTXU9hRF",
    "data": {
        "abilities": {
            "cha": {
                "mod": 6
            },
            "con": {
                "mod": 7
            },
            "dex": {
                "mod": 5
            },
            "int": {
                "mod": 6
            },
            "str": {
                "mod": 10
            },
            "wis": {
                "mod": 8
            }
        },
        "attributes": {
            "ac": {
                "details": "",
                "value": 45
            },
            "allSaves": {
                "value": "+1 status to all saves vs. magic"
            },
            "hp": {
                "details": "",
                "max": 375,
                "temp": 0,
                "value": 375
            },
            "initiative": {
                "ability": "perception"
            },
            "perception": {
                "value": 36
            },
            "shield": {
                "ac": 0,
                "brokenThreshold": 0,
                "hardness": 0,
                "max": 0,
                "value": 0
            },
            "speed": {
                "otherSpeeds": [
                    {
                        "exceptions": "",
                        "label": "Fly",
                        "type": "fly",
                        "value": "200"
                    }
                ],
                "value": "60"
            }
        },
        "details": {
            "alignment": {
                "value": "NE"
            },
            "creatureType": "Dragon",
            "flavorText": "While the other primal dragons hail from the Elemental Planes, the cruel and unceasingly malicious umbral dragons originate in the depths of the Shadow Plane. Their sleek black scales and serpentine grace allow them to strike from hiding, and they are known for playing with their prey before finally finishing it. These creatures of shadowy energy and unwholesome appetites prefer the necrotic flesh of undead creatures to any other meal. This strange hunger can be of accidental benefit to nearby humanoid societies, but ultimately they hunt and kill undead creatures for the taste, rather than out of any desire to protect others from the undead. The benefit is always short-lived, however. When umbral dragons exhaust their preferred prey, they turn on whatever living creatures happen to be nearby. Umbral dragons sometimes go to great lengths to obtain their favorite meals, even creating undead creatures that they then feast upon.<br /><br />For all their power, umbral dragons are uninterested in fair battles. When faced with foes that pose any kind of actual danger to them, umbral dragons flee into the shadows and seek to strike back through pawns or minions rather than risk their own lives. Their treasure hoards are varied and diverse, often augmented by loot stolen from crypts the dragons have turned into feeding grounds. They have a strong respect for and interest in traditions and heirlooms, and they often seek to augment their hoards with items of great value that have been handed down through the generations of those whose corpses and ghosts they've fed upon.<br /><br />",
            "level": {
                "value": 20
            },
            "source": {
                "value": "Pathfinder Bestiary 2"
            }
        },
        "resources": {
            "focus": {
                "max": 1,
                "value": 1
            }
        },
        "saves": {
            "fortitude": {
                "saveDetail": "",
                "value": 35
            },
            "reflex": {
                "saveDetail": "",
                "value": 33
            },
            "will": {
                "saveDetail": "",
                "value": 38
            }
        },
        "traits": {
            "attitude": {
                "value": "hostile"
            },
            "ci": [],
            "di": {
                "custom": "",
                "value": [
                    "negative",
                    "paralyzed",
                    "sleep"
                ]
            },
            "dr": [],
            "dv": [],
            "languages": {
                "custom": "",
                "selected": [],
                "value": [
                    "common",
                    "daemonic",
                    "draconic",
                    "necril",
                    "shadowtongue"
                ]
            },
            "rarity": {
                "value": "rare"
            },
            "senses": {
                "value": "greater darkvision, scent (imprecise) 60 feet, tremorsense (imprecise) 60 feet"
            },
            "size": {
                "value": "grg"
            },
            "traits": {
                "custom": "",
                "value": [
                    "dragon",
                    "shadow"
                ]
            }
        }
    },
    "effects": [],
    "flags": {},
    "img": "systems/pf2e/icons/default-icons/npc.svg",
    "items": [
        {
            "_id": "DFZPLEk0MQcqSi9v",
            "data": {
                "ability": {
                    "value": ""
                },
                "autoHeightenLevel": {
                    "value": null
                },
                "description": {
                    "value": ""
                },
                "displayLevel": {},
                "displayLevels": {},
                "item": {
                    "value": 0
                },
                "prepared": {
                    "value": "innate"
                },
                "proficiency": {
                    "value": 0
                },
                "rules": [],
                "showUnpreparedSpells": {
                    "value": false
                },
                "signatureSpells": {
                    "value": []
                },
                "slots": {
                    "slot0": {
                        "max": 0,
                        "prepared": [],
                        "value": 0
                    },
                    "slot1": {
                        "max": 0,
                        "prepared": [],
                        "value": 0
                    },
                    "slot10": {
                        "max": 0,
                        "prepared": [],
                        "value": 0
                    },
                    "slot11": {
                        "max": 0,
                        "prepared": [],
                        "value": 0
                    },
                    "slot2": {
                        "max": 0,
                        "prepared": [],
                        "value": 0
                    },
                    "slot3": {
                        "max": 0,
                        "prepared": [],
                        "value": 0
                    },
                    "slot4": {
                        "max": 0,
                        "prepared": [],
                        "value": 0
                    },
                    "slot5": {
                        "max": 0,
                        "prepared": [],
                        "value": 0
                    },
                    "slot6": {
                        "max": 0,
                        "prepared": [],
                        "value": 0
                    },
                    "slot7": {
                        "max": 0,
                        "prepared": [],
                        "value": 0
                    },
                    "slot8": {
                        "max": 0,
                        "prepared": [],
                        "value": 0
                    },
                    "slot9": {
                        "max": 0,
                        "prepared": [],
                        "value": 0
                    }
                },
                "slug": null,
                "source": {
                    "value": ""
                },
                "spelldc": {
                    "dc": 42,
                    "item": 0,
                    "mod": 0,
                    "value": 32
                },
                "tradition": {
                    "value": "primal"
                },
                "traits": {
                    "custom": "",
                    "rarity": {
                        "value": "common"
                    },
                    "value": []
                }
            },
            "effects": [],
            "flags": {},
            "img": "systems/pf2e/icons/default-icons/spellcastingEntry.svg",
            "name": "Primal Innate Spells",
            "sort": 100000,
            "type": "spellcastingEntry"
        },
        {
            "_id": "QjN3u2G28u81Hmuc",
            "data": {
                "ability": {
                    "value": ""
                },
                "autoHeightenLevel": {
                    "value": null
                },
                "description": {
                    "value": ""
                },
                "displayLevel": {},
                "displayLevels": {},
                "item": {
                    "value": 0
                },
                "prepared": {
                    "value": "ritual"
                },
                "proficiency": {
                    "value": 0
                },
                "rules": [],
                "showUnpreparedSpells": {
                    "value": false
                },
                "signatureSpells": {
                    "value": []
                },
                "slots": {
                    "slot0": {
                        "max": 0,
                        "prepared": [],
                        "value": 0
                    },
                    "slot1": {
                        "max": 0,
                        "prepared": [],
                        "value": 0
                    },
                    "slot10": {
                        "max": 0,
                        "prepared": [],
                        "value": 0
                    },
                    "slot11": {
                        "max": 0,
                        "prepared": [],
                        "value": 0
                    },
                    "slot2": {
                        "max": 0,
                        "prepared": [],
                        "value": 0
                    },
                    "slot3": {
                        "max": 0,
                        "prepared": [],
                        "value": 0
                    },
                    "slot4": {
                        "max": 0,
                        "prepared": [],
                        "value": 0
                    },
                    "slot5": {
                        "max": 0,
                        "prepared": [],
                        "value": 0
                    },
                    "slot6": {
                        "max": 0,
                        "prepared": [],
                        "value": 0
                    },
                    "slot7": {
                        "max": 0,
                        "prepared": [],
                        "value": 0
                    },
                    "slot8": {
                        "max": 0,
                        "prepared": [],
                        "value": 0
                    },
                    "slot9": {
                        "max": 0,
                        "prepared": [],
                        "value": 0
                    }
                },
                "slug": null,
                "source": {
                    "value": ""
                },
                "spelldc": {
                    "dc": 42,
                    "item": 0,
                    "mod": 0,
                    "value": 32
                },
                "tradition": {
                    "value": ""
                },
                "traits": {
                    "custom": "",
                    "rarity": {
                        "value": "common"
                    },
                    "value": []
                }
            },
            "effects": [],
            "flags": {},
            "img": "systems/pf2e/icons/default-icons/spellcastingEntry.svg",
            "name": "Rituals",
            "sort": 200000,
            "type": "spellcastingEntry"
        },
        {
            "_id": "xVCxqAbT5oquohdL",
            "data": {
                "ability": {
                    "value": ""
                },
                "area": {
                    "areaType": "",
                    "value": null
                },
                "areasize": {
                    "value": "60-foot line"
                },
                "autoHeightenLevel": {
                    "value": null
                },
                "category": {
                    "value": "spell"
                },
                "components": {
                    "material": false,
                    "somatic": true,
                    "verbal": true
                },
                "cost": {
                    "value": ""
                },
                "damage": {
                    "applyMod": false,
                    "value": "10d6"
                },
                "damageType": {
                    "value": "negative"
                },
                "description": {
                    "value": "<p>You unleash a wave of necromantic energy to snuff out the life force of those in its path. Each creature of 17th level or lower in the line must attempt a Fortitude save. If the damage from massacre reduces a creature to 0 Hit Points, that creature dies instantly. If massacre doesn't kill even a single creature, the negative energy violently explodes back toward you, dealing an additional 30 negative damage to every creature in the line (even those above 17th level) and 30 negative damage to you.</p>\n<hr /><strong>Critical Success</strong> The creature is unaffected.\n<p><strong>Success</strong> The creature takes 9d6 negative damage.</p>\n<p><strong>Failure</strong> The creature takes 100 negative damage.</p>\n<p><strong>Critical Failure</strong> The creature dies.</p>\n<hr /><strong>Heightened (10th)</strong> The spell can affect creatures up to 19th level. Increase the damage to 10d6 on a success, and to 115 on a failure."
                },
                "duration": {
                    "value": ""
                },
                "hasCounteractCheck": {
                    "value": false
                },
                "level": {
                    "value": 10
                },
                "location": {
                    "value": "DFZPLEk0MQcqSi9v"
                },
                "materials": {
                    "value": ""
                },
                "prepared": {
                    "value": ""
                },
                "primarycheck": {
                    "value": ""
                },
                "range": {
                    "value": ""
                },
                "rules": [],
                "save": {
                    "basic": "",
                    "value": "fortitude"
                },
                "scaling": {
                    "formula": "",
                    "mode": "none"
                },
                "school": {
                    "value": "necromancy"
                },
                "secondarycasters": {
                    "value": ""
                },
                "secondarycheck": {
                    "value": ""
                },
                "slug": "massacre",
                "source": {
                    "value": ""
                },
                "spellType": {
                    "value": "save"
                },
                "sustained": {
                    "value": false
                },
                "target": {
                    "value": ""
                },
                "time": {
                    "value": "2"
                },
                "traditions": {
                    "value": [
                        "arcane",
                        "divine",
                        "primal"
                    ]
                },
                "traits": {
                    "custom": "",
                    "rarity": {
                        "value": "common"
                    },
                    "value": [
                        "death",
                        "necromancy",
                        "negative"
                    ]
                }
            },
            "effects": [],
            "flags": {
                "core": {
                    "sourceId": "Compendium.pf2e.spells-srd.10VcmSYNBrvBphu1"
                }
            },
            "img": "systems/pf2e/icons/spells/massacre.webp",
            "name": "Massacre",
            "sort": 300000,
            "type": "spell"
        },
        {
            "_id": "zSJNdELBxJk00I4X",
            "data": {
                "ability": {
                    "value": ""
                },
                "area": {
                    "areaType": "burst",
                    "value": 20
                },
                "areasize": {
                    "value": "20-foot burst"
                },
                "autoHeightenLevel": {
                    "value": null
                },
                "category": {
                    "value": "spell"
                },
                "components": {
                    "material": true,
                    "somatic": true,
                    "verbal": true
                },
                "cost": {
                    "value": ""
                },
                "damage": {
                    "applyMod": false,
                    "value": ""
                },
                "damageType": {
                    "value": ""
                },
                "description": {
                    "value": "<p>You create a shroud of darkness that prevents light from penetrating or emanating within the area. Light does not enter the area and any non-magical light sources, such as a torch or lantern, do not emanate any light while inside the area, even if their light radius would extend beyond the darkness. This also suppresses magical light of your darkness spell's level or lower. Light can't pass through, so creatures in the area can't see outside. From outside, it appears as a globe of pure darkness.</p>\n<hr />\n<p><strong>Heightened (4th)</strong> Even creatures with darkvision (but not greater darkvision) can barely see through the darkness. They treat targets seen through the darkness as @Compendium[pf2e.conditionitems.Concealed]{Concealed}.</p>"
                },
                "duration": {
                    "value": "1 minute"
                },
                "hasCounteractCheck": {
                    "value": false
                },
                "level": {
                    "value": 9
                },
                "location": {
                    "value": "DFZPLEk0MQcqSi9v"
                },
                "materials": {
                    "value": ""
                },
                "prepared": {
                    "value": ""
                },
                "primarycheck": {
                    "value": ""
                },
                "range": {
                    "value": "120 feet"
                },
                "rules": [],
                "save": {
                    "basic": "",
                    "value": ""
                },
                "scaling": {
                    "formula": "",
                    "mode": "none"
                },
                "school": {
                    "value": "evocation"
                },
                "secondarycasters": {
                    "value": ""
                },
                "secondarycheck": {
                    "value": ""
                },
                "slug": "darkness",
                "source": {
                    "value": ""
                },
                "spellType": {
                    "value": "utility"
                },
                "sustained": {
                    "value": false
                },
                "target": {
                    "value": ""
                },
                "time": {
                    "value": "3"
                },
                "traditions": {
                    "value": [
                        "arcane",
                        "divine",
                        "occult",
                        "primal"
                    ]
                },
                "traits": {
                    "custom": "",
                    "rarity": {
                        "value": "common"
                    },
                    "value": [
                        "darkness",
                        "evocation"
                    ]
                }
            },
            "effects": [],
            "flags": {
                "core": {
                    "sourceId": "Compendium.pf2e.spells-srd.4GE2ZdODgIQtg51c"
                }
            },
            "img": "systems/pf2e/icons/spells/darkness.webp",
            "name": "Darkness (At Will)",
            "sort": 400000,
            "type": "spell"
        },
        {
            "_id": "kue84Wm3utwGMAga",
            "data": {
                "ability": {
                    "value": ""
                },
                "area": {
                    "areaType": "",
                    "value": null
                },
                "areasize": {
                    "value": ""
                },
                "autoHeightenLevel": {
                    "value": null
                },
                "category": {
                    "value": "spell"
                },
                "components": {
                    "material": false,
                    "somatic": true,
                    "verbal": true
                },
                "cost": {
                    "value": ""
                },
                "damage": {
                    "applyMod": false,
                    "value": "90"
                },
                "damageType": {
                    "value": ""
                },
                "description": {
                    "value": "<p>You point your finger toward the target and speak a word of slaying. You deal 70 negative damage to the target. If the damage from finger of death reduces the target to 0 Hit Points, the target dies instantly.</p>\n<hr />\n<p><strong>Heightened (+1)</strong> The damage increases by 10.</p>"
                },
                "duration": {
                    "value": ""
                },
                "hasCounteractCheck": {
                    "value": false
                },
                "level": {
                    "value": 9
                },
                "location": {
                    "value": "DFZPLEk0MQcqSi9v"
                },
                "materials": {
                    "value": ""
                },
                "prepared": {
                    "value": ""
                },
                "primarycheck": {
                    "value": ""
                },
                "range": {
                    "value": "30 feet"
                },
                "rules": [],
                "save": {
                    "basic": "basic",
                    "value": "fortitude"
                },
                "scaling": {
                    "formula": "",
                    "mode": "none"
                },
                "school": {
                    "value": "necromancy"
                },
                "secondarycasters": {
                    "value": ""
                },
                "secondarycheck": {
                    "value": ""
                },
                "slug": "finger-of-death",
                "source": {
                    "value": ""
                },
                "spellType": {
                    "value": "save"
                },
                "sustained": {
                    "value": false
                },
                "target": {
                    "value": "1 living creature"
                },
                "time": {
                    "value": "2"
                },
                "traditions": {
                    "value": [
                        "divine",
                        "primal"
                    ]
                },
                "traits": {
                    "custom": "",
                    "rarity": {
                        "value": "common"
                    },
                    "value": [
                        "death",
                        "necromancy"
                    ]
                }
            },
            "effects": [],
            "flags": {
                "core": {
                    "sourceId": "Compendium.pf2e.spells-srd.Z9OrRXKgAPv6Hn5l"
                }
            },
            "img": "systems/pf2e/icons/spells/finger-of-death.webp",
            "name": "Finger of Death",
            "sort": 500000,
            "type": "spell"
        },
        {
            "_id": "4odHwJFcqXI8CpPg",
            "data": {
                "ability": {
                    "value": ""
                },
                "area": {
                    "areaType": "",
                    "value": null
                },
                "areasize": {
                    "value": "30-foot cone"
                },
                "autoHeightenLevel": {
                    "value": null
                },
                "category": {
                    "value": "spell"
                },
                "components": {
                    "material": false,
                    "somatic": true,
                    "verbal": true
                },
                "cost": {
                    "value": ""
                },
                "damage": {
                    "applyMod": false,
                    "value": "16d6"
                },
                "damageType": {
                    "value": "negative"
                },
                "description": {
                    "value": "<p>You draw in the blood and life force of other creatures through your outstretched arms. You deal 12d6 negative damage to living creatures in the area. You gain temporary Hit Points equal to half the damage a single creature takes from this spell; calculate these temporary Hit Points using the creature that took the most damage. You lose any remaining temporary Hit Points after 1 minute.</p>\n<hr />\n<p><strong>Heightened (+1)</strong> The damage increases by 2d6.</p>"
                },
                "duration": {
                    "value": ""
                },
                "hasCounteractCheck": {
                    "value": false
                },
                "level": {
                    "value": 8
                },
                "location": {
                    "value": "DFZPLEk0MQcqSi9v"
                },
                "materials": {
                    "value": ""
                },
                "prepared": {
                    "value": ""
                },
                "primarycheck": {
                    "value": ""
                },
                "range": {
                    "value": ""
                },
                "rules": [],
                "save": {
                    "basic": "basic",
                    "value": "fortitude"
                },
                "scaling": {
                    "formula": "2d6",
                    "mode": "level1"
                },
                "school": {
                    "value": "necromancy"
                },
                "secondarycasters": {
                    "value": ""
                },
                "secondarycheck": {
                    "value": ""
                },
                "slug": "vampiric-exsanguination",
                "source": {
                    "value": ""
                },
                "spellType": {
                    "value": "save"
                },
                "sustained": {
                    "value": false
                },
                "target": {
                    "value": ""
                },
                "time": {
                    "value": "2"
                },
                "traditions": {
                    "value": [
                        "arcane",
                        "divine",
                        "occult"
                    ]
                },
                "traits": {
                    "custom": "",
                    "rarity": {
                        "value": "common"
                    },
                    "value": [
                        "death",
                        "necromancy",
                        "negative"
                    ]
                }
            },
            "effects": [],
            "flags": {
                "core": {
                    "sourceId": "Compendium.pf2e.spells-srd.fd31tAHSSGXyOxW6"
                }
            },
            "img": "systems/pf2e/icons/spells/vampiric-exsanguination.webp",
            "name": "Vampiric Exsanguination",
            "sort": 600000,
            "type": "spell"
        },
        {
            "_id": "B2XsgB3WjM0q9j54",
            "data": {
                "ability": {
                    "value": ""
                },
                "area": {
                    "areaType": "",
                    "value": null
                },
                "areasize": {
                    "value": ""
                },
                "autoHeightenLevel": {
                    "value": null
                },
                "category": {
                    "value": "ritual"
                },
                "components": {
                    "material": false,
                    "somatic": false,
                    "verbal": false
                },
                "cost": {
                    "value": "black onyx, see Table 7-1"
                },
                "damage": {
                    "applyMod": false,
                    "value": ""
                },
                "damageType": {
                    "value": ""
                },
                "description": {
                    "value": "<p><span>You transform the target into an undead creature with a level up to that allowed in Table 7-1. There are many versions of this ritual, each specific to a particular type of undead (one ritual for all zombies, one for skeletons, one for ghouls, and so on), and the rituals that create rare undead are also rare. Some forms of undead, such as liches, form using their own unique methods and can't be created with a version of <em>create undead</em>. </span></p>\n<h2>Table 7-1: Creatures Creation Rituals</h2>\n<table style=\"width: 379px; user-select: text; color: #191813; font-size: 13px; height: 353px;\" border=\"1\">\n<tbody style=\"box-sizing: border-box; user-select: text;\">\n<tr style=\"box-sizing: border-box; user-select: text; height: 25px;\">\n<td style=\"box-sizing: border-box; user-select: text; color: white; height: 17px; width: 103px; text-align: center; background-color: #522e2c;\"><span><strong>Creature Level</strong></span></td>\n<td style=\"box-sizing: border-box; user-select: text; color: white; width: 165px; text-align: center; background-color: #522e2c; height: 17px;\"><span><strong>Spell Level Required</strong></span></td>\n<td style=\"box-sizing: border-box; user-select: text; color: white; width: 110px; text-align: center; background-color: #522e2c; height: 17px;\"><strong style=\"box-sizing: border-box; user-select: text;\">Cost</strong></td>\n</tr>\n<tr style=\"box-sizing: border-box; user-select: text; height: 17px;\">\n<td style=\"box-sizing: border-box; user-select: text; height: 17px; width: 103px; text-align: center; background-color: #f6f1e1;\"><span>-1 or 0</span></td>\n<td style=\"box-sizing: border-box; user-select: text; width: 165px; text-align: center; background-color: #f6f1e1; height: 17px;\"><span style=\"box-sizing: border-box; user-select: text; display: block;\">2</span></td>\n<td style=\"box-sizing: border-box; user-select: text; width: 110px; text-align: center; background-color: #f6f1e1; height: 17px;\"><span>15 gp</span></td>\n</tr>\n<tr style=\"box-sizing: border-box; user-select: text; height: 17px;\">\n<td style=\"box-sizing: border-box; user-select: text; height: 17px; width: 103px; text-align: center; background-color: #eee5c8;\"><span>1</span></td>\n<td style=\"box-sizing: border-box; user-select: text; width: 165px; text-align: center; background-color: #eee5c8; height: 17px;\">2<span style=\"box-sizing: border-box; user-select: text; display: block;\"></span></td>\n<td style=\"box-sizing: border-box; user-select: text; width: 110px; text-align: center; background-color: #eee5c8; height: 17px;\"><span>60 gp</span></td>\n</tr>\n<tr style=\"box-sizing: border-box; user-select: text; height: 17px;\">\n<td style=\"box-sizing: border-box; user-select: text; height: 17px; width: 103px; text-align: center; background-color: #f6f1e1;\">2</td>\n<td style=\"box-sizing: border-box; user-select: text; width: 165px; text-align: center; background-color: #f6f1e1; height: 17px;\"><span style=\"box-sizing: border-box; user-select: text; display: block;\">3</span></td>\n<td style=\"box-sizing: border-box; user-select: text; width: 110px; text-align: center; background-color: #f6f1e1; height: 17px;\"><span>105 gp</span></td>\n</tr>\n<tr style=\"box-sizing: border-box; user-select: text; height: 19px;\">\n<td style=\"box-sizing: border-box; user-select: text; height: 19px; width: 103px; text-align: center; background-color: #eee5c8;\">3</td>\n<td style=\"box-sizing: border-box; user-select: text; width: 165px; text-align: center; background-color: #eee5c8; height: 19px;\"><span style=\"box-sizing: border-box; user-select: text; display: block;\">3</span></td>\n<td style=\"box-sizing: border-box; user-select: text; width: 110px; text-align: center; background-color: #eee5c8; height: 19px;\"><span>180 gp</span></td>\n</tr>\n<tr style=\"height: 19px; background-color: #f6f1e1;\">\n<td style=\"box-sizing: border-box; user-select: text; width: 103px; text-align: center; background-color: #f6f1e1; height: 19px;\">4</td>\n<td style=\"box-sizing: border-box; user-select: text; width: 165px; text-align: center; background-color: #f6f1e1; height: 19px;\"><span style=\"box-sizing: border-box; user-select: text; display: block;\">4</span></td>\n<td style=\"box-sizing: border-box; user-select: text; width: 110px; text-align: center; background-color: #f6f1e1; height: 19px;\"><span>300 gp</span></td>\n</tr>\n<tr style=\"height: 19px;\">\n<td style=\"box-sizing: border-box; user-select: text; width: 103px; text-align: center; background-color: #eee5c8; height: 19px;\">5</td>\n<td style=\"box-sizing: border-box; user-select: text; width: 165px; text-align: center; background-color: #eee5c8; height: 19px;\"><span style=\"box-sizing: border-box; user-select: text; display: block;\">4</span></td>\n<td style=\"box-sizing: border-box; user-select: text; width: 110px; text-align: center; background-color: #eee5c8; height: 19px;\"><span>480 gp</span></td>\n</tr>\n<tr style=\"height: 19px; background-color: #f6f1e1;\">\n<td style=\"box-sizing: border-box; user-select: text; width: 103px; text-align: center; background-color: #f6f1e1; height: 19px;\">6</td>\n<td style=\"box-sizing: border-box; user-select: text; width: 165px; text-align: center; background-color: #f6f1e1; height: 19px;\"><span style=\"box-sizing: border-box; user-select: text; display: block;\">5</span></td>\n<td style=\"box-sizing: border-box; user-select: text; width: 110px; text-align: center; background-color: #f6f1e1; height: 19px;\"><span>750 gp</span></td>\n</tr>\n<tr style=\"height: 19px;\">\n<td style=\"box-sizing: border-box; user-select: text; width: 103px; text-align: center; background-color: #eee5c8; height: 19px;\">7</td>\n<td style=\"box-sizing: border-box; user-select: text; width: 165px; text-align: center; background-color: #eee5c8; height: 19px;\"><span style=\"box-sizing: border-box; user-select: text; display: block;\">5</span></td>\n<td style=\"box-sizing: border-box; user-select: text; width: 110px; text-align: center; background-color: #eee5c8; height: 19px;\"><span>1,080 gp</span></td>\n</tr>\n<tr style=\"height: 19px;\">\n<td style=\"box-sizing: border-box; user-select: text; width: 103px; text-align: center; background-color: #f6f1e1; height: 19px;\">8</td>\n<td style=\"box-sizing: border-box; user-select: text; width: 165px; text-align: center; background-color: #f6f1e1; height: 19px;\"><span style=\"box-sizing: border-box; user-select: text; display: block;\">6</span></td>\n<td style=\"box-sizing: border-box; user-select: text; width: 110px; text-align: center; background-color: #f6f1e1; height: 19px;\"><span>1,500 gp</span></td>\n</tr>\n<tr style=\"height: 19px;\">\n<td style=\"box-sizing: border-box; user-select: text; width: 103px; text-align: center; background-color: #eee5c8; height: 19px;\">9</td>\n<td style=\"box-sizing: border-box; user-select: text; width: 165px; text-align: center; background-color: #eee5c8; height: 19px;\"><span style=\"box-sizing: border-box; user-select: text; display: block;\">6</span></td>\n<td style=\"box-sizing: border-box; user-select: text; width: 110px; text-align: center; background-color: #eee5c8; height: 19px;\"><span>2,100 gp</span></td>\n</tr>\n<tr style=\"height: 19px;\">\n<td style=\"box-sizing: border-box; user-select: text; width: 103px; text-align: center; background-color: #f6f1e1; height: 19px;\">10</td>\n<td style=\"box-sizing: border-box; user-select: text; width: 165px; text-align: center; background-color: #f6f1e1; height: 19px;\"><span style=\"box-sizing: border-box; user-select: text; display: block;\">7</span></td>\n<td style=\"box-sizing: border-box; user-select: text; width: 110px; text-align: center; background-color: #f6f1e1; height: 19px;\"><span>3,000 gp</span></td>\n</tr>\n<tr style=\"height: 19px;\">\n<td style=\"box-sizing: border-box; user-select: text; width: 103px; text-align: center; background-color: #eee5c8; height: 19px;\">11</td>\n<td style=\"box-sizing: border-box; user-select: text; width: 165px; text-align: center; background-color: #eee5c8; height: 19px;\"><span style=\"box-sizing: border-box; user-select: text; display: block;\">7</span></td>\n<td style=\"box-sizing: border-box; user-select: text; width: 110px; text-align: center; background-color: #eee5c8; height: 19px;\"><span>4,200 gp</span></td>\n</tr>\n<tr style=\"height: 19px;\">\n<td style=\"box-sizing: border-box; user-select: text; width: 103px; text-align: center; background-color: #f6f1e1; height: 19px;\">12</td>\n<td style=\"box-sizing: border-box; user-select: text; width: 165px; text-align: center; background-color: #f6f1e1; height: 19px;\"><span style=\"box-sizing: border-box; user-select: text; display: block;\">8</span></td>\n<td style=\"box-sizing: border-box; user-select: text; width: 110px; text-align: center; background-color: #f6f1e1; height: 19px;\"><span>6,000 gp</span></td>\n</tr>\n<tr style=\"height: 19px;\">\n<td style=\"box-sizing: border-box; user-select: text; width: 103px; text-align: center; background-color: #eee5c8; height: 19px;\">13</td>\n<td style=\"box-sizing: border-box; user-select: text; width: 165px; text-align: center; background-color: #eee5c8; height: 19px;\"><span style=\"box-sizing: border-box; user-select: text; display: block;\">8</span></td>\n<td style=\"box-sizing: border-box; user-select: text; width: 110px; text-align: center; background-color: #eee5c8; height: 19px;\"><span>9,000 gp</span></td>\n</tr>\n<tr style=\"height: 19px;\">\n<td style=\"box-sizing: border-box; user-select: text; width: 103px; text-align: center; background-color: #f6f1e1; height: 19px;\">14</td>\n<td style=\"box-sizing: border-box; user-select: text; width: 165px; text-align: center; background-color: #f6f1e1; height: 19px;\"><span style=\"box-sizing: border-box; user-select: text; display: block;\">9</span></td>\n<td style=\"box-sizing: border-box; user-select: text; width: 110px; text-align: center; background-color: #f6f1e1; height: 19px;\"><span>13,500 gp</span></td>\n</tr>\n<tr style=\"height: 19px;\">\n<td style=\"box-sizing: border-box; user-select: text; width: 103px; text-align: center; background-color: #eee5c8; height: 19px;\">15</td>\n<td style=\"box-sizing: border-box; user-select: text; width: 165px; text-align: center; background-color: #eee5c8; height: 19px;\"><span style=\"box-sizing: border-box; user-select: text; display: block;\">9</span></td>\n<td style=\"box-sizing: border-box; user-select: text; width: 110px; text-align: center; background-color: #eee5c8; height: 19px;\"><span>19,500 gp</span></td>\n</tr>\n<tr style=\"height: 19px;\">\n<td style=\"box-sizing: border-box; user-select: text; width: 103px; text-align: center; background-color: #f6f1e1; height: 19px;\">16</td>\n<td style=\"box-sizing: border-box; user-select: text; width: 165px; text-align: center; background-color: #f6f1e1; height: 19px;\"><span style=\"box-sizing: border-box; user-select: text; display: block;\">10</span></td>\n<td style=\"box-sizing: border-box; user-select: text; width: 110px; text-align: center; background-color: #f6f1e1; height: 19px;\"><span>30,000 gp</span></td>\n</tr>\n<tr style=\"height: 19px;\">\n<td style=\"box-sizing: border-box; user-select: text; width: 103px; text-align: center; background-color: #eee5c8; height: 19px;\">17</td>\n<td style=\"box-sizing: border-box; user-select: text; width: 165px; text-align: center; background-color: #eee5c8; height: 19px;\"><span style=\"box-sizing: border-box; user-select: text; display: block;\">10</span></td>\n<td style=\"box-sizing: border-box; user-select: text; width: 110px; text-align: center; background-color: #eee5c8; height: 19px;\"><span>45,000 gp</span></td>\n</tr>\n</tbody>\n</table>\n<p><span><span><strong>Critical Success</strong> The target becomes an undead creature of the appropriate type. If it's at least 4 levels lower than you, you can make it a minion. This gives it the minion trait, meaning it can use 2 actions when you command it, and commanding it is a single action that has the auditory and concentrate traits. You can have a maximum of four minions under your control. If it's intelligent and doesn't become a minion, the undead is helpful to you for awakening it, though it's still a horrid and evil creature. If it's unintelligent and doesn't become a minion, you can give it one simple command. It pursues that goal single-mindedly, ignoring any of your subsequent commands.</span></span></p>\n<p><span><span><strong>Success</strong> As critical success, except an intelligent undead that doesn't become your minion is only friendly to you, and an unintelligent undead that doesn't become your minion leaves you alone unless you attack it. It marauds the local area rather than following your command.</span></span></p>\n<p><span><span><strong>Failure</strong> You fail to create the undead.</span></span></p>\n<p><span><span><strong>Critical Failure</strong> You create the undead, but its soul, tortured by your foul necromancy, is full of nothing but hatred for you. It attempts to destroy you.</span><br /></span></p>"
                },
                "duration": {
                    "value": ""
                },
                "hasCounteractCheck": {
                    "value": false
                },
                "level": {
                    "value": 2
                },
                "location": {
                    "value": "QjN3u2G28u81Hmuc"
                },
                "materials": {
                    "value": ""
                },
                "prepared": {
                    "value": ""
                },
                "primarycheck": {
                    "value": "Arcana (expert), Occultism (expert), or Religion (expert)"
                },
                "range": {
                    "value": "10 feet"
                },
                "rules": [],
                "save": {
                    "basic": "",
                    "value": ""
                },
                "scaling": {
                    "formula": "",
                    "mode": "none"
                },
                "school": {
                    "value": "necromancy"
                },
                "secondarycasters": {
                    "value": "1"
                },
                "secondarycheck": {
                    "value": "Religion"
                },
                "slug": "create-undead",
                "source": {
                    "value": ""
                },
                "spellType": {
                    "value": "utility"
                },
                "sustained": {
                    "value": false
                },
                "target": {
                    "value": "1 dead creature"
                },
                "time": {
                    "value": "1 day"
                },
                "traditions": {
                    "custom": "",
                    "value": []
                },
                "traits": {
                    "custom": "",
                    "rarity": {
                        "value": "uncommon"
                    },
                    "value": [
                        "evil",
                        "necromancy"
                    ]
                }
            },
            "effects": [],
            "flags": {
                "core": {
                    "sourceId": "Compendium.pf2e.spells-srd.c3b6LdLlQDPngNIb"
                }
            },
            "img": "systems/pf2e/icons/spells/create-undead.webp",
            "name": "Create Undead (Shadows Only)",
            "sort": 700000,
            "type": "spell"
        },
        {
            "_id": "ogGSbdU8ci6UjW0v",
            "data": {
                "ability": {
                    "value": ""
                },
                "area": {
                    "areaType": "emanation",
                    "value": 30
                },
                "areasize": {
                    "value": "30-foot emanation"
                },
                "autoHeightenLevel": {
                    "value": null
                },
                "category": {
                    "value": "spell"
                },
                "components": {
                    "material": false,
                    "somatic": true,
                    "verbal": true
                },
                "cost": {
                    "value": ""
                },
                "damage": {
                    "applyMod": false,
                    "value": ""
                },
                "damageType": {
                    "value": ""
                },
                "description": {
                    "value": "<p>You send out a pulse that registers the presence of magic. You receive no information beyond the presence or absence of magic. You can choose to ignore magic you're fully aware of, such as the magic items and ongoing spells of you and your allies.</p>\n<p>You detect illusion magic only if that magic's effect has a lower level than the level of your detect magic spell. However, items that have an illusion aura but aren't deceptive in appearance (such as an invisibility potion) typically are detected normally.</p>\n<hr style=\"color: #0f0f0f; font-family: 'Century Gothic', CenturyGothic, AppleGothic, sans-serif; font-size: 15px; background-color: #ededed;\">\n<p><strong>Heightened (3rd)</strong> You learn the school of magic for the highest-level effect within range that the spell detects. If multiple effects are equally strong, the GM determines which you learn.</p>\n<p><strong>Heightened (4th)</strong> As 3rd level, but you also pinpoint the source of the highest-level magic. Like for an imprecise sense, you don't learn the exact location, but can narrow down the source to within a 5-foot cube (or the nearest if larger than that).</p>"
                },
                "duration": {
                    "value": ""
                },
                "hasCounteractCheck": {
                    "value": false
                },
                "level": {
                    "value": 1
                },
                "location": {
                    "value": "DFZPLEk0MQcqSi9v"
                },
                "materials": {
                    "value": ""
                },
                "prepared": {
                    "value": ""
                },
                "primarycheck": {
                    "value": ""
                },
                "range": {
                    "value": ""
                },
                "rules": [],
                "save": {
                    "basic": "",
                    "value": ""
                },
                "scaling": {
                    "formula": "",
                    "mode": "none"
                },
                "school": {
                    "value": "divination"
                },
                "secondarycasters": {
                    "value": ""
                },
                "secondarycheck": {
                    "value": ""
                },
                "slug": "detect-magic",
                "source": {
                    "value": ""
                },
                "spellType": {
                    "value": "utility"
                },
                "sustained": {
                    "value": false
                },
                "target": {
                    "value": ""
                },
                "time": {
                    "value": "2"
                },
                "traditions": {
                    "custom": "",
                    "value": [
                        "arcane",
                        "divine",
                        "occult",
                        "primal"
                    ]
                },
                "traits": {
                    "custom": "",
                    "rarity": {
                        "value": "common"
                    },
                    "value": [
                        "detection",
                        "cantrip",
                        "divination"
                    ]
                }
            },
            "effects": [],
            "flags": {
                "core": {
                    "sourceId": "Compendium.pf2e.spells-srd.gpzpAAAJ1Lza2JVl"
                }
            },
            "img": "systems/pf2e/icons/spells/detect-magic.webp",
            "name": "Detect Magic",
            "sort": 800000,
            "type": "spell"
        },
        {
            "_id": "A9SIfdrB8Hk28o23",
            "data": {
                "attack": {
                    "value": ""
                },
                "attackEffects": {
                    "value": [
                        "drain vigor"
                    ]
                },
                "bonus": {
                    "value": 38
                },
                "damageRolls": {
                    "124yockjd0kpza76b43m": {
                        "damage": "4d10+18",
                        "damageType": "piercing"
                    },
                    "uxn5o9o4rk0zc5hgop8g": {
                        "damage": "4d6",
                        "damageType": "negative"
                    }
                },
                "description": {
                    "value": ""
                },
                "rules": [],
                "slug": null,
                "source": {
                    "value": ""
                },
                "traits": {
                    "custom": "",
                    "rarity": {
                        "value": "common"
                    },
                    "value": [
                        "negative",
                        "magical",
                        "reach-20"
                    ]
                },
                "weaponType": {
                    "value": "melee"
                }
            },
            "effects": [],
            "flags": {},
            "img": "systems/pf2e/icons/default-icons/melee.svg",
            "name": "Jaws",
            "sort": 900000,
            "type": "melee"
        },
        {
            "_id": "0TCobRYKQCosWffG",
            "data": {
                "attack": {
                    "value": ""
                },
                "attackEffects": {
                    "value": []
                },
                "bonus": {
                    "value": 38
                },
                "damageRolls": {
                    "abinz3ophon8gwul83ud": {
                        "damage": "4d10+18",
                        "damageType": "slashing"
                    }
                },
                "description": {
                    "value": ""
                },
                "rules": [],
                "slug": null,
                "source": {
                    "value": ""
                },
                "traits": {
                    "custom": "",
                    "rarity": {
                        "value": "common"
                    },
                    "value": [
                        "agile",
                        "magical",
                        "reach-15"
                    ]
                },
                "weaponType": {
                    "value": "melee"
                }
            },
            "effects": [],
            "flags": {},
            "img": "systems/pf2e/icons/default-icons/melee.svg",
            "name": "Claw",
            "sort": 1000000,
            "type": "melee"
        },
        {
            "_id": "l0J79vRF4TUP2DXP",
            "data": {
                "attack": {
                    "value": ""
                },
                "attackEffects": {
                    "value": []
                },
                "bonus": {
                    "value": 36
                },
                "damageRolls": {
                    "5l9ov5kvnewvr1celopl": {
                        "damage": "4d12+18",
                        "damageType": "slashing"
                    }
                },
                "description": {
                    "value": ""
                },
                "rules": [],
                "slug": null,
                "source": {
                    "value": ""
                },
                "traits": {
                    "custom": "",
                    "rarity": {
                        "value": "common"
                    },
                    "value": [
                        "magical",
                        "reach-25"
                    ]
                },
                "weaponType": {
                    "value": "melee"
                }
            },
            "effects": [],
            "flags": {},
            "img": "systems/pf2e/icons/default-icons/melee.svg",
            "name": "Tail",
            "sort": 1100000,
            "type": "melee"
        },
        {
            "_id": "znnYZfV4tw03wze8",
            "data": {
                "attack": {
                    "value": ""
                },
                "attackEffects": {
                    "value": []
                },
                "bonus": {
                    "value": 36
                },
                "damageRolls": {
                    "hc6nxqclc5bcme2jqxqv": {
                        "damage": "3d10+18",
                        "damageType": "slashing"
                    }
                },
                "description": {
                    "value": ""
                },
                "rules": [],
                "slug": null,
                "source": {
                    "value": ""
                },
                "traits": {
                    "custom": "",
                    "rarity": {
                        "value": "common"
                    },
                    "value": [
                        "agile",
                        "magical",
                        "reach-20"
                    ]
                },
                "weaponType": {
                    "value": "melee"
                }
            },
            "effects": [],
            "flags": {},
            "img": "systems/pf2e/icons/default-icons/melee.svg",
            "name": "Wing",
            "sort": 1200000,
            "type": "melee"
        },
        {
            "_id": "stSp4FJbtoFzokE9",
            "data": {
                "actionCategory": {
                    "value": "interaction"
                },
                "actionType": {
                    "value": "passive"
                },
                "actions": {
                    "value": null
                },
                "description": {
                    "value": "<p>A creature with greater darkvision can see perfectly well in areas of darkness and dim light, though such vision is in black and white only. Some forms of magical darkness, such as a 4th-level @Compendium[pf2e.spells-srd.Darkness]{Darkness} spell, block normal @Compendium[pf2e.bestiary-ability-glossary-srd.Darkvision]{Darkvision}. A creature with greater darkvision, however, can see through even these forms of magical darkness.</p>"
                },
                "requirements": {
                    "value": ""
                },
                "rules": [],
                "slug": "greater-darkvision",
                "source": {
                    "value": ""
                },
                "traits": {
                    "custom": "",
                    "rarity": {
                        "value": "common"
                    },
                    "value": []
                },
                "trigger": {
                    "value": ""
                },
                "weapon": {
                    "value": ""
                }
            },
            "effects": [],
            "flags": {
                "core": {
                    "sourceId": "Compendium.pf2e.bestiary-ability-glossary-srd.4Ho2xMPEC05aSxzr"
                }
            },
            "img": "systems/pf2e/icons/default-icons/action.svg",
            "name": "Greater Darkvision",
            "sort": 1300000,
            "type": "action"
        },
        {
            "_id": "uuI2Msz0ObGGd1kj",
            "data": {
                "actionCategory": {
                    "value": "interaction"
                },
                "actionType": {
                    "value": "passive"
                },
                "actions": {
                    "value": null
                },
                "description": {
                    "value": "<p>Scent involves sensing creatures or objects by smell, and is usually a vague sense. The range is listed in the ability, and it functions only if the creature or object being detected emits an aroma (for instance, incorporeal creatures usually do not exude an aroma).</p>\n<p>If a creature emits a heavy aroma or is upwind, the GM can double or even triple the range of scent abilities used to detect that creature, and the GM can reduce the range if a creature is downwind.</p>"
                },
                "requirements": {
                    "value": ""
                },
                "rules": [],
                "slug": "scent",
                "source": {
                    "value": ""
                },
                "traits": {
                    "custom": "",
                    "rarity": {
                        "value": "common"
                    },
                    "value": []
                },
                "trigger": {
                    "value": ""
                },
                "weapon": {
                    "value": ""
                }
            },
            "effects": [],
            "flags": {
                "core": {
                    "sourceId": "Compendium.pf2e.bestiary-ability-glossary-srd.rqfnQ5VHT5hxm25r"
                }
            },
            "img": "systems/pf2e/icons/default-icons/action.svg",
            "name": "Scent",
            "sort": 1400000,
            "type": "action"
        },
        {
            "_id": "neGWW2ZDslwlxS5Y",
            "data": {
                "actionCategory": {
                    "value": "interaction"
                },
                "actionType": {
                    "value": "passive"
                },
                "actions": {
                    "value": null
                },
                "description": {
                    "value": "<p>Tremorsense allows a monster to feel the vibrations through a solid surface caused by movement. It is an imprecise sense with a limited range (listed in the ability). Tremorsense functions only if the monster is on the same surface as the subject, and only if the subject is moving along (or burrowing through) the surface.</p>"
                },
                "requirements": {
                    "value": ""
                },
                "rules": [],
                "slug": "tremorsense",
                "source": {
                    "value": ""
                },
                "traits": {
                    "custom": "",
                    "rarity": {
                        "value": "common"
                    },
                    "value": []
                },
                "trigger": {
                    "value": ""
                },
                "weapon": {
                    "value": ""
                }
            },
            "effects": [],
            "flags": {
                "core": {
                    "sourceId": "Compendium.pf2e.bestiary-ability-glossary-srd.j2wsK6IsW5yMW1jW"
                }
            },
            "img": "systems/pf2e/icons/default-icons/action.svg",
            "name": "Tremorsense",
            "sort": 1500000,
            "type": "action"
        },
        {
            "_id": "7RZaK7BB8AYtaXJb",
            "data": {
                "actionCategory": {
                    "value": "interaction"
                },
                "actionType": {
                    "value": "passive"
                },
                "actions": {
                    "value": null
                },
                "description": {
                    "value": "<p>The monster can cast its at-will spells any number of times without using up spell slots.</p>"
                },
                "requirements": {
                    "value": ""
                },
                "rules": [],
                "slug": "at-will-spells",
                "source": {
                    "value": ""
                },
                "traits": {
                    "custom": "",
                    "rarity": {
                        "value": "common"
                    },
                    "value": []
                },
                "trigger": {
                    "value": ""
                },
                "weapon": {
                    "value": ""
                }
            },
            "effects": [],
            "flags": {
                "core": {
                    "sourceId": "Compendium.pf2e.bestiary-ability-glossary-srd.2YRDYVnC1eljaXKK"
                }
            },
            "img": "systems/pf2e/icons/default-icons/action.svg",
            "name": "At-Will Spells",
            "sort": 1600000,
            "type": "action"
        },
        {
            "_id": "Qx0Uh3ktQIh1dVKT",
            "data": {
                "actionCategory": {
                    "value": "defensive"
                },
                "actionType": {
                    "value": "passive"
                },
                "actions": {
                    "value": null
                },
                "description": {
                    "value": ""
                },
                "requirements": {
                    "value": ""
                },
                "rules": [
                    {
                        "key": "PF2E.RuleElement.FlatModifier",
                        "predicate": {
                            "any": [
                                "magical",
                                "arcane",
                                "primal",
                                "occult",
                                "divine"
                            ]
                        },
                        "selector": "saving-throw",
                        "type": "status",
                        "value": 1
                    }
                ],
                "slug": null,
                "source": {
                    "value": ""
                },
                "traits": {
                    "custom": "",
                    "rarity": {
                        "value": "common"
                    },
                    "value": []
                },
                "trigger": {
                    "value": ""
                },
                "weapon": {
                    "value": ""
                }
            },
            "effects": [],
            "flags": {},
            "img": "systems/pf2e/icons/default-icons/mystery-man.svg",
            "name": "+1 Status Bonus on Saves vs Magic",
            "sort": 1700000,
            "type": "action"
        },
        {
            "_id": "k7IjtCkUuIzOv0dz",
            "data": {
                "actionCategory": {
                    "value": "defensive"
                },
                "actionType": {
                    "value": "passive"
                },
                "actions": {
                    "value": null
                },
                "description": {
                    "value": "<p>90 feet, DC 40</p>\n<p>A creature that first enters the area must attempt a Will save. Regardless of the result of the saving throw, the creature is temporarily immune to this monster's Frightful Presence for 1 minute.</p>\n<p><strong>Critical Success</strong> The creature is unaffected by the presence.</p>\n<p><strong>Success</strong> The creature is @Compendium[pf2e.conditionitems.Frightened]{Frightened 1}.</p>\n<p><strong>Failure</strong> The creature is @Compendium[pf2e.conditionitems.Frightened]{Frightened 2}.</p>\n<p><strong>Critical Failure</strong> The creature is @Compendium[pf2e.conditionitems.Frightened]{Frightened 4}.</p>"
                },
                "requirements": {
                    "value": ""
                },
                "rules": [],
                "slug": "frightful-presence",
                "source": {
                    "value": ""
                },
                "traits": {
                    "custom": "",
                    "rarity": {
                        "value": "common"
                    },
                    "value": [
                        "aura",
                        "emotion",
                        "fear",
                        "mental"
                    ]
                },
                "trigger": {
                    "value": ""
                },
                "weapon": {
                    "value": ""
                }
            },
            "effects": [],
            "flags": {
                "core": {
                    "sourceId": "Compendium.pf2e.bestiary-ability-glossary-srd.etMnv73EIdEZrYYu"
                }
            },
            "img": "systems/pf2e/icons/default-icons/mystery-man.svg",
            "name": "Frightful Presence",
            "sort": 1800000,
            "type": "action"
        },
        {
            "_id": "kDZcpk5GUe5jUU73",
            "data": {
                "actionCategory": {
                    "value": "offensive"
                },
                "actionType": {
                    "value": "reaction"
                },
                "actions": {
                    "value": null
                },
                "description": {
                    "value": "<p>Jaws only</p>\n<p><strong>Trigger</strong> A creature within the monster's reach uses a manipulate action or a move action, makes a ranged attack, or leaves a square during a move action it's using.</p>\n<p><strong>Effect</strong> The monster attempts a melee Strike against the triggering creature. If the attack is a critical hit and the trigger was a manipulate action, the monster disrupts that action. This Strike doesn't count toward the monster's multiple attack penalty, and its multiple attack penalty doesn't apply to this Strike.</p>"
                },
                "requirements": {
                    "value": ""
                },
                "rules": [],
                "slug": "attack-of-opportunity",
                "source": {
                    "value": ""
                },
                "traits": {
                    "custom": "",
                    "rarity": {
                        "value": "common"
                    },
                    "value": []
                },
                "trigger": {
                    "value": ""
                },
                "weapon": {
                    "value": ""
                }
            },
            "effects": [],
            "flags": {
                "core": {
                    "sourceId": "Compendium.pf2e.bestiary-ability-glossary-srd.hFtNbo1LKYCoDy2O"
                }
            },
            "img": "systems/pf2e/icons/actions/Reaction.webp",
            "name": "Attack of Opportunity",
            "sort": 1900000,
            "type": "action"
        },
        {
            "_id": "SXISaBxf4jsnV512",
            "data": {
                "actionCategory": {
                    "value": "offensive"
                },
                "actionType": {
                    "value": "action"
                },
                "actions": {
                    "value": 2
                },
                "description": {
                    "value": "<p>The umbral dragon breathes in one of two ways. They can't use Breath Weapon again for [[/br 1d4 #rounds]]{1d4 rounds}.</p>\n<ul>\n<li><strong>Negative</strong> The dragon breathes a blast of darkness in a 50-foot cone that deals [[/r 21d6 #negative]]{21d6 negative damage} (<span data-pf2-check=\"reflex\" data-pf2-dc=\"42\" data-pf2-traits=\"necromancy,negative,primal,shadow,damaging-effect\" data-pf2-label=\"Breath Weapon DC\" data-pf2-show-dc=\"gm\">basic Reflex</span> save). Undead creatures take [[/r 25d6 #force]]{25d6 force damage} instead of the negative damage.</li>\n<li><strong>Shadows</strong> The dragon breathes a blast of shadows in a 50-foot cone. Each creature within the cone must attempt a <span data-pf2-check=\"fortitude\" data-pf2-dc=\"42\" data-pf2-traits=\"necromancy,negative,primal,shadow\" data-pf2-label=\"Breath Weapon DC\" data-pf2-show-dc=\"gm\">Fortitude</span> save.\n<ul>\n<li><strong>Critical Success</strong> The creature is unaffected. <br /><strong>Success</strong> The creature is @Compendium[pf2e.conditionitems.Enfeebled]{Enfeebled 3} for 1 round. </li>\n<li><strong>Failure</strong> The creature is @Compendium[pf2e.conditionitems.Enfeebled]{Enfeebled 3} for 1 minute. </li>\n<li><strong>Critical Failure</strong> The creature is @Compendium[pf2e.conditionitems.Enfeebled]{Enfeebled 3} for 1 minute and @Compendium[pf2e.conditionitems.Blinded]{Blinded} for 1 round.</li>\n</ul>\n</li>\n</ul>"
                },
                "requirements": {
                    "value": ""
                },
                "rules": [],
                "slug": null,
                "source": {
                    "value": ""
                },
                "traits": {
                    "custom": "",
                    "rarity": {
                        "value": "common"
                    },
                    "value": [
                        "necromancy",
                        "negative",
                        "primal",
                        "shadow"
                    ]
                },
                "trigger": {
                    "value": ""
                },
                "weapon": {
                    "value": ""
                }
            },
            "effects": [],
            "flags": {},
            "img": "systems/pf2e/icons/actions/TwoActions.webp",
            "name": "Breath Weapon",
            "sort": 2000000,
            "type": "action"
        },
        {
            "_id": "A5NdjSB3IdJS5DAb",
            "data": {
                "actionCategory": {
                    "value": "offensive"
                },
                "actionType": {
                    "value": "action"
                },
                "actions": {
                    "value": 2
                },
                "description": {
                    "value": "<p>The dragon makes two claw Strikes and one wing Strike in any order.</p>"
                },
                "requirements": {
                    "value": ""
                },
                "rules": [],
                "slug": null,
                "source": {
                    "value": ""
                },
                "traits": {
                    "custom": "",
                    "rarity": {
                        "value": "common"
                    },
                    "value": []
                },
                "trigger": {
                    "value": ""
                },
                "weapon": {
                    "value": ""
                }
            },
            "effects": [],
            "flags": {},
            "img": "systems/pf2e/icons/default-icons/mystery-man.svg",
            "name": "Draconic Frenzy",
            "sort": 2100000,
            "type": "action"
        },
        {
            "_id": "BRAhQrI56OQkBhNy",
            "data": {
                "actionCategory": {
                    "value": "offensive"
                },
                "actionType": {
                    "value": "passive"
                },
                "actions": {
                    "value": null
                },
                "description": {
                    "value": "<p>The dragon recharges their Breath Weapon whenever they score a critical hit with a Strike.</p>"
                },
                "requirements": {
                    "value": ""
                },
                "rules": [],
                "slug": null,
                "source": {
                    "value": ""
                },
                "traits": {
                    "custom": "",
                    "rarity": {
                        "value": "common"
                    },
                    "value": []
                },
                "trigger": {
                    "value": ""
                },
                "weapon": {
                    "value": ""
                }
            },
            "effects": [],
            "flags": {},
            "img": "systems/pf2e/icons/actions/Passive.webp",
            "name": "Draconic Momentum",
            "sort": 2200000,
            "type": "action"
        },
        {
            "_id": "jJMWnNtJ3dst8bcj",
            "data": {
                "actionCategory": {
                    "value": "offensive"
                },
                "actionType": {
                    "value": "passive"
                },
                "actions": {
                    "value": null
                },
                "description": {
                    "value": "<p>When the dragon deals negative damage to a living creature with its jaws Strike, the umbral dragon gains 20 temporary Hit Points and the creature must succeed at a <span data-pf2-check=\"fortitude\" data-pf2-dc=\"41\" data-pf2-traits=\"primal,necromancy\" data-pf2-label=\"Drain Vigor DC\" data-pf2-show-dc=\"gm\">Fortitude</span> save or become @Compendium[pf2e.conditionitems.Enfeebled]{Enfeebled 2}. Further damage dealt by the dragon's jaws Strike increases the enfeebled condition value by 2 on a failed save, to a maximum of enfeebled 4.</p>"
                },
                "requirements": {
                    "value": ""
                },
                "rules": [],
                "slug": null,
                "source": {
                    "value": ""
                },
                "traits": {
                    "custom": "",
                    "rarity": {
                        "value": "common"
                    },
                    "value": [
                        "primal",
                        "necromancy"
                    ]
                },
                "trigger": {
                    "value": ""
                },
                "weapon": {
                    "value": ""
                }
            },
            "effects": [],
            "flags": {},
            "img": "systems/pf2e/icons/default-icons/mystery-man.svg",
            "name": "Drain Vigor",
            "sort": 2300000,
            "type": "action"
        },
        {
            "_id": "wYU3mjAP9KQSofkn",
            "data": {
                "actionCategory": {
                    "value": "offensive"
                },
                "actionType": {
                    "value": "passive"
                },
                "actions": {
                    "value": null
                },
                "description": {
                    "value": "<p>An umbral dragon's Strikes affect incorporeal creatures with the effects of a @Compendium[pf2e.equipment-srd.Ghost Touch]{Ghost Touch} property rune, and an umbral dragon's jaws deal an additional [[/r 8d6 #force]]{8d6 force damage} to undead.</p>"
                },
                "requirements": {
                    "value": ""
                },
                "rules": [],
                "slug": null,
                "source": {
                    "value": ""
                },
                "traits": {
                    "custom": "",
                    "rarity": {
                        "value": "common"
                    },
                    "value": [
                        "incorporeal",
                        "undead"
                    ]
                },
                "trigger": {
                    "value": ""
                },
                "weapon": {
                    "value": ""
                }
            },
            "effects": [],
            "flags": {},
            "img": "systems/pf2e/icons/default-icons/mystery-man.svg",
            "name": "Ghost Bane",
            "sort": 2400000,
            "type": "action"
        },
        {
            "_id": "D3ADe0u8LQnTgLYJ",
            "data": {
                "description": {
                    "value": ""
                },
                "item": {
                    "value": 0
                },
                "mod": {
                    "value": 33
                },
                "proficient": {
                    "value": 0
                },
                "rules": [],
                "slug": null,
                "source": {
                    "value": ""
                },
                "traits": {
                    "custom": "",
                    "rarity": {
                        "value": "common"
                    },
                    "value": []
                }
            },
            "effects": [],
            "flags": {},
            "img": "systems/pf2e/icons/default-icons/lore.svg",
            "name": "Acrobatics",
            "sort": 2500000,
            "type": "lore"
        },
        {
            "_id": "hoAH4T8LI0tjkl26",
            "data": {
                "description": {
                    "value": ""
                },
                "item": {
                    "value": 0
                },
                "mod": {
                    "value": 38
                },
                "proficient": {
                    "value": 0
                },
                "rules": [],
                "slug": null,
                "source": {
                    "value": ""
                },
                "traits": {
                    "custom": "",
                    "rarity": {
                        "value": "common"
                    },
                    "value": []
                }
            },
            "effects": [],
            "flags": {},
            "img": "systems/pf2e/icons/default-icons/lore.svg",
            "name": "Athletics",
            "sort": 2600000,
            "type": "lore"
        },
        {
            "_id": "TjZTM0EKGOVJ0S0X",
            "data": {
                "description": {
                    "value": ""
                },
                "item": {
                    "value": 0
                },
                "mod": {
                    "value": 34
                },
                "proficient": {
                    "value": 0
                },
                "rules": [],
                "slug": null,
                "source": {
                    "value": ""
                },
                "traits": {
                    "custom": "",
                    "rarity": {
                        "value": "common"
                    },
                    "value": []
                }
            },
            "effects": [],
            "flags": {},
            "img": "systems/pf2e/icons/default-icons/lore.svg",
            "name": "Deception",
            "sort": 2700000,
            "type": "lore"
        },
        {
            "_id": "hkuXxOxuPmTFWjDI",
            "data": {
                "description": {
                    "value": ""
                },
                "item": {
                    "value": 0
                },
                "mod": {
                    "value": 36
                },
                "proficient": {
                    "value": 0
                },
                "rules": [],
                "slug": null,
                "source": {
                    "value": ""
                },
                "traits": {
                    "custom": "",
                    "rarity": {
                        "value": "common"
                    },
                    "value": []
                }
            },
            "effects": [],
            "flags": {},
            "img": "systems/pf2e/icons/default-icons/lore.svg",
            "name": "Intimidation",
            "sort": 2800000,
            "type": "lore"
        },
        {
            "_id": "7bhNad90ExDDqoOJ",
            "data": {
                "description": {
                    "value": ""
                },
                "item": {
                    "value": 0
                },
                "mod": {
                    "value": 34
                },
                "proficient": {
                    "value": 0
                },
                "rules": [],
                "slug": null,
                "source": {
                    "value": ""
                },
                "traits": {
                    "custom": "",
                    "rarity": {
                        "value": "common"
                    },
                    "value": []
                }
            },
            "effects": [],
            "flags": {},
            "img": "systems/pf2e/icons/default-icons/lore.svg",
            "name": "Nature",
            "sort": 2900000,
            "type": "lore"
        },
        {
            "_id": "34sEZPEBqssJnsdh",
            "data": {
                "description": {
                    "value": ""
                },
                "item": {
                    "value": 0
                },
                "mod": {
                    "value": 35
                },
                "proficient": {
                    "value": 0
                },
                "rules": [],
                "slug": null,
                "source": {
                    "value": ""
                },
                "traits": {
                    "custom": "",
                    "rarity": {
                        "value": "common"
                    },
                    "value": []
                }
            },
            "effects": [],
            "flags": {},
            "img": "systems/pf2e/icons/default-icons/lore.svg",
            "name": "Stealth",
            "sort": 3000000,
            "type": "lore"
        },
        {
            "_id": "AvdxOQerXrCnLU7o",
            "data": {
                "description": {
                    "value": ""
                },
                "item": {
                    "value": 0
                },
                "mod": {
                    "value": 34
                },
                "proficient": {
                    "value": 0
                },
                "rules": [],
                "slug": null,
                "source": {
                    "value": ""
                },
                "traits": {
                    "custom": "",
                    "rarity": {
                        "value": "common"
                    },
                    "value": []
                }
            },
            "effects": [],
            "flags": {},
            "img": "systems/pf2e/icons/default-icons/lore.svg",
            "name": "Survival",
            "sort": 3100000,
            "type": "lore"
        }
    ],
    "name": "Ancient Umbral Dragon",
    "token": {
        "disposition": -1,
        "height": 4,
        "img": "systems/pf2e/icons/default-icons/npc.svg",
        "name": "Ancient Umbral Dragon",
        "width": 4
    },
    "type": "npc"
}
