{
    "_id": "37FAi1y5S8snofws",
    "data": {
        "abilities": {
            "cha": {
                "mod": 8
            },
            "con": {
                "mod": 7
            },
            "dex": {
                "mod": 6
            },
            "int": {
                "mod": 2
            },
            "str": {
                "mod": 10
            },
            "wis": {
                "mod": 6
            }
        },
        "attributes": {
            "ac": {
                "details": "",
                "value": 44
            },
            "allSaves": {
                "value": "+1 status to all saves vs. magic"
            },
            "hp": {
                "details": "",
                "max": 450,
                "temp": 0,
                "value": 450
            },
            "initiative": {
                "ability": "perception"
            },
            "perception": {
                "value": 33
            },
            "shield": {
                "ac": 0,
                "brokenThreshold": 0,
                "hardness": 0,
                "max": 0,
                "value": 0
            },
            "speed": {
                "otherSpeeds": [
                    {
                        "exceptions": "",
                        "label": "Burrow",
                        "type": "burrow",
                        "value": "35"
                    },
                    {
                        "exceptions": "",
                        "label": "Fly",
                        "type": "fly",
                        "value": "40"
                    }
                ],
                "value": "35"
            }
        },
        "details": {
            "alignment": {
                "value": "NE"
            },
            "creatureType": "Fiend",
            "flavorText": "Even daemons fear the most massive and terrifying of their kind, olethrodaemons. No single entity could embody the level of evil necessary to manifest one; instead, these living war machines are made from the souls of many-or so the story goes. Other theories suggest that the four Horsemen of the Apocalypse are responsible for creating the olethrodaemons, or that olethrodaemons are merely the seeping run-off of an even greater being: a mysterious fifth Horseman.<br /><br />Whatever the truth, olethrodaemons are real, and their existence is terrifying enough to instill paralyzing existential dread. With dozens of unblinking glowing eyes above a drooling maw, two sets of four muscled limbs, and countless horns, olethrodaemons resemble no other creature known to mortalkind.<br /><br />",
            "level": {
                "value": 20
            },
            "source": {
                "value": "Pathfinder Bestiary 2"
            }
        },
        "resources": {
            "focus": {
                "max": 1,
                "value": 1
            }
        },
        "saves": {
            "fortitude": {
                "saveDetail": "",
                "value": 35
            },
            "reflex": {
                "saveDetail": "",
                "value": 32
            },
            "will": {
                "saveDetail": "",
                "value": 34
            }
        },
        "traits": {
            "attitude": {
                "value": "hostile"
            },
            "ci": [],
            "di": {
                "custom": "",
                "value": [
                    "death effects"
                ]
            },
            "dr": [],
            "dv": [
                {
                    "label": "Good",
                    "type": "good",
                    "value": "20"
                }
            ],
            "languages": {
                "custom": "telepathy 100 feet",
                "selected": [],
                "value": [
                    "common",
                    "daemonic",
                    "custom"
                ]
            },
            "rarity": {
                "value": "common"
            },
            "senses": {
                "value": "darkvision, tremorsense (imprecise) 120 feet, true seeing"
            },
            "size": {
                "value": "grg"
            },
            "traits": {
                "custom": "",
                "value": [
                    "daemon",
                    "fiend"
                ]
            }
        }
    },
    "effects": [],
    "flags": {},
    "img": "systems/pf2e/icons/default-icons/npc.svg",
    "items": [
        {
            "_id": "tXoIGwvSGdRcv6jU",
            "data": {
                "ability": {
                    "value": ""
                },
                "autoHeightenLevel": {
                    "value": null
                },
                "description": {
                    "value": ""
                },
                "displayLevel": {},
                "displayLevels": {},
                "item": {
                    "value": 0
                },
                "prepared": {
                    "value": "innate"
                },
                "proficiency": {
                    "value": 0
                },
                "rules": [],
                "showUnpreparedSpells": {
                    "value": false
                },
                "signatureSpells": {
                    "value": []
                },
                "slots": {
                    "slot0": {
                        "max": 0,
                        "prepared": [],
                        "value": 0
                    },
                    "slot1": {
                        "max": 0,
                        "prepared": [],
                        "value": 0
                    },
                    "slot10": {
                        "max": 0,
                        "prepared": [],
                        "value": 0
                    },
                    "slot11": {
                        "max": 0,
                        "prepared": [],
                        "value": 0
                    },
                    "slot2": {
                        "max": 0,
                        "prepared": [],
                        "value": 0
                    },
                    "slot3": {
                        "max": 0,
                        "prepared": [],
                        "value": 0
                    },
                    "slot4": {
                        "max": 0,
                        "prepared": [],
                        "value": 0
                    },
                    "slot5": {
                        "max": 0,
                        "prepared": [],
                        "value": 0
                    },
                    "slot6": {
                        "max": 0,
                        "prepared": [],
                        "value": 0
                    },
                    "slot7": {
                        "max": 0,
                        "prepared": [],
                        "value": 0
                    },
                    "slot8": {
                        "max": 0,
                        "prepared": [],
                        "value": 0
                    },
                    "slot9": {
                        "max": 0,
                        "prepared": [],
                        "value": 0
                    }
                },
                "slug": null,
                "source": {
                    "value": ""
                },
                "spelldc": {
                    "dc": 42,
                    "item": 0,
                    "mod": 0,
                    "value": 34
                },
                "tradition": {
                    "value": "divine"
                },
                "traits": {
                    "custom": "",
                    "rarity": {
                        "value": "common"
                    },
                    "value": []
                }
            },
            "effects": [],
            "flags": {},
            "img": "systems/pf2e/icons/default-icons/spellcastingEntry.svg",
            "name": "Divine Innate Spells",
            "sort": 100000,
            "type": "spellcastingEntry"
        },
        {
            "_id": "rhgfYw4MvbUra2Dk",
            "data": {
                "ability": {
                    "value": ""
                },
                "autoHeightenLevel": {
                    "value": null
                },
                "description": {
                    "value": ""
                },
                "displayLevel": {},
                "displayLevels": {},
                "item": {
                    "value": 0
                },
                "prepared": {
                    "value": "ritual"
                },
                "proficiency": {
                    "value": 0
                },
                "rules": [],
                "showUnpreparedSpells": {
                    "value": false
                },
                "signatureSpells": {
                    "value": []
                },
                "slots": {
                    "slot0": {
                        "max": 0,
                        "prepared": [],
                        "value": 0
                    },
                    "slot1": {
                        "max": 0,
                        "prepared": [],
                        "value": 0
                    },
                    "slot10": {
                        "max": 0,
                        "prepared": [],
                        "value": 0
                    },
                    "slot11": {
                        "max": 0,
                        "prepared": [],
                        "value": 0
                    },
                    "slot2": {
                        "max": 0,
                        "prepared": [],
                        "value": 0
                    },
                    "slot3": {
                        "max": 0,
                        "prepared": [],
                        "value": 0
                    },
                    "slot4": {
                        "max": 0,
                        "prepared": [],
                        "value": 0
                    },
                    "slot5": {
                        "max": 0,
                        "prepared": [],
                        "value": 0
                    },
                    "slot6": {
                        "max": 0,
                        "prepared": [],
                        "value": 0
                    },
                    "slot7": {
                        "max": 0,
                        "prepared": [],
                        "value": 0
                    },
                    "slot8": {
                        "max": 0,
                        "prepared": [],
                        "value": 0
                    },
                    "slot9": {
                        "max": 0,
                        "prepared": [],
                        "value": 0
                    }
                },
                "slug": null,
                "source": {
                    "value": ""
                },
                "spelldc": {
                    "dc": 42,
                    "item": 0,
                    "mod": 0,
                    "value": 32
                },
                "tradition": {
                    "value": ""
                },
                "traits": {
                    "custom": "",
                    "rarity": {
                        "value": "common"
                    },
                    "value": []
                }
            },
            "effects": [],
            "flags": {},
            "img": "systems/pf2e/icons/default-icons/spellcastingEntry.svg",
            "name": "Rituals",
            "sort": 200000,
            "type": "spellcastingEntry"
        },
        {
            "_id": "bmwBD99yqE5TFQpN",
            "data": {
                "ability": {
                    "value": ""
                },
                "area": {
                    "areaType": "",
                    "value": null
                },
                "areasize": {
                    "value": "60-foot burst"
                },
                "autoHeightenLevel": {
                    "value": null
                },
                "category": {
                    "value": "spell"
                },
                "components": {
                    "material": false,
                    "somatic": true,
                    "verbal": true
                },
                "cost": {
                    "value": ""
                },
                "damage": {
                    "applyMod": false,
                    "value": "3d10"
                },
                "damageType": {
                    "value": "acid"
                },
                "description": {
                    "value": "<p>You call upon the unimaginable power of world-ending cataclysms, ripping a small piece of each cataclysm and combining them together into one horrifically powerful attack. The following effects come down upon all creatures in the area. Treat the resistances of creatures in the area as if they were 10 lower for the purpose of determining the cataclysm's damage. Each creature attempts one basic Reflex save that applies to all six types of damage.</p>\n<ul>\n<li>Flesh-dissolving acid rain deals 3d10 acid damage.</li>\n<li>A roaring earthquake shakes and bludgeons creatures on the ground, dealing 3d10 bludgeoning damage.</li>\n<li>A blast of freezing wind deals 3d10 cold damage.</li>\n<li>Incredible lightning lashes the area, dealing 3d10 electricity damage.</li>\n<li>Beating winds churn across the sky, dealing 3d10 bludgeoning damage to creatures flying in the area.</li>\n<li>An instant tsunami sweeps over creatures in the area, dealing 3d10 bludgeoning damage with the water trait (doubled for creatures swimming in the area).</li>\n<li>A massive wildfire burns in a sudden inferno, dealing 3d10 fire damage.</li>\n</ul>"
                },
                "duration": {
                    "value": ""
                },
                "hasCounteractCheck": {
                    "value": false
                },
                "level": {
                    "value": 10
                },
                "location": {
                    "value": "tXoIGwvSGdRcv6jU"
                },
                "materials": {
                    "value": ""
                },
                "prepared": {
                    "value": ""
                },
                "primarycheck": {
                    "value": ""
                },
                "range": {
                    "value": "1,000 feet"
                },
                "rules": [],
                "save": {
                    "basic": "basic",
                    "value": "reflex"
                },
                "scaling": {
                    "formula": "",
                    "mode": "none"
                },
                "school": {
                    "value": "evocation"
                },
                "secondarycasters": {
                    "value": ""
                },
                "secondarycheck": {
                    "value": ""
                },
                "slug": "cataclysm",
                "source": {
                    "value": ""
                },
                "spellType": {
                    "value": "save"
                },
                "sustained": {
                    "value": false
                },
                "target": {
                    "value": ""
                },
                "time": {
                    "value": "2"
                },
                "traditions": {
                    "value": [
                        "arcane",
                        "primal"
                    ]
                },
                "traits": {
                    "custom": "",
                    "rarity": {
                        "value": "common"
                    },
                    "value": [
                        "acid",
                        "cold",
                        "earth",
                        "electricity",
                        "evocation",
                        "fire",
                        "water"
                    ]
                }
            },
            "effects": [],
            "flags": {
                "core": {
                    "sourceId": "Compendium.pf2e.spells-srd.wLIvH0AT1u7oa64N"
                }
            },
            "img": "systems/pf2e/icons/spells/cataclysm.webp",
            "name": "Cataclysm",
            "sort": 300000,
            "type": "spell"
        },
        {
            "_id": "JJcg0fjSB8UhJeHw",
            "data": {
                "ability": {
                    "value": ""
                },
                "area": {
                    "areaType": "",
                    "value": null
                },
                "areasize": {
                    "value": "60-foot line"
                },
                "autoHeightenLevel": {
                    "value": null
                },
                "category": {
                    "value": "spell"
                },
                "components": {
                    "material": false,
                    "somatic": true,
                    "verbal": true
                },
                "cost": {
                    "value": ""
                },
                "damage": {
                    "applyMod": false,
                    "value": "10d6"
                },
                "damageType": {
                    "value": "negative"
                },
                "description": {
                    "value": "<p>You unleash a wave of necromantic energy to snuff out the life force of those in its path. Each creature of 17th level or lower in the line must attempt a Fortitude save. If the damage from massacre reduces a creature to 0 Hit Points, that creature dies instantly. If massacre doesn't kill even a single creature, the negative energy violently explodes back toward you, dealing an additional 30 negative damage to every creature in the line (even those above 17th level) and 30 negative damage to you.</p>\n<hr /><strong>Critical Success</strong> The creature is unaffected.\n<p><strong>Success</strong> The creature takes 9d6 negative damage.</p>\n<p><strong>Failure</strong> The creature takes 100 negative damage.</p>\n<p><strong>Critical Failure</strong> The creature dies.</p>\n<hr /><strong>Heightened (10th)</strong> The spell can affect creatures up to 19th level. Increase the damage to 10d6 on a success, and to 115 on a failure."
                },
                "duration": {
                    "value": ""
                },
                "hasCounteractCheck": {
                    "value": false
                },
                "level": {
                    "value": 10
                },
                "location": {
                    "value": "tXoIGwvSGdRcv6jU"
                },
                "materials": {
                    "value": ""
                },
                "prepared": {
                    "value": ""
                },
                "primarycheck": {
                    "value": ""
                },
                "range": {
                    "value": ""
                },
                "rules": [],
                "save": {
                    "basic": "",
                    "value": "fortitude"
                },
                "scaling": {
                    "formula": "",
                    "mode": "none"
                },
                "school": {
                    "value": "necromancy"
                },
                "secondarycasters": {
                    "value": ""
                },
                "secondarycheck": {
                    "value": ""
                },
                "slug": "massacre",
                "source": {
                    "value": ""
                },
                "spellType": {
                    "value": "save"
                },
                "sustained": {
                    "value": false
                },
                "target": {
                    "value": ""
                },
                "time": {
                    "value": "2"
                },
                "traditions": {
                    "value": [
                        "arcane",
                        "divine",
                        "primal"
                    ]
                },
                "traits": {
                    "custom": "",
                    "rarity": {
                        "value": "common"
                    },
                    "value": [
                        "death",
                        "necromancy",
                        "negative"
                    ]
                }
            },
            "effects": [],
            "flags": {
                "core": {
                    "sourceId": "Compendium.pf2e.spells-srd.10VcmSYNBrvBphu1"
                }
            },
            "img": "systems/pf2e/icons/spells/massacre.webp",
            "name": "Massacre",
            "sort": 400000,
            "type": "spell"
        },
        {
            "_id": "2tizdcbdj6rD6U6d",
            "data": {
                "ability": {
                    "value": ""
                },
                "area": {
                    "areaType": "",
                    "value": null
                },
                "areasize": {
                    "value": ""
                },
                "autoHeightenLevel": {
                    "value": null
                },
                "category": {
                    "value": "spell"
                },
                "components": {
                    "material": false,
                    "somatic": true,
                    "verbal": true
                },
                "cost": {
                    "value": ""
                },
                "damage": {
                    "applyMod": false,
                    "value": ""
                },
                "damageType": {
                    "value": ""
                },
                "description": {
                    "value": "<p>You see things within 60 feet as they actually are. The GM rolls a secret counteract check against any illusion or transmutation in the area, but only for the purpose of determining whether you see through it (for instance, if the check succeeds against a polymorph spell, you can see the creature's true form, but you don't end the polymorph spell).</p>"
                },
                "duration": {
                    "value": "10 minutes"
                },
                "hasCounteractCheck": {
                    "value": true
                },
                "level": {
                    "value": 10
                },
                "location": {
                    "value": "tXoIGwvSGdRcv6jU"
                },
                "materials": {
                    "value": ""
                },
                "prepared": {
                    "value": ""
                },
                "primarycheck": {
                    "value": ""
                },
                "range": {
                    "value": ""
                },
                "rules": [],
                "save": {
                    "basic": "",
                    "value": ""
                },
                "scaling": {
                    "formula": "",
                    "mode": "none"
                },
                "school": {
                    "value": "divination"
                },
                "secondarycasters": {
                    "value": ""
                },
                "secondarycheck": {
                    "value": ""
                },
                "slug": "true-seeing",
                "source": {
                    "value": ""
                },
                "spellType": {
                    "value": "utility"
                },
                "sustained": {
                    "value": false
                },
                "target": {
                    "value": ""
                },
                "time": {
                    "value": "2"
                },
                "traditions": {
                    "value": [
                        "arcane",
                        "divine",
                        "occult",
                        "primal"
                    ]
                },
                "traits": {
                    "custom": "",
                    "rarity": {
                        "value": "common"
                    },
                    "value": [
                        "divination",
                        "revelation"
                    ]
                }
            },
            "effects": [],
            "flags": {
                "core": {
                    "sourceId": "Compendium.pf2e.spells-srd.uqlxMQQeSGWEVjki"
                }
            },
            "img": "systems/pf2e/icons/spells/true-seeing.webp",
            "name": "True Seeing (Constant)",
            "sort": 500000,
            "type": "spell"
        },
        {
            "_id": "lQ2VQ0Zrb5e8TBJq",
            "data": {
                "ability": {
                    "value": ""
                },
                "area": {
                    "areaType": "",
                    "value": null
                },
                "areasize": {
                    "value": ""
                },
                "autoHeightenLevel": {
                    "value": null
                },
                "category": {
                    "value": "spell"
                },
                "components": {
                    "material": false,
                    "somatic": true,
                    "verbal": true
                },
                "cost": {
                    "value": ""
                },
                "damage": {
                    "applyMod": false,
                    "value": "18d10"
                },
                "damageType": {
                    "value": ""
                },
                "description": {
                    "value": "<p>You fire a green ray at your target. Make a spell attack. You deal 12d10 damage, and the target must attempt a basic Fortitude save. On a critical hit, treat the save result as one degree worse. A creature reduced to 0 HP is reduced to fine powder; its gear remains. An object you hit is destroyed (no save), regardless of Hardness, unless it's an artifact or similarly hard to destroy. A single casting can destroy no more than a 10-foot cube of matter. This automatically destroys any force construct, such as a wall of force.</p>\n<hr />\n<p><strong>Heightened (+1)</strong> The damage increases by 2d10.</p>"
                },
                "duration": {
                    "value": ""
                },
                "hasCounteractCheck": {
                    "value": false
                },
                "level": {
                    "value": 9
                },
                "location": {
                    "value": "tXoIGwvSGdRcv6jU"
                },
                "materials": {
                    "value": ""
                },
                "prepared": {
                    "value": ""
                },
                "primarycheck": {
                    "value": ""
                },
                "range": {
                    "value": "120 feet"
                },
                "rules": [],
                "save": {
                    "basic": "basic",
                    "value": "fortitude"
                },
                "scaling": {
                    "formula": "2d10",
                    "mode": "level1"
                },
                "school": {
                    "value": "evocation"
                },
                "secondarycasters": {
                    "value": ""
                },
                "secondarycheck": {
                    "value": ""
                },
                "slug": "disintegrate",
                "source": {
                    "value": ""
                },
                "spellType": {
                    "value": "attack"
                },
                "sustained": {
                    "value": false
                },
                "target": {
                    "value": "1 creature or unattended object"
                },
                "time": {
                    "value": "2"
                },
                "traditions": {
                    "value": [
                        "arcane"
                    ]
                },
                "traits": {
                    "custom": "",
                    "rarity": {
                        "value": "common"
                    },
                    "value": [
                        "attack",
                        "evocation"
                    ]
                }
            },
            "effects": [],
            "flags": {
                "core": {
                    "sourceId": "Compendium.pf2e.spells-srd.r7ihOgKv19eJQnik"
                }
            },
            "img": "systems/pf2e/icons/spells/disintegrate.webp",
            "name": "Disintegrate",
            "sort": 600000,
            "type": "spell"
        },
        {
            "_id": "7nkhwPsoQZ2RMER7",
            "data": {
                "ability": {
                    "value": ""
                },
                "area": {
                    "areaType": "",
                    "value": null
                },
                "areasize": {
                    "value": ""
                },
                "autoHeightenLevel": {
                    "value": null
                },
                "category": {
                    "value": "spell"
                },
                "components": {
                    "material": false,
                    "somatic": true,
                    "verbal": true
                },
                "cost": {
                    "value": ""
                },
                "damage": {
                    "applyMod": false,
                    "value": "18d10"
                },
                "damageType": {
                    "value": ""
                },
                "description": {
                    "value": "<p>You fire a green ray at your target. Make a spell attack. You deal 12d10 damage, and the target must attempt a basic Fortitude save. On a critical hit, treat the save result as one degree worse. A creature reduced to 0 HP is reduced to fine powder; its gear remains. An object you hit is destroyed (no save), regardless of Hardness, unless it's an artifact or similarly hard to destroy. A single casting can destroy no more than a 10-foot cube of matter. This automatically destroys any force construct, such as a wall of force.</p>\n<hr />\n<p><strong>Heightened (+1)</strong> The damage increases by 2d10.</p>"
                },
                "duration": {
                    "value": ""
                },
                "hasCounteractCheck": {
                    "value": false
                },
                "level": {
                    "value": 9
                },
                "location": {
                    "value": "tXoIGwvSGdRcv6jU"
                },
                "materials": {
                    "value": ""
                },
                "prepared": {
                    "value": ""
                },
                "primarycheck": {
                    "value": ""
                },
                "range": {
                    "value": "120 feet"
                },
                "rules": [],
                "save": {
                    "basic": "basic",
                    "value": "fortitude"
                },
                "scaling": {
                    "formula": "2d10",
                    "mode": "level1"
                },
                "school": {
                    "value": "evocation"
                },
                "secondarycasters": {
                    "value": ""
                },
                "secondarycheck": {
                    "value": ""
                },
                "slug": "disintegrate",
                "source": {
                    "value": ""
                },
                "spellType": {
                    "value": "attack"
                },
                "sustained": {
                    "value": false
                },
                "target": {
                    "value": "1 creature or unattended object"
                },
                "time": {
                    "value": "2"
                },
                "traditions": {
                    "value": [
                        "arcane"
                    ]
                },
                "traits": {
                    "custom": "",
                    "rarity": {
                        "value": "common"
                    },
                    "value": [
                        "attack",
                        "evocation"
                    ]
                }
            },
            "effects": [],
            "flags": {
                "core": {
                    "sourceId": "Compendium.pf2e.spells-srd.r7ihOgKv19eJQnik"
                }
            },
            "img": "systems/pf2e/icons/spells/disintegrate.webp",
            "name": "Disintegrate",
            "sort": 700000,
            "type": "spell"
        },
        {
            "_id": "VOQjB5sOJbtvdcfG",
            "data": {
                "ability": {
                    "value": ""
                },
                "area": {
                    "areaType": "",
                    "value": null
                },
                "areasize": {
                    "value": ""
                },
                "autoHeightenLevel": {
                    "value": null
                },
                "category": {
                    "value": "spell"
                },
                "components": {
                    "material": false,
                    "somatic": true,
                    "verbal": true
                },
                "cost": {
                    "value": ""
                },
                "damage": {
                    "applyMod": false,
                    "value": "18d10"
                },
                "damageType": {
                    "value": ""
                },
                "description": {
                    "value": "<p>You fire a green ray at your target. Make a spell attack. You deal 12d10 damage, and the target must attempt a basic Fortitude save. On a critical hit, treat the save result as one degree worse. A creature reduced to 0 HP is reduced to fine powder; its gear remains. An object you hit is destroyed (no save), regardless of Hardness, unless it's an artifact or similarly hard to destroy. A single casting can destroy no more than a 10-foot cube of matter. This automatically destroys any force construct, such as a wall of force.</p>\n<hr />\n<p><strong>Heightened (+1)</strong> The damage increases by 2d10.</p>"
                },
                "duration": {
                    "value": ""
                },
                "hasCounteractCheck": {
                    "value": false
                },
                "level": {
                    "value": 9
                },
                "location": {
                    "value": "tXoIGwvSGdRcv6jU"
                },
                "materials": {
                    "value": ""
                },
                "prepared": {
                    "value": ""
                },
                "primarycheck": {
                    "value": ""
                },
                "range": {
                    "value": "120 feet"
                },
                "rules": [],
                "save": {
                    "basic": "basic",
                    "value": "fortitude"
                },
                "scaling": {
                    "formula": "2d10",
                    "mode": "level1"
                },
                "school": {
                    "value": "evocation"
                },
                "secondarycasters": {
                    "value": ""
                },
                "secondarycheck": {
                    "value": ""
                },
                "slug": "disintegrate",
                "source": {
                    "value": ""
                },
                "spellType": {
                    "value": "attack"
                },
                "sustained": {
                    "value": false
                },
                "target": {
                    "value": "1 creature or unattended object"
                },
                "time": {
                    "value": "2"
                },
                "traditions": {
                    "value": [
                        "arcane"
                    ]
                },
                "traits": {
                    "custom": "",
                    "rarity": {
                        "value": "common"
                    },
                    "value": [
                        "attack",
                        "evocation"
                    ]
                }
            },
            "effects": [],
            "flags": {
                "core": {
                    "sourceId": "Compendium.pf2e.spells-srd.r7ihOgKv19eJQnik"
                }
            },
            "img": "systems/pf2e/icons/spells/disintegrate.webp",
            "name": "Disintegrate",
            "sort": 800000,
            "type": "spell"
        },
        {
            "_id": "Kggw7MewhWj6SbJM",
            "data": {
                "ability": {
                    "value": ""
                },
                "area": {
                    "areaType": "",
                    "value": null
                },
                "areasize": {
                    "value": ""
                },
                "autoHeightenLevel": {
                    "value": null
                },
                "category": {
                    "value": "spell"
                },
                "components": {
                    "material": false,
                    "somatic": true,
                    "verbal": true
                },
                "cost": {
                    "value": ""
                },
                "damage": {
                    "applyMod": false,
                    "value": ""
                },
                "damageType": {
                    "value": ""
                },
                "description": {
                    "value": "<p>Crackling energy disjoins the target. You attempt to counteract it. If you succeed, it's deactivated for 1 week. On a critical success, it's destroyed. If it's an artifact or similar item, you automatically fail.</p>"
                },
                "duration": {
                    "value": ""
                },
                "hasCounteractCheck": {
                    "value": true
                },
                "level": {
                    "value": 9
                },
                "location": {
                    "value": "tXoIGwvSGdRcv6jU"
                },
                "materials": {
                    "value": ""
                },
                "prepared": {
                    "value": ""
                },
                "primarycheck": {
                    "value": ""
                },
                "range": {
                    "value": "120 feet"
                },
                "rules": [],
                "save": {
                    "basic": "",
                    "value": ""
                },
                "scaling": {
                    "formula": "",
                    "mode": "none"
                },
                "school": {
                    "value": "abjuration"
                },
                "secondarycasters": {
                    "value": ""
                },
                "secondarycheck": {
                    "value": ""
                },
                "slug": "disjunction",
                "source": {
                    "value": ""
                },
                "spellType": {
                    "value": "utility"
                },
                "sustained": {
                    "value": false
                },
                "target": {
                    "value": "1 magic item"
                },
                "time": {
                    "value": "2"
                },
                "traditions": {
                    "value": [
                        "arcane",
                        "primal"
                    ]
                },
                "traits": {
                    "custom": "",
                    "rarity": {
                        "value": "uncommon"
                    },
                    "value": [
                        "uncommon",
                        "abjuration"
                    ]
                }
            },
            "effects": [],
            "flags": {
                "core": {
                    "sourceId": "Compendium.pf2e.spells-srd.ihbRf964JDXztcy3"
                }
            },
            "img": "systems/pf2e/icons/spells/disjunction.webp",
            "name": "Disjunction",
            "sort": 900000,
            "type": "spell"
        },
        {
            "_id": "NzRGMDKGrdAu0AJO",
            "data": {
                "ability": {
                    "value": ""
                },
                "area": {
                    "areaType": "",
                    "value": null
                },
                "areasize": {
                    "value": "40-foot emanation"
                },
                "autoHeightenLevel": {
                    "value": null
                },
                "category": {
                    "value": "spell"
                },
                "components": {
                    "material": false,
                    "somatic": true,
                    "verbal": true
                },
                "cost": {
                    "value": ""
                },
                "damage": {
                    "applyMod": false,
                    "value": "8d10"
                },
                "damageType": {
                    "value": "negative"
                },
                "description": {
                    "value": "<p>Your scream chills the souls of enemies that hear it. Each living enemy in the area takes 8d10 negative damage and must attempt a Fortitude save.</p>\n<hr />\n<p><strong>Critical Success</strong> The target is unaffected.</p>\n<p><strong>Success</strong> The target takes full damage.</p>\n<p><strong>Failure</strong> The target takes full damage and is @Compendium[pf2e.conditionitems.Drained]{Drained} [[/r 1d4]].</p>\n<p><strong>Critical Failure</strong> The target takes double damage and is @Compendium[pf2e.conditionitems.Drained]{Drained 4}.</p>"
                },
                "duration": {
                    "value": ""
                },
                "hasCounteractCheck": {
                    "value": false
                },
                "level": {
                    "value": 9
                },
                "location": {
                    "value": "tXoIGwvSGdRcv6jU"
                },
                "materials": {
                    "value": ""
                },
                "prepared": {
                    "value": ""
                },
                "primarycheck": {
                    "value": ""
                },
                "range": {
                    "value": ""
                },
                "rules": [],
                "save": {
                    "basic": "",
                    "value": "fortitude"
                },
                "scaling": {
                    "formula": "",
                    "mode": "none"
                },
                "school": {
                    "value": "necromancy"
                },
                "secondarycasters": {
                    "value": ""
                },
                "secondarycheck": {
                    "value": ""
                },
                "slug": "wail-of-the-banshee",
                "source": {
                    "value": ""
                },
                "spellType": {
                    "value": "save"
                },
                "sustained": {
                    "value": false
                },
                "target": {
                    "value": "any number of creatures"
                },
                "time": {
                    "value": "2"
                },
                "traditions": {
                    "value": [
                        "divine",
                        "occult"
                    ]
                },
                "traits": {
                    "custom": "",
                    "rarity": {
                        "value": "common"
                    },
                    "value": [
                        "auditory",
                        "death",
                        "necromancy",
                        "negative"
                    ]
                }
            },
            "effects": [],
            "flags": {
                "core": {
                    "sourceId": "Compendium.pf2e.spells-srd.FEsuyf203wTNE2et"
                }
            },
            "img": "systems/pf2e/icons/spells/wail-of-the-banshee.webp",
            "name": "Wail of the Banshee",
            "sort": 1000000,
            "type": "spell"
        },
        {
            "_id": "H98VV8BWpacQVSUz",
            "data": {
                "ability": {
                    "value": ""
                },
                "area": {
                    "areaType": "",
                    "value": null
                },
                "areasize": {
                    "value": "2-mile-radius circle centered on you"
                },
                "autoHeightenLevel": {
                    "value": null
                },
                "category": {
                    "value": "ritual"
                },
                "components": {
                    "material": false,
                    "somatic": false,
                    "verbal": false
                },
                "cost": {
                    "value": ""
                },
                "damage": {
                    "applyMod": false,
                    "value": ""
                },
                "damageType": {
                    "value": ""
                },
                "description": {
                    "value": "<p>You alter the weather, making it calm and normal for the season or choosing up to two effects based on the season:</p>\n<p>You can't specifically control the manifestations, such as the exact path of a tornado or the targets of lightning strikes.</p>\n<ul>\n<li><strong>Autumn</strong> cold weather, fog, mild heat, sleet</li>\n<li><strong>Spring</strong> drizzle, heat, hurricane, sleet, thunderstorm, tornado</li>\n<li><strong>Summer</strong> drizzle, downpour, extreme heat, hail, heat</li>\n<li><strong>Winter</strong> blizzard, mild cold, extreme cold, thaw<hr /></li>\n</ul>\n<p><strong>Critical Success</strong> You change the weather as desired and can affect a larger area (up to a 5-mile-radius circle), or a longer duration (any number of additional d12 hours, up to 16d12).</p>\n<p><strong>Success</strong> You change the weather as desired.</p>\n<p><strong>Failure</strong> You fail to change the weather as desired.</p>\n<p><strong>Critical Failure</strong> The weather changes in an unanticipated way, determined by the GM but generally as contradictory to your true desires as possible (for instance, a terrible storm emerges when you would prefer good weather).</p>\n<hr />\n<p><strong>Heightened (9th)</strong> You can create unseasonable weather and contradictory weather effects, such as extreme cold and a hurricane. You can make the weather calm and normal weather for a different season or choose weather effects from any season's list.</p>"
                },
                "duration": {
                    "value": "4d12 hours"
                },
                "hasCounteractCheck": {
                    "value": false
                },
                "level": {
                    "value": 8
                },
                "location": {
                    "value": "rhgfYw4MvbUra2Dk"
                },
                "materials": {
                    "value": ""
                },
                "prepared": {
                    "value": ""
                },
                "primarycheck": {
                    "value": "Nature (master)"
                },
                "range": {
                    "value": ""
                },
                "rules": [],
                "save": {
                    "basic": "",
                    "value": ""
                },
                "scaling": {
                    "formula": "",
                    "mode": "none"
                },
                "school": {
                    "value": "evocation"
                },
                "secondarycasters": {
                    "value": "1"
                },
                "secondarycheck": {
                    "value": "Survival"
                },
                "slug": "control-weather",
                "source": {
                    "value": ""
                },
                "spellType": {
                    "value": "utility"
                },
                "sustained": {
                    "value": false
                },
                "target": {
                    "value": ""
                },
                "time": {
                    "value": "1 day"
                },
                "traditions": {
                    "custom": "",
                    "value": []
                },
                "traits": {
                    "custom": "",
                    "rarity": {
                        "value": "uncommon"
                    },
                    "value": [
                        "uncommon",
                        "conjuration"
                    ]
                }
            },
            "effects": [],
            "flags": {
                "core": {
                    "sourceId": "Compendium.pf2e.spells-srd.XkDCzMIyc0YOjw05"
                }
            },
            "img": "systems/pf2e/icons/spells/control-weather.webp",
            "name": "Control Weather",
            "sort": 1100000,
            "type": "spell"
        },
        {
            "_id": "yJy5LfDa8whoZRrW",
            "data": {
                "ability": {
                    "value": ""
                },
                "area": {
                    "areaType": "",
                    "value": null
                },
                "areasize": {
                    "value": ""
                },
                "autoHeightenLevel": {
                    "value": null
                },
                "category": {
                    "value": "spell"
                },
                "components": {
                    "material": false,
                    "somatic": true,
                    "verbal": true
                },
                "cost": {
                    "value": ""
                },
                "damage": {
                    "applyMod": false,
                    "value": ""
                },
                "damageType": {
                    "value": ""
                },
                "description": {
                    "value": "<p>Opening a door that bypasses normal space, you instantly transport yourself and any items you're wearing and holding from your current space to a clear space within range you can see. If this would bring another creature with you-even if you're carrying it in an extradimensional container-the spell is lost.</p>\n<hr />\n<p><strong>Heightened (5th)</strong> The range increases to 1 mile. You don't need to be able to see your destination, as long as you have been there in the past and know its relative location and distance from you. You are temporarily immune for 1 hour.</p>"
                },
                "duration": {
                    "value": ""
                },
                "hasCounteractCheck": {
                    "value": false
                },
                "level": {
                    "value": 5
                },
                "location": {
                    "value": "tXoIGwvSGdRcv6jU"
                },
                "materials": {
                    "value": ""
                },
                "prepared": {
                    "value": ""
                },
                "primarycheck": {
                    "value": ""
                },
                "range": {
                    "value": "120 feet"
                },
                "rules": [],
                "save": {
                    "basic": "",
                    "value": ""
                },
                "scaling": {
                    "formula": "",
                    "mode": "none"
                },
                "school": {
                    "value": "conjuration"
                },
                "secondarycasters": {
                    "value": ""
                },
                "secondarycheck": {
                    "value": ""
                },
                "slug": "dimension-door",
                "source": {
                    "value": ""
                },
                "spellType": {
                    "value": "utility"
                },
                "sustained": {
                    "value": false
                },
                "target": {
                    "value": ""
                },
                "time": {
                    "value": "2"
                },
                "traditions": {
                    "value": [
                        "arcane",
                        "occult"
                    ]
                },
                "traits": {
                    "custom": "",
                    "rarity": {
                        "value": "common"
                    },
                    "value": [
                        "conjuration",
                        "teleportation"
                    ]
                }
            },
            "effects": [],
            "flags": {
                "core": {
                    "sourceId": "Compendium.pf2e.spells-srd.VlNcjmYyu95vOUe8"
                }
            },
            "img": "systems/pf2e/icons/spells/dimension-door.webp",
            "name": "Dimension Door",
            "sort": 1200000,
            "type": "spell"
        },
        {
            "_id": "LHtq8h9QsdHppn66",
            "data": {
                "ability": {
                    "value": ""
                },
                "area": {
                    "areaType": "",
                    "value": null
                },
                "areasize": {
                    "value": ""
                },
                "autoHeightenLevel": {
                    "value": null
                },
                "category": {
                    "value": "spell"
                },
                "components": {
                    "material": false,
                    "somatic": true,
                    "verbal": true
                },
                "cost": {
                    "value": ""
                },
                "damage": {
                    "applyMod": false,
                    "value": ""
                },
                "damageType": {
                    "value": ""
                },
                "description": {
                    "value": "<p>Opening a door that bypasses normal space, you instantly transport yourself and any items you're wearing and holding from your current space to a clear space within range you can see. If this would bring another creature with you-even if you're carrying it in an extradimensional container-the spell is lost.</p>\n<hr />\n<p><strong>Heightened (5th)</strong> The range increases to 1 mile. You don't need to be able to see your destination, as long as you have been there in the past and know its relative location and distance from you. You are temporarily immune for 1 hour.</p>"
                },
                "duration": {
                    "value": ""
                },
                "hasCounteractCheck": {
                    "value": false
                },
                "level": {
                    "value": 4
                },
                "location": {
                    "value": "tXoIGwvSGdRcv6jU"
                },
                "materials": {
                    "value": ""
                },
                "prepared": {
                    "value": ""
                },
                "primarycheck": {
                    "value": ""
                },
                "range": {
                    "value": "120 feet"
                },
                "rules": [],
                "save": {
                    "basic": "",
                    "value": ""
                },
                "scaling": {
                    "formula": "",
                    "mode": "none"
                },
                "school": {
                    "value": "conjuration"
                },
                "secondarycasters": {
                    "value": ""
                },
                "secondarycheck": {
                    "value": ""
                },
                "slug": "dimension-door",
                "source": {
                    "value": ""
                },
                "spellType": {
                    "value": "utility"
                },
                "sustained": {
                    "value": false
                },
                "target": {
                    "value": ""
                },
                "time": {
                    "value": "2"
                },
                "traditions": {
                    "value": [
                        "arcane",
                        "occult"
                    ]
                },
                "traits": {
                    "custom": "",
                    "rarity": {
                        "value": "common"
                    },
                    "value": [
                        "conjuration",
                        "teleportation"
                    ]
                }
            },
            "effects": [],
            "flags": {
                "core": {
                    "sourceId": "Compendium.pf2e.spells-srd.VlNcjmYyu95vOUe8"
                }
            },
            "img": "systems/pf2e/icons/spells/dimension-door.webp",
            "name": "Dimension Door (At will)",
            "sort": 1300000,
            "type": "spell"
        },
        {
            "_id": "38kb57Hhd2E3vn6A",
            "data": {
                "ability": {
                    "value": ""
                },
                "area": {
                    "areaType": "emanation",
                    "value": 30
                },
                "areasize": {
                    "value": "30-foot emanation"
                },
                "autoHeightenLevel": {
                    "value": null
                },
                "category": {
                    "value": "spell"
                },
                "components": {
                    "material": false,
                    "somatic": true,
                    "verbal": true
                },
                "cost": {
                    "value": ""
                },
                "damage": {
                    "applyMod": false,
                    "value": ""
                },
                "damageType": {
                    "value": ""
                },
                "description": {
                    "value": "<p>Your eyes glow as you sense aligned auras. Choose chaotic, evil, good, or lawful. You detect auras of that alignment. You receive no information beyond presence or absence. You can choose not to detect creatures or effects you're aware have that alignment.</p>\n<p>Only creatures of 6th level or higher-unless divine spellcasters, undead, or beings from the Outer Sphere-have alignment auras.</p>\n<hr />\n<p><strong>Heightened (2nd)</strong> You learn each aura's location and strength.</p>"
                },
                "duration": {
                    "value": ""
                },
                "hasCounteractCheck": {
                    "value": false
                },
                "level": {
                    "value": 1
                },
                "location": {
                    "value": "tXoIGwvSGdRcv6jU"
                },
                "materials": {
                    "value": ""
                },
                "prepared": {
                    "value": ""
                },
                "primarycheck": {
                    "value": ""
                },
                "range": {
                    "value": ""
                },
                "rules": [],
                "save": {
                    "basic": "",
                    "value": ""
                },
                "scaling": {
                    "formula": "",
                    "mode": "none"
                },
                "school": {
                    "value": "divination"
                },
                "secondarycasters": {
                    "value": ""
                },
                "secondarycheck": {
                    "value": ""
                },
                "slug": "detect-alignment",
                "source": {
                    "value": ""
                },
                "spellType": {
                    "value": "utility"
                },
                "sustained": {
                    "value": false
                },
                "target": {
                    "value": ""
                },
                "time": {
                    "value": "2"
                },
                "traditions": {
                    "value": [
                        "divine",
                        "occult"
                    ]
                },
                "traits": {
                    "custom": "",
                    "rarity": {
                        "value": "uncommon"
                    },
                    "value": [
                        "detection",
                        "divination"
                    ]
                }
            },
            "effects": [],
            "flags": {
                "core": {
                    "sourceId": "Compendium.pf2e.spells-srd.QnTtGCAvdWRU4spv"
                }
            },
            "img": "systems/pf2e/icons/spells/detect-alignment.webp",
            "name": "Detect Alignment (At will) (Good only)",
            "sort": 1400000,
            "type": "spell"
        },
        {
            "_id": "qjQkjjoCkG0wYEyP",
            "data": {
                "activation": {
                    "condition": "",
                    "cost": 0,
                    "type": ""
                },
                "autoDestroy": {
                    "_deprecated": true,
                    "value": true
                },
                "autoUse": {
                    "_deprecated": true,
                    "value": true
                },
                "baseItem": null,
                "brokenThreshold": {
                    "value": 0
                },
                "bulkCapacity": {
                    "value": ""
                },
                "charges": {
                    "_deprecated": true,
                    "max": 1,
                    "value": 1
                },
                "collapsed": {
                    "value": false
                },
                "consumableType": {
                    "value": "potion"
                },
                "consume": {
                    "_deprecated": true,
                    "value": ""
                },
                "containerId": {
                    "value": ""
                },
                "description": {
                    "value": ""
                },
                "duration": {
                    "units": "",
                    "value": null
                },
                "equipped": {
                    "value": false
                },
                "equippedBulk": {
                    "value": ""
                },
                "hardness": {
                    "value": 0
                },
                "hp": {
                    "value": 0
                },
                "identification": {
                    "misidentified": {},
                    "status": "identified",
                    "unidentified": {
                        "data": {
                            "description": {
                                "value": ""
                            }
                        },
                        "img": "",
                        "name": ""
                    }
                },
                "level": {
                    "value": 0
                },
                "maxHp": {
                    "value": 0
                },
                "negateBulk": {
                    "value": "0"
                },
                "preciousMaterial": {
                    "value": ""
                },
                "preciousMaterialGrade": {
                    "value": ""
                },
                "price": {
                    "value": "0 gp"
                },
                "quantity": {
                    "value": 4
                },
                "range": {
                    "long": null,
                    "units": "",
                    "value": null
                },
                "rules": [],
                "size": {
                    "value": "med"
                },
                "slug": null,
                "source": {
                    "value": ""
                },
                "spell": {
                    "data": null,
                    "heightenedLevel": null
                },
                "stackGroup": {
                    "value": ""
                },
                "target": {
                    "type": "",
                    "units": "",
                    "value": null
                },
                "traits": {
                    "custom": "",
                    "rarity": {
                        "value": "common"
                    },
                    "usage": {
                        "value": "held-in-one-hand"
                    },
                    "value": []
                },
                "usage": {
                    "value": "held-in-one-hand"
                },
                "uses": {
                    "autoDestroy": true,
                    "autoUse": true,
                    "max": 0,
                    "per": null,
                    "value": 0
                },
                "weight": {
                    "value": "-"
                }
            },
            "effects": [],
            "flags": {},
            "img": "systems/pf2e/icons/default-icons/mystery-man.svg",
            "name": "Soul Gem",
            "sort": 1500000,
            "type": "consumable"
        },
        {
            "_id": "mObSHLoIirMcASES",
            "data": {
                "attack": {
                    "value": ""
                },
                "attackEffects": {
                    "value": [
                        "Grab"
                    ]
                },
                "bonus": {
                    "value": 38
                },
                "damageRolls": {
                    "a881oyrpp2lt3uxw55hq": {
                        "damage": "4d12+17",
                        "damageType": "piercing"
                    },
                    "lpi403xzrr96e9smo7vt": {
                        "damage": "1d6",
                        "damageType": "evil"
                    }
                },
                "description": {
                    "value": ""
                },
                "rules": [],
                "slug": null,
                "source": {
                    "value": ""
                },
                "traits": {
                    "custom": "",
                    "rarity": {
                        "value": "common"
                    },
                    "value": [
                        "evil",
                        "magical",
                        "reach-10"
                    ]
                },
                "weaponType": {
                    "value": "melee"
                }
            },
            "effects": [],
            "flags": {},
            "img": "systems/pf2e/icons/default-icons/melee.svg",
            "name": "Jaws",
            "sort": 1600000,
            "type": "melee"
        },
        {
            "_id": "dSkIJ0gsh7XlH2OA",
            "data": {
                "attack": {
                    "value": ""
                },
                "attackEffects": {
                    "value": [
                        "Grab"
                    ]
                },
                "bonus": {
                    "value": 38
                },
                "damageRolls": {
                    "z5clnqxf1alykiwdt3wx": {
                        "damage": "4d8+17",
                        "damageType": "slashing"
                    },
                    "ktdnphkqwzpcawefx6u0": {
                        "damage": "1d6",
                        "damageType": "evil"
                    }
                },
                "description": {
                    "value": ""
                },
                "rules": [],
                "slug": null,
                "source": {
                    "value": ""
                },
                "traits": {
                    "custom": "",
                    "rarity": {
                        "value": "common"
                    },
                    "value": [
                        "agile",
                        "evil",
                        "magical",
                        "reach-15"
                    ]
                },
                "weaponType": {
                    "value": "melee"
                }
            },
            "effects": [],
            "flags": {},
            "img": "systems/pf2e/icons/default-icons/melee.svg",
            "name": "Claw",
            "sort": 1700000,
            "type": "melee"
        },
        {
            "_id": "CSSsFGyexhD5YUX3",
            "data": {
                "actionCategory": {
                    "value": "interaction"
                },
                "actionType": {
                    "value": "passive"
                },
                "actions": {
                    "value": null
                },
                "description": {
                    "value": "<p>A monster with darkvision can see perfectly well in areas of darkness and dim light, though such vision is in black and white only. Some forms of magical darkness, such as a 4th-level @Compendium[pf2e.spells-srd.Darkness]{Darkness} spell, block normal darkvision. A monster with @Compendium[pf2e.bestiary-ability-glossary-srd.Greater Darkvision]{Greater Darkvision}, however, can see through even these forms of magical darkness.</p>"
                },
                "requirements": {
                    "value": ""
                },
                "rules": [],
                "slug": "darkvision",
                "source": {
                    "value": ""
                },
                "traits": {
                    "custom": "",
                    "rarity": {
                        "value": "common"
                    },
                    "value": []
                },
                "trigger": {
                    "value": ""
                },
                "weapon": {
                    "value": ""
                }
            },
            "effects": [],
            "flags": {
                "core": {
                    "sourceId": "Compendium.pf2e.bestiary-ability-glossary-srd.qCCLZhnp2HhP3Ex6"
                }
            },
            "img": "systems/pf2e/icons/default-icons/action.svg",
            "name": "Darkvision",
            "sort": 1800000,
            "type": "action"
        },
        {
            "_id": "1deHNHPL9laFtZgR",
            "data": {
                "actionCategory": {
                    "value": "interaction"
                },
                "actionType": {
                    "value": "passive"
                },
                "actions": {
                    "value": null
                },
                "description": {
                    "value": "<p>Tremorsense allows a monster to feel the vibrations through a solid surface caused by movement. It is an imprecise sense with a limited range (listed in the ability). Tremorsense functions only if the monster is on the same surface as the subject, and only if the subject is moving along (or burrowing through) the surface.</p>"
                },
                "requirements": {
                    "value": ""
                },
                "rules": [],
                "slug": "tremorsense",
                "source": {
                    "value": ""
                },
                "traits": {
                    "custom": "",
                    "rarity": {
                        "value": "common"
                    },
                    "value": []
                },
                "trigger": {
                    "value": ""
                },
                "weapon": {
                    "value": ""
                }
            },
            "effects": [],
            "flags": {
                "core": {
                    "sourceId": "Compendium.pf2e.bestiary-ability-glossary-srd.j2wsK6IsW5yMW1jW"
                }
            },
            "img": "systems/pf2e/icons/default-icons/action.svg",
            "name": "Tremorsense",
            "sort": 1900000,
            "type": "action"
        },
        {
            "_id": "pfzWyL0gCgqD1xRz",
            "data": {
                "actionCategory": {
                    "value": "interaction"
                },
                "actionType": {
                    "value": "passive"
                },
                "actions": {
                    "value": null
                },
                "description": {
                    "value": "<p>A monster with telepathy can communicate mentally with any creatures within the listed radius, as long as they share a language. This doesn't give any special access to their thoughts, and communicates no more information than normal speech would.</p>"
                },
                "requirements": {
                    "value": ""
                },
                "rules": [],
                "slug": "telepathy",
                "source": {
                    "value": ""
                },
                "traits": {
                    "custom": "",
                    "rarity": {
                        "value": "common"
                    },
                    "value": [
                        "aura",
                        "divination",
                        "magical"
                    ]
                },
                "trigger": {
                    "value": ""
                },
                "weapon": {
                    "value": ""
                }
            },
            "effects": [],
            "flags": {
                "core": {
                    "sourceId": "Compendium.pf2e.bestiary-ability-glossary-srd.kdhbPaBMK1d1fpbA"
                }
            },
            "img": "systems/pf2e/icons/default-icons/action.svg",
            "name": "Telepathy",
            "sort": 2000000,
            "type": "action"
        },
        {
            "_id": "5kEI04PwOkPj2l0j",
            "data": {
                "actionCategory": {
                    "value": "interaction"
                },
                "actionType": {
                    "value": "passive"
                },
                "actions": {
                    "value": null
                },
                "description": {
                    "value": "<p>The monster can cast its at-will spells any number of times without using up spell slots.</p>"
                },
                "requirements": {
                    "value": ""
                },
                "rules": [],
                "slug": "at-will-spells",
                "source": {
                    "value": ""
                },
                "traits": {
                    "custom": "",
                    "rarity": {
                        "value": "common"
                    },
                    "value": []
                },
                "trigger": {
                    "value": ""
                },
                "weapon": {
                    "value": ""
                }
            },
            "effects": [],
            "flags": {
                "core": {
                    "sourceId": "Compendium.pf2e.bestiary-ability-glossary-srd.2YRDYVnC1eljaXKK"
                }
            },
            "img": "systems/pf2e/icons/default-icons/action.svg",
            "name": "At-Will Spells",
            "sort": 2100000,
            "type": "action"
        },
        {
            "_id": "eLovXAlbDKmZARNK",
            "data": {
                "actionCategory": {
                    "value": "interaction"
                },
                "actionType": {
                    "value": "passive"
                },
                "actions": {
                    "value": null
                },
                "description": {
                    "value": "<p>A constant spell affects the monster without the monster needing to cast it, and its duration is unlimited. If a constant spell gets counteracted, the monster can reactivate it by spending the normal spellcasting actions the spell requires.</p>"
                },
                "requirements": {
                    "value": ""
                },
                "rules": [],
                "slug": "constant-spells",
                "source": {
                    "value": ""
                },
                "traits": {
                    "custom": "",
                    "rarity": {
                        "value": "common"
                    },
                    "value": []
                },
                "trigger": {
                    "value": ""
                },
                "weapon": {
                    "value": ""
                }
            },
            "effects": [],
            "flags": {
                "core": {
                    "sourceId": "Compendium.pf2e.bestiary-ability-glossary-srd.kakyXBG5WA8c6Zfd"
                }
            },
            "img": "systems/pf2e/icons/default-icons/action.svg",
            "name": "Constant Spells",
            "sort": 2200000,
            "type": "action"
        },
        {
            "_id": "ZD69ngyFRQ3FHnUr",
            "data": {
                "actionCategory": {
                    "value": "defensive"
                },
                "actionType": {
                    "value": "passive"
                },
                "actions": {
                    "value": null
                },
                "description": {
                    "value": ""
                },
                "requirements": {
                    "value": ""
                },
                "rules": [
                    {
                        "key": "PF2E.RuleElement.FlatModifier",
                        "predicate": {
                            "any": [
                                "magical",
                                "arcane",
                                "primal",
                                "occult",
                                "divine"
                            ]
                        },
                        "selector": "saving-throw",
                        "value": 1
                    }
                ],
                "slug": null,
                "source": {
                    "value": ""
                },
                "traits": {
                    "custom": "",
                    "rarity": {
                        "value": "common"
                    },
                    "value": []
                },
                "trigger": {
                    "value": ""
                },
                "weapon": {
                    "value": ""
                }
            },
            "effects": [],
            "flags": {},
            "img": "systems/pf2e/icons/default-icons/mystery-man.svg",
            "name": "+1 Status Bonus on Saves vs Magic",
            "sort": 2300000,
            "type": "action"
        },
        {
            "_id": "SLu0NlKYzhM3DVPZ",
            "data": {
                "actionCategory": {
                    "value": "defensive"
                },
                "actionType": {
                    "value": "passive"
                },
                "actions": {
                    "value": null
                },
                "description": {
                    "value": "<p>60 feet.</p>\n<p>Any creature that begins its turn in the aura is @Compendium[pf2e.conditionitems.Doomed]{Doomed 1} for as long as it remains in the aura and for 1 hour thereafter.</p>"
                },
                "requirements": {
                    "value": ""
                },
                "rules": [],
                "slug": null,
                "source": {
                    "value": ""
                },
                "traits": {
                    "custom": "",
                    "rarity": {
                        "value": "common"
                    },
                    "value": [
                        "aura",
                        "death",
                        "divine"
                    ]
                },
                "trigger": {
                    "value": ""
                },
                "weapon": {
                    "value": ""
                }
            },
            "effects": [],
            "flags": {},
            "img": "systems/pf2e/icons/default-icons/mystery-man.svg",
            "name": "Aura of Doom",
            "sort": 2400000,
            "type": "action"
        },
        {
            "_id": "nVMaCED96f0puvS1",
            "data": {
                "actionCategory": {
                    "value": "offensive"
                },
                "actionType": {
                    "value": "action"
                },
                "actions": {
                    "value": 2
                },
                "description": {
                    "value": "<p>The daemon expels a shrieking black cloud of smoke from its mouth in a 120-foot line or a 60-foot cone (or both a line and a cone in the same direction if it spends 3 actions). Living creatures in the area take [[/r 24d6 #negative]]{24d6 negative damage} (<span data-pf2-check=\"reflex\" data-pf2-dc=\"45\" data-pf2-traits=\"divine,negative,damaging-effect\" data-pf2-label=\"Apocalypse Breath DC\" data-pf2-show-dc=\"gm\">basic Reflex</span> save).</p>\n<p>The olethrodaemon can't use Apocalypse Breath again for [[/br 1d4 #rounds]]{1d4 rounds}.</p>"
                },
                "requirements": {
                    "value": ""
                },
                "rules": [],
                "slug": null,
                "source": {
                    "value": ""
                },
                "traits": {
                    "custom": "",
                    "rarity": {
                        "value": "common"
                    },
                    "value": [
                        "divine",
                        "negative"
                    ]
                },
                "trigger": {
                    "value": ""
                },
                "weapon": {
                    "value": ""
                }
            },
            "effects": [],
            "flags": {},
            "img": "systems/pf2e/icons/actions/TwoActions.webp",
            "name": "Apocalypse Breath",
            "sort": 2500000,
            "type": "action"
        },
        {
            "_id": "uQDUAoudAP9pgxja",
            "data": {
                "actionCategory": {
                    "value": "offensive"
                },
                "actionType": {
                    "value": "action"
                },
                "actions": {
                    "value": 2
                },
                "description": {
                    "value": "<p><strong>Requirement</strong> The olethrodaemon has a soul gem;</p>\n<p><strong>Effect</strong> The olethrodaemon crushes the soul gem in one hand and regains the use of Apocalypse Breath or any one of its innate spells.</p>"
                },
                "requirements": {
                    "value": ""
                },
                "rules": [],
                "slug": null,
                "source": {
                    "value": ""
                },
                "traits": {
                    "custom": "",
                    "rarity": {
                        "value": "common"
                    },
                    "value": [
                        "manipulate"
                    ]
                },
                "trigger": {
                    "value": ""
                },
                "weapon": {
                    "value": ""
                }
            },
            "effects": [],
            "flags": {},
            "img": "systems/pf2e/icons/actions/TwoActions.webp",
            "name": "Soul Crush",
            "sort": 2600000,
            "type": "action"
        },
        {
            "_id": "h5vOq3kLWQKQrs6h",
            "data": {
                "actionCategory": {
                    "value": "offensive"
                },
                "actionType": {
                    "value": "action"
                },
                "actions": {
                    "value": 1
                },
                "description": {
                    "value": "<p>Huge, [[/r 4d10 #bludgeoning]]{4d10 bludgeoning damage} and @Compendium[pf2e.conditionitems.Drained]{Drained 2}, Rupture 43</p>\n<p>An olethrodaemon has numerous stomachs connected by labyrinthine digestive organs. Swallowed creatures cannot Escape, but can attempt to cut their way out with a [[/r 1d6]] roll. On a roll of 1–3, the creature cuts into yet another stomach. On a roll of 4–6, the creature manages to cut its way out of the olethrodaemon.</p>\n<p>The monster attempts to swallow a creature of the listed size or smaller that it has grabbed in its jaws or mouth. If a swallowed creature is of the maximum size listed, the monster can't use Swallow Whole again. If the creature is smaller than the maximum, the monster can usually swallow more creatures; the GM determines the maximum. The monster attempts an Athletics check opposed by the grabbed creature's Reflex DC. If it succeeds, it swallows the creature. The monster's mouth or jaws no longer grab a creature it has swallowed, so the monster is free to use them to Strike or Grab once again. The monster can't attack creatures it has swallowed.</p>\n<p>A swallowed creature is @Compendium[pf2e.conditionitems.Grabbed]{Grabbed}, is @Compendium[pf2e.conditionitems.Slowed]{Slowed 1}, and has to hold its breath or start suffocating. The swallowed creature takes the listed amount of damage when first swallowed and at the end of each of its turns while it's swallowed. If the victim @Compendium[pf2e.actionspf2e.Escape]{Escapes} this ability's grabbed condition, it exits through the monster's mouth. This frees any other creature grabbed in the monster's mouth or jaws. A swallowed creature can attack the monster that has swallowed it, but only with unarmed attacks or with weapons of light Bulk or less. The swallowing creature is @Compendium[pf2e.conditionitems.Flat-Footed]{Flat-Footed} against the attack. If the monster takes piercing or slashing damage equaling or exceeding the listed Rupture value from a single attack or spell, the swallowed creature cuts itself free. A creature that gets free by either Escaping or cutting itself free can immediately breathe and exits the swallowing monster's space.</p>\n<p>If the monster dies, a swallowed creature can be freed by creatures adjacent to the corpse if they spend a combined total of 3 actions cutting the monster open with a weapon or unarmed attack that deals piercing or slashing damage.</p>"
                },
                "requirements": {
                    "value": ""
                },
                "rules": [],
                "slug": "swallow-whole",
                "source": {
                    "value": ""
                },
                "traits": {
                    "custom": "",
                    "rarity": {
                        "value": "common"
                    },
                    "value": [
                        "attack"
                    ]
                },
                "trigger": {
                    "value": ""
                },
                "weapon": {
                    "value": ""
                }
            },
            "effects": [],
            "flags": {
                "core": {
                    "sourceId": "Compendium.pf2e.bestiary-ability-glossary-srd.uJSseLa57HZYSMUu"
                }
            },
            "img": "systems/pf2e/icons/actions/OneAction.webp",
            "name": "Swallow Whole",
            "sort": 2700000,
            "type": "action"
        },
        {
            "_id": "4oL2L4CT1FG6IAEu",
            "data": {
                "actionCategory": {
                    "value": "offensive"
                },
                "actionType": {
                    "value": "action"
                },
                "actions": {
                    "value": 1
                },
                "description": {
                    "value": "<p><strong>Requirements</strong> The monster's last action was a success with a Strike that lists Grab in its damage entry, or it has a creature grabbed using this action.</p>\n<p><strong>Effect</strong> The monster automatically Grabs the target until the end of the monster's next turn. The creature is @Compendium[pf2e.conditionitems.Grabbed]{Grabbed} by whichever body part the monster attacked with, and that body part can't be used to Strike creatures until the grab is ended. Using Grab extends the duration of the monster's Grab until the end of its next turn for all creatures grabbed by it. A grabbed creature can use the @Compendium[pf2e.actionspf2e.Escape]{Escape} action to get out of the grab, and the Grab ends for a grabbed creatures if the monster moves away from it.</p>"
                },
                "requirements": {
                    "value": ""
                },
                "rules": [],
                "slug": "grab",
                "source": {
                    "value": ""
                },
                "traits": {
                    "custom": "",
                    "rarity": {
                        "value": "common"
                    },
                    "value": []
                },
                "trigger": {
                    "value": ""
                },
                "weapon": {
                    "value": ""
                }
            },
            "effects": [],
            "flags": {
                "core": {
                    "sourceId": "Compendium.pf2e.bestiary-ability-glossary-srd.Tkd8sH4pwFIPzqTr"
                }
            },
            "img": "systems/pf2e/icons/actions/OneAction.webp",
            "name": "Grab",
            "sort": 2800000,
            "type": "action"
        },
        {
            "_id": "zopfcGN6mDxzlvjT",
            "data": {
                "description": {
                    "value": ""
                },
                "item": {
                    "value": 0
                },
                "mod": {
                    "value": 40
                },
                "proficient": {
                    "value": 0
                },
                "rules": [],
                "slug": null,
                "source": {
                    "value": ""
                },
                "traits": {
                    "custom": "",
                    "rarity": {
                        "value": "common"
                    },
                    "value": []
                }
            },
            "effects": [],
            "flags": {},
            "img": "systems/pf2e/icons/default-icons/lore.svg",
            "name": "Athletics",
            "sort": 2900000,
            "type": "lore"
        },
        {
            "_id": "bUxhhJ9unXAQMeMg",
            "data": {
                "description": {
                    "value": ""
                },
                "item": {
                    "value": 0
                },
                "mod": {
                    "value": 38
                },
                "proficient": {
                    "value": 0
                },
                "rules": [],
                "slug": null,
                "source": {
                    "value": ""
                },
                "traits": {
                    "custom": "",
                    "rarity": {
                        "value": "common"
                    },
                    "value": []
                }
            },
            "effects": [],
            "flags": {},
            "img": "systems/pf2e/icons/default-icons/lore.svg",
            "name": "Intimidation",
            "sort": 3000000,
            "type": "lore"
        },
        {
            "_id": "3WYk2YQGsTLlHTCM",
            "data": {
                "description": {
                    "value": ""
                },
                "item": {
                    "value": 0
                },
                "mod": {
                    "value": 34
                },
                "proficient": {
                    "value": 0
                },
                "rules": [],
                "slug": null,
                "source": {
                    "value": ""
                },
                "traits": {
                    "custom": "",
                    "rarity": {
                        "value": "common"
                    },
                    "value": []
                }
            },
            "effects": [],
            "flags": {},
            "img": "systems/pf2e/icons/default-icons/lore.svg",
            "name": "Religion",
            "sort": 3100000,
            "type": "lore"
        }
    ],
    "name": "Olethrodaemon",
    "token": {
        "disposition": -1,
        "height": 4,
        "img": "systems/pf2e/icons/default-icons/npc.svg",
        "name": "Olethrodaemon",
        "width": 4
    },
    "type": "npc"
}
