{
    "_id": "ThE5zPYKF4weiljj",
    "data": {
        "ability": {
            "value": ""
        },
        "area": {
            "areaType": "emanation",
            "value": 5
        },
        "areasize": {
            "value": "5-foot emanation"
        },
        "category": {
            "value": "spell"
        },
        "components": {
            "material": true,
            "somatic": true,
            "verbal": true
        },
        "cost": {
            "value": ""
        },
        "damage": {
            "applyMod": false,
            "value": ""
        },
        "damageType": {
            "value": ""
        },
        "description": {
            "value": "<p><span>You and affected allies gain preternatural knowledge of the path ahead, allowing you to intuit the best way forward and avoid potential obstacles such as difficult or confusing terrain. For the purpose of long-distance overland travel during exploration mode, traveling through difficult terrain reduces you to only three-quarters your travel Speed instead of half, and traveling through greater difficult terrain reduces your travel Speed to only half your travel Speed instead of one-third. <em>Show the way</em> does not prevent you from falling into traps or encountering other artificial obstacles and hazards.</span></p>\n<hr />\n<p><strong>Heightened (+6)</strong> For the purpose of long-distance overland travel during exploration mode, traveling through difficult terrain doesn't reduce your travel Speed at all, and traveling through greater difficult terrain reduces your travel Speed to only three-quarters of its normal value instead of one-third.</p>"
        },
        "duration": {
            "value": "8 hours"
        },
        "hasCounteractCheck": {
            "value": false
        },
        "level": {
            "value": 3
        },
        "location": {
            "value": ""
        },
        "materials": {
            "value": ""
        },
        "prepared": {
            "value": ""
        },
        "primarycheck": {
            "value": ""
        },
        "range": {
            "value": ""
        },
        "rules": [],
        "save": {
            "basic": "",
            "value": ""
        },
        "scaling": {
            "formula": "",
            "mode": "none"
        },
        "school": {
            "value": "divination"
        },
        "secondarycasters": {
            "value": ""
        },
        "secondarycheck": {
            "value": ""
        },
        "source": {
            "value": ""
        },
        "spellType": {
            "value": "utility"
        },
        "sustained": {
            "value": false
        },
        "target": {
            "value": "you and allies in the area"
        },
        "time": {
            "value": "10 minutes"
        },
        "traditions": {
            "custom": "",
            "value": [
                "divine",
                "primal"
            ]
        },
        "traits": {
            "custom": "",
            "rarity": {
                "value": "common"
            },
            "value": [
                "detection",
                "divination"
            ]
        }
    },
    "effects": [],
    "flags": {},
    "img": "systems/pf2e/icons/spells/show-the-way.webp",
    "name": "Show the Way",
    "type": "spell"
}
