{
    "_id": "Wk4HyaZtC1j221i1",
    "data": {
        "actionCategory": {
            "value": ""
        },
        "actionType": {
            "value": "passive"
        },
        "actions": {
            "value": null
        },
        "description": {
            "value": "<p>You are a creature of the material world, with an affinity closer to the wilds than urban society. You gain a jaws unarmed attack that deals [[/r 1d6 #piercing]]{1d6 piercing damage}. Your jaws are in the brawling group and have the finesse and unarmed traits. Your alternate form is a fox, which has the statistics of 1st‑level @Compendium[pf2e.spells-srd.Pest Form]{Pest Form}.</p>"
        },
        "featType": {
            "value": "heritage"
        },
        "level": {
            "value": 1
        },
        "location": "",
        "prerequisites": {
            "value": []
        },
        "rules": [],
        "source": {
            "value": ""
        },
        "traits": {
            "custom": "",
            "rarity": {
                "value": "common"
            },
            "value": [
                "kitsune"
            ]
        }
    },
    "effects": [],
    "flags": {},
    "img": "systems/pf2e/icons/default-icons/feat.svg",
    "name": "Earthly Wilds Kitsune",
    "type": "feat"
}
