{
    "_id": "wNnsjird4OQe0s6p",
    "data": {
        "actionCategory": {
            "value": ""
        },
        "actionType": {
            "value": "passive"
        },
        "actions": {
            "value": null
        },
        "description": {
            "value": "<p>You have a large gourd for a skull. Your knowledge comes from within your spirit, rather than a physical brain, and you have found a handier use for the space inside your head. You can store a collection of up to 1 Bulk of objects within your head. The DC of checks to @Compendium[pf2e.actionspf2e.Steal]{Steal} objects from inside your head increases by 4. Additionally, if you store only one object within your head, you can draw it effortlessly into your hand as part of another action to use the object. Drawing the item grants this other action the manipulate trait.</p>"
        },
        "featType": {
            "value": "heritage"
        },
        "level": {
            "value": 1
        },
        "location": "",
        "prerequisites": {
            "value": []
        },
        "rules": [],
        "source": {
            "value": ""
        },
        "traits": {
            "custom": "",
            "rarity": {
                "value": "common"
            },
            "selected": {
                "leshy": "Leshy"
            },
            "value": [
                "leshy"
            ]
        }
    },
    "effects": [],
    "flags": {},
    "img": "systems/pf2e/icons/features/ancestry/goudy-leshy.webp",
    "name": "Gourd Leshy",
    "type": "feat"
}
