{
    "_id": "kHHcvJBJNiPJTuna",
    "data": {
        "actionCategory": {
            "value": ""
        },
        "actionType": {
            "value": "passive"
        },
        "actions": {
            "value": null
        },
        "description": {
            "value": "<p>Your ancestors’ exposure to the Shadow Plane wrought great physical changes. Your hair or skin sometimes appears insubstantial, and you’re slighter and more agile than other fetchlings. You’re <strong>Small</strong> instead of <strong>Medium</strong>. You gain the trained proficiency rank in Acrobatics, the @Compendium[pf2e.feats-srd.Quick Squeeze]{Quick Squeeze} skill feat, and a +1 circumstance bonus to Acrobatics checks to Tumble Through. If you would automatically become trained in Acrobatics (from your background or class, for example), you instead become trained in a skill of your choice.</p>"
        },
        "featType": {
            "value": "heritage"
        },
        "level": {
            "value": 1
        },
        "location": "",
        "prerequisites": {
            "value": []
        },
        "rules": [
            {
                "key": "CreatureSize",
                "value": "sm"
            }
        ],
        "source": {
            "value": ""
        },
        "traits": {
            "custom": "",
            "rarity": {
                "value": "common"
            },
            "value": [
                "fetchling"
            ]
        }
    },
    "effects": [],
    "flags": {},
    "img": "systems/pf2e/icons/default-icons/feat.svg",
    "name": "Wisp Fetchling",
    "type": "feat"
}
