{
    "_id": "bliWctLi7jlKUTUe",
    "data": {
        "description": {
            "value": "<p>Granted by @Compendium[pf2e.feats-srd.Endemic Herbs]{Endemic Herbs}</p>\n<p>Gain a +2 circumstance bonus to saves against disease and poison effects.</p>"
        },
        "duration": {
            "expiry": "turn-start",
            "sustained": false,
            "unit": "minutes",
            "value": 1
        },
        "level": {
            "value": 1
        },
        "rules": [
            {
                "key": "FlatModifier",
                "label": "vs. disease or poison (Forest endemic herbs)",
                "predicate": {
                    "any": [
                        "disease",
                        "poison"
                    ]
                },
                "selector": "saving-throw",
                "type": "circumstance",
                "value": 2
            }
        ],
        "source": {
            "value": "Pathfinder Advanced Player's Guide"
        },
        "start": {
            "initiative": null,
            "value": 0
        },
        "target": null,
        "tokenIcon": {
            "show": false
        },
        "traits": {
            "custom": "",
            "rarity": {
                "value": "common"
            },
            "value": []
        }
    },
    "effects": [],
    "flags": {},
    "img": "systems/pf2e/icons/spells/ancestral-defense.webp",
    "name": "Effect: Forest Endemic Herbs",
    "type": "effect"
}
