{
    "_id": "5TzKmEqFyLHBG2ua",
    "data": {
        "description": {
            "value": "<p>Granted by @Compendium[pf2e.feats-srd.Emblazon Energy]{Emblazon Energy} when applied to a weapon.</p>\n<ul>\n<li><strong>Weapon</strong> The weapon deals an extra 1d4 cold damage, or an extra 1d6 cold damage if you have a domain spell with the cold trait.</li>\n</ul>"
        },
        "duration": {
            "expiry": "turn-start",
            "sustained": false,
            "unit": "unlimited",
            "value": -1
        },
        "level": {
            "value": 8
        },
        "rules": [
            {
                "key": "PF2E.RuleElement.EffectTarget",
                "scope": "weapon"
            },
            {
                "damageType": "cold",
                "diceNumber": 1,
                "dieSize": "d4",
                "key": "PF2E.RuleElement.DamageDice",
                "label": "Emblazon Energy (Cold)",
                "predicate": {
                    "not": [
                        "cold-domain"
                    ]
                },
                "roll-options": [
                    "all"
                ],
                "selector": "{item|data.target}-damage"
            },
            {
                "damageType": "cold",
                "diceNumber": 1,
                "dieSize": "d6",
                "key": "PF2E.RuleElement.DamageDice",
                "label": "Emblazon Energy (Cold Domain)",
                "predicate": {
                    "all": [
                        "cold-domain"
                    ]
                },
                "roll-options": [
                    "all"
                ],
                "selector": "{item|data.target}-damage"
            }
        ],
        "source": {
            "value": ""
        },
        "start": {
            "initiative": null,
            "value": 0
        },
        "target": null,
        "tokenIcon": {
            "show": true
        },
        "traits": {
            "custom": "",
            "rarity": {
                "value": "common"
            },
            "value": []
        }
    },
    "effects": [],
    "flags": {},
    "img": "systems/pf2e/icons/spells/spiritual-weapon.webp",
    "name": "Effect: Emblazon Energy (Weapon, Cold)",
    "type": "effect"
}
