{
    "_id": "Cq8sRhVVF0hagBu6",
    "data": {
        "abilities": {
            "cha": {
                "mod": 4
            },
            "con": {
                "mod": 2
            },
            "dex": {
                "mod": 3
            },
            "int": {
                "mod": 2
            },
            "str": {
                "mod": 5
            },
            "wis": {
                "mod": 4
            }
        },
        "attributes": {
            "ac": {
                "details": "",
                "value": 24
            },
            "allSaves": {
                "value": ""
            },
            "hp": {
                "details": "coffin restoration, fast healing 7, negative healing",
                "max": 65,
                "temp": 0,
                "value": 65
            },
            "initiative": {
                "ability": "perception"
            },
            "perception": {
                "value": 17
            },
            "shield": {
                "ac": 0,
                "brokenThreshold": 0,
                "hardness": 0,
                "max": 0,
                "value": 0
            },
            "speed": {
                "otherSpeeds": [
                    {
                        "type": "Climb",
                        "value": "25 feet"
                    }
                ],
                "value": "25 feet"
            }
        },
        "details": {
            "alignment": {
                "value": "CE"
            },
            "creatureType": "Undead",
            "flavorText": "Vampire counts rule their demesnes through a mix of fear and cruelty.<br /><br />",
            "level": {
                "value": 6
            },
            "source": {
                "value": "Pathfinder Bestiary"
            }
        },
        "resources": {},
        "saves": {
            "fortitude": {
                "saveDetail": "",
                "value": 11
            },
            "reflex": {
                "saveDetail": "",
                "value": 14
            },
            "will": {
                "saveDetail": "",
                "value": 17
            }
        },
        "traits": {
            "ci": [],
            "di": {
                "custom": "",
                "value": [
                    "death effects",
                    "disease",
                    "paralyzed",
                    "poison",
                    "sleep"
                ]
            },
            "dr": [
                {
                    "exceptions": "magical silver",
                    "label": "Physical",
                    "type": "physical",
                    "value": "7"
                }
            ],
            "dv": [
                {
                    "label": "Vampire Weaknesses",
                    "type": "vampire weaknesses"
                }
            ],
            "languages": {
                "custom": "plus one regional language",
                "selected": [],
                "value": [
                    "common",
                    "necril",
                    "custom"
                ]
            },
            "rarity": {
                "value": "common"
            },
            "senses": {
                "value": "darkvision"
            },
            "size": {
                "value": "med"
            },
            "traits": {
                "custom": "",
                "value": [
                    "undead",
                    "vampire"
                ]
            }
        }
    },
    "effects": [],
    "flags": {},
    "img": "systems/pf2e/icons/default-icons/npc.svg",
    "items": [
        {
            "_id": "n74CSiGSkxljBxQx",
            "data": {
                "baseItem": null,
                "brokenThreshold": {
                    "value": 0
                },
                "bulkCapacity": {
                    "value": ""
                },
                "collapsed": {
                    "value": false
                },
                "containerId": {
                    "value": ""
                },
                "description": {
                    "value": ""
                },
                "equipped": {
                    "value": false
                },
                "equippedBulk": {
                    "value": ""
                },
                "hardness": {
                    "value": 0
                },
                "hp": {
                    "value": 0
                },
                "identification": {
                    "misidentified": {},
                    "status": "identified",
                    "unidentified": {
                        "data": {
                            "description": {
                                "value": ""
                            }
                        },
                        "img": "",
                        "name": ""
                    }
                },
                "invested": {
                    "value": false
                },
                "level": {
                    "value": 0
                },
                "maxHp": {
                    "value": 0
                },
                "negateBulk": {
                    "value": "0"
                },
                "preciousMaterial": {
                    "value": ""
                },
                "preciousMaterialGrade": {
                    "value": ""
                },
                "price": {
                    "value": "0 gp"
                },
                "quantity": {
                    "value": 1
                },
                "rules": [],
                "size": {
                    "value": "med"
                },
                "slug": null,
                "source": {
                    "value": ""
                },
                "stackGroup": {
                    "value": ""
                },
                "traits": {
                    "custom": "",
                    "rarity": {
                        "value": "common"
                    },
                    "value": []
                },
                "usage": {
                    "value": "held-in-one-hand"
                },
                "weight": {
                    "value": 0
                }
            },
            "effects": [],
            "flags": {},
            "img": "systems/pf2e/icons/default-icons/mystery-man.svg",
            "name": "+1 rapier",
            "sort": 100000,
            "type": "equipment"
        },
        {
            "_id": "6sJAME25JFphjmN3",
            "data": {
                "baseItem": null,
                "brokenThreshold": {
                    "value": 0
                },
                "bulkCapacity": {
                    "value": ""
                },
                "collapsed": {
                    "value": false
                },
                "containerId": {
                    "value": ""
                },
                "description": {
                    "value": ""
                },
                "equipped": {
                    "value": false
                },
                "equippedBulk": {
                    "value": ""
                },
                "hardness": {
                    "value": 0
                },
                "hp": {
                    "value": 0
                },
                "identification": {
                    "misidentified": {},
                    "status": "identified",
                    "unidentified": {
                        "data": {
                            "description": {
                                "value": ""
                            }
                        },
                        "img": "",
                        "name": ""
                    }
                },
                "invested": {
                    "value": false
                },
                "level": {
                    "value": 0
                },
                "maxHp": {
                    "value": 0
                },
                "negateBulk": {
                    "value": "0"
                },
                "preciousMaterial": {
                    "value": ""
                },
                "preciousMaterialGrade": {
                    "value": ""
                },
                "price": {
                    "value": "0 gp"
                },
                "quantity": {
                    "value": 1
                },
                "rules": [],
                "size": {
                    "value": "med"
                },
                "slug": null,
                "source": {
                    "value": ""
                },
                "stackGroup": {
                    "value": ""
                },
                "traits": {
                    "custom": "",
                    "rarity": {
                        "value": "common"
                    },
                    "value": []
                },
                "usage": {
                    "value": "held-in-one-hand"
                },
                "weight": {
                    "value": 0
                }
            },
            "effects": [],
            "flags": {},
            "img": "systems/pf2e/icons/default-icons/mystery-man.svg",
            "name": "leather armor",
            "sort": 200000,
            "type": "equipment"
        },
        {
            "_id": "bgkXxmVMntPQOmND",
            "data": {
                "attack": {
                    "value": ""
                },
                "attackEffects": {
                    "value": []
                },
                "bonus": {
                    "value": 17
                },
                "damageRolls": {
                    "6r2xqkx5nywfedxwtyts": {
                        "damage": "1d6+11",
                        "damageType": "piercing"
                    }
                },
                "description": {
                    "value": ""
                },
                "rules": [],
                "slug": null,
                "source": {
                    "value": ""
                },
                "traits": {
                    "custom": "",
                    "rarity": {
                        "value": "common"
                    },
                    "value": [
                        "deadly-d8",
                        "disarm"
                    ]
                },
                "weaponType": {
                    "value": "melee"
                }
            },
            "effects": [],
            "flags": {},
            "img": "systems/pf2e/icons/default-icons/melee.svg",
            "name": "Rapier",
            "sort": 300000,
            "type": "melee"
        },
        {
            "_id": "drFfBowFOjTRZSkO",
            "data": {
                "actionCategory": {
                    "value": "interaction"
                },
                "actionType": {
                    "value": "passive"
                },
                "actions": {
                    "value": null
                },
                "description": {
                    "value": "<p>The vampire's presence brings forth creatures of the night to do the master's bidding. These typically include rat swarms, bat swarms, and wolves, but can include other creatures. The vampire can give telepathic orders to these creatures as long as they are within 100 feet, but they can't communicate back.</p>"
                },
                "requirements": {
                    "value": ""
                },
                "rules": [],
                "slug": null,
                "source": {
                    "value": ""
                },
                "traits": {
                    "custom": "",
                    "rarity": {
                        "value": "common"
                    },
                    "value": [
                        "divine",
                        "enchantment",
                        "mental"
                    ]
                },
                "trigger": {
                    "value": ""
                },
                "weapon": {
                    "value": ""
                }
            },
            "effects": [],
            "flags": {},
            "img": "systems/pf2e/icons/default-icons/mystery-man.svg",
            "name": "Children of the Night",
            "sort": 400000,
            "type": "action"
        },
        {
            "_id": "GR5QwhxCcoEQj0lC",
            "data": {
                "actionCategory": {
                    "value": "defensive"
                },
                "actionType": {
                    "value": "free"
                },
                "actions": {
                    "value": null
                },
                "description": {
                    "value": "<p><strong>Trigger</strong> The vampire is reduced to 0 HP. <strong>Effect</strong> The vampire uses Turn to Mist. It can take move actions to move toward its coffin even though it's at 0 HP. While at 0 HP in this form, the vampire is unaffected by further damage. It automatically returns to its corporeal form, unconscious, if it reaches its coffin or after 2 hours, whichever comes first.</p>"
                },
                "requirements": {
                    "value": ""
                },
                "rules": [],
                "slug": null,
                "source": {
                    "value": ""
                },
                "traits": {
                    "custom": "",
                    "rarity": {
                        "value": "common"
                    },
                    "value": []
                },
                "trigger": {
                    "value": ""
                },
                "weapon": {
                    "value": ""
                }
            },
            "effects": [],
            "flags": {},
            "img": "systems/pf2e/icons/default-icons/mystery-man.svg",
            "name": "Mist Escape",
            "sort": 500000,
            "type": "action"
        },
        {
            "_id": "DCilycA067txxmOl",
            "data": {
                "actionCategory": {
                    "value": "defensive"
                },
                "actionType": {
                    "value": "passive"
                },
                "actions": {
                    "value": null
                },
                "description": {
                    "value": "<p>Unlike other undead, a vampire isn't destroyed at 0 HP. Instead, it falls unconscious. If its body rests in its coffin for 1 hour, the vampire gains 1 HP, after which its fast healing begins to function normally.</p>"
                },
                "requirements": {
                    "value": ""
                },
                "rules": [],
                "slug": null,
                "source": {
                    "value": ""
                },
                "traits": {
                    "custom": "",
                    "rarity": {
                        "value": "common"
                    },
                    "value": []
                },
                "trigger": {
                    "value": ""
                },
                "weapon": {
                    "value": ""
                }
            },
            "effects": [],
            "flags": {},
            "img": "systems/pf2e/icons/actions/Passive.webp",
            "name": "Coffin Restoration",
            "sort": 600000,
            "type": "action"
        },
        {
            "_id": "kCLqnRCuH2yKWyLF",
            "data": {
                "actionCategory": {
                    "value": "defensive"
                },
                "actionType": {
                    "value": "passive"
                },
                "actions": {
                    "value": null
                },
                "description": {
                    "value": "<p>All vampires possess the following weaknesses. <br /><strong>Compulsions</strong> Vampires are creatures of strange and unknowable compulsions. A typical vampire can't voluntarily cross running water unless it is transported while it hides within its coffin, nor can it enter a private dwelling unless invited in by someone with the authority to do so. At your discretion, vampires might have different compulsions-a pirate vampire might not be able to set foot on solid ground without being invited, for example. The vampire can still be forced to do these things and might be able to overcome its compulsion just as it does its revulsion (see below). <br /><strong>Revulsion</strong> A vampire can't voluntarily come within 10 feet of brandished garlic or a brandished religious symbol of a non-evil deity. To brandish garlic or a religious symbol, a creature must Interact to do so for 1 round (similar to Raising a Shield). If the vampire involuntarily comes within 10 feet of an object of its revulsion, it gains the fleeing condition, running from the object of its revulsion until it ends an action beyond 10 feet. After 1 round of being exposed to the subject of its revulsion, a vampire can attempt a <span data-pf2-check=\"will\" data-pf2-dc=\"25\" data-pf2-label=\"Vampiric Weaknesses DC\" data-pf2-show-dc=\"gm\">Will</span> save as a single action, which has the concentrate trait. On a success, it overcomes its revulsions for [[/br 1d6 #rounds]]{1d6 rounds} (or 1 hour on a critical success). <br /><strong>Stake</strong> A wooden stake driven through a vampire's heart drops the vampire to 0 HP and prevents it from healing above 0 HP, even in its coffin. Staking a vampire requires three actions and works only if the vampire is unconscious. If the stake is removed, the vampire can heal above 0 HP again, and if it's in its coffin the 1-hour rest period begins once the stake is removed. If the vampire's head is severed and anointed with holy water while the stake is in place, the vampire is destroyed. <br /><strong>Sunlight</strong> If exposed to direct sunlight, a vampire immediately becomes slowed 1. The slowed value increases by 1 each time the vampire ends its turn in sunlight. If the vampire loses all its actions in this way, it is destroyed. Due to their supernatural aversion to light, vampires don't cast shadows or show a reflection in mirrors.</p>"
                },
                "requirements": {
                    "value": ""
                },
                "rules": [],
                "slug": null,
                "source": {
                    "value": ""
                },
                "traits": {
                    "custom": "",
                    "rarity": {
                        "value": "common"
                    },
                    "value": []
                },
                "trigger": {
                    "value": ""
                },
                "weapon": {
                    "value": ""
                }
            },
            "effects": [],
            "flags": {},
            "img": "systems/pf2e/icons/actions/Passive.webp",
            "name": "Vampiric Weaknesses",
            "sort": 700000,
            "type": "action"
        },
        {
            "_id": "bYDh0IgTNhe8B6iw",
            "data": {
                "actionCategory": {
                    "value": "offensive"
                },
                "actionType": {
                    "value": "action"
                },
                "actions": {
                    "value": 1
                },
                "description": {
                    "value": "<p>The vampire transforms into one of its animal forms or back into its normal form. Most vampires can turn into a bat, but some can turn into a different creature, such as a rat or a wolf. Use the options in the aerial form and animal form spells as guidelines. <strong>Giant Bat</strong> The vampire changes into a giant bat. It gains echolocation 40 feet, a land Speed of 20 feet and a fly Speed of 30 feet, and a fangs +15, Damage 1d8+9 piercing.<br /> The monster changes its shape indefinitely. It can use this action again to return to its natural shape or adopt a new shape. Unless otherwise noted, a monster cannot use Change Shape to appear as a specific individual. Using Change Shape counts as creating a disguise for the Impersonate use of Deception. The monster's transformation automatically defeats Perception DCs to determine whether the creature is a member of the ancestry or creature type into which it transformed, and it gains a +4 status bonus to its Deception DC to prevent others from seeing through its disguise. Change Shape abilities specify what shapes the monster can adopt. The monster doesn't gain any special abilities of the new shape, only its physical form. For example, in each shape, it replaces its normal Speeds and Strikes, and might potentially change its senses or size. Any changes are listed in its stat block.</p>"
                },
                "requirements": {
                    "value": ""
                },
                "rules": [],
                "slug": null,
                "source": {
                    "value": ""
                },
                "traits": {
                    "custom": "",
                    "rarity": {
                        "value": "common"
                    },
                    "value": [
                        "concentrate",
                        "divine",
                        "transmutation",
                        "polymorph"
                    ]
                },
                "trigger": {
                    "value": ""
                },
                "weapon": {
                    "value": ""
                }
            },
            "effects": [],
            "flags": {},
            "img": "systems/pf2e/icons/default-icons/mystery-man.svg",
            "name": "Change Shape",
            "sort": 800000,
            "type": "action"
        },
        {
            "_id": "53oK8Z5IvDhq1Q9o",
            "data": {
                "actionCategory": {
                    "value": "offensive"
                },
                "actionType": {
                    "value": "passive"
                },
                "actions": {
                    "value": null
                },
                "description": {
                    "value": "<p>If a creature dies after being reduced to 0 HP by Drink Blood, the vampire can turn this victim into a vampire by donating some of its own blood to the victim and burying the victim in earth for 3 nights. If the new vampire is lower level than its creator, it is under the creator's control. If a vampire controls too many spawn at once (as determined by the GM), strong-willed spawn can free themselves by succeeding at a Will saving throw against the vampire's Will DC.</p>"
                },
                "requirements": {
                    "value": ""
                },
                "rules": [],
                "slug": null,
                "source": {
                    "value": ""
                },
                "traits": {
                    "custom": "",
                    "rarity": {
                        "value": "common"
                    },
                    "value": [
                        "divine",
                        "downtime",
                        "necromancy"
                    ]
                },
                "trigger": {
                    "value": ""
                },
                "weapon": {
                    "value": ""
                }
            },
            "effects": [],
            "flags": {},
            "img": "systems/pf2e/icons/default-icons/mystery-man.svg",
            "name": "Create Spawn",
            "sort": 900000,
            "type": "action"
        },
        {
            "_id": "oMlhBRlsYd52F6pe",
            "data": {
                "actionCategory": {
                    "value": "offensive"
                },
                "actionType": {
                    "value": "action"
                },
                "actions": {
                    "value": 2
                },
                "description": {
                    "value": "<p>The vampire can cast dominate at will as a divine innate spell. Casting it requires staring into the target's eyes, giving the spell the visual trait. The save is DC 22, and a creature that succeeds is temporarily immune to that vampire's Dominate for 24 hours. Fully destroying the vampire ends the domination, but merely reducing the vampire to 0 HP is insufficient to break the spell.</p>"
                },
                "requirements": {
                    "value": ""
                },
                "rules": [],
                "slug": null,
                "source": {
                    "value": ""
                },
                "traits": {
                    "custom": "",
                    "rarity": {
                        "value": "common"
                    },
                    "value": [
                        "divine",
                        "enchantment",
                        "incapacitation"
                    ]
                },
                "trigger": {
                    "value": ""
                },
                "weapon": {
                    "value": ""
                }
            },
            "effects": [],
            "flags": {},
            "img": "systems/pf2e/icons/default-icons/mystery-man.svg",
            "name": "Dominate",
            "sort": 1000000,
            "type": "action"
        },
        {
            "_id": "nUOPCJFmcFPDPljI",
            "data": {
                "actionCategory": {
                    "value": "offensive"
                },
                "actionType": {
                    "value": "action"
                },
                "actions": {
                    "value": 1
                },
                "description": {
                    "value": "<p><strong>Requirement</strong> A grabbed, paralyzed, restrained, unconscious, or willing creature is within the vampire's reach. <strong>Effect</strong> The vampire sinks its fangs into that creature to drink its blood. This requires an Athletics check against the victim's Fortitude DC if the victim is grabbed and is automatic for any of the other conditions. The victim is drained 2 and the vampire regains 10 HP, gaining any excess HP as temporary Hit Points. Drinking Blood from a creature that's already drained doesn't restore any HP to the vampire but increases the victim's drain value by 1. A vampire can also consume blood that's been emptied into a vessel for sustenance, but it gains no HP from doing so.</p>"
                },
                "requirements": {
                    "value": ""
                },
                "rules": [],
                "slug": null,
                "source": {
                    "value": ""
                },
                "traits": {
                    "custom": "",
                    "rarity": {
                        "value": "common"
                    },
                    "value": [
                        "divine",
                        "necromancy"
                    ]
                },
                "trigger": {
                    "value": ""
                },
                "weapon": {
                    "value": ""
                }
            },
            "effects": [],
            "flags": {},
            "img": "systems/pf2e/icons/default-icons/mystery-man.svg",
            "name": "Drink Blood",
            "sort": 1100000,
            "type": "action"
        },
        {
            "_id": "yNE4JcXOFBFlzotm",
            "data": {
                "actionCategory": {
                    "value": "offensive"
                },
                "actionType": {
                    "value": "action"
                },
                "actions": {
                    "value": 1
                },
                "description": {
                    "value": "<p>The vampire turns into a cloud of vapor, as the gaseous form spell, or back to its normal form. The vampire loses fast healing while in gaseous form. The vampire can remain in this form indefinitely.</p>"
                },
                "requirements": {
                    "value": ""
                },
                "rules": [],
                "slug": null,
                "source": {
                    "value": ""
                },
                "traits": {
                    "custom": "",
                    "rarity": {
                        "value": "common"
                    },
                    "value": [
                        "concentrate",
                        "divine",
                        "transmutation"
                    ]
                },
                "trigger": {
                    "value": ""
                },
                "weapon": {
                    "value": ""
                }
            },
            "effects": [],
            "flags": {},
            "img": "systems/pf2e/icons/default-icons/mystery-man.svg",
            "name": "Turn to Mist",
            "sort": 1200000,
            "type": "action"
        },
        {
            "_id": "vZ1OrzwjKPUoKEMn",
            "data": {
                "description": {
                    "value": ""
                },
                "item": {
                    "value": 0
                },
                "mod": {
                    "value": 13
                },
                "proficient": {
                    "value": 0
                },
                "rules": [],
                "slug": null,
                "source": {
                    "value": ""
                },
                "traits": {
                    "custom": "",
                    "rarity": {
                        "value": "common"
                    },
                    "value": []
                }
            },
            "effects": [],
            "flags": {},
            "img": "systems/pf2e/icons/default-icons/lore.svg",
            "name": "Acrobatics",
            "sort": 1300000,
            "type": "lore"
        },
        {
            "_id": "89qMVolXaNuTdLvF",
            "data": {
                "description": {
                    "value": ""
                },
                "item": {
                    "value": 0
                },
                "mod": {
                    "value": 15
                },
                "proficient": {
                    "value": 0
                },
                "rules": [],
                "slug": null,
                "source": {
                    "value": ""
                },
                "traits": {
                    "custom": "",
                    "rarity": {
                        "value": "common"
                    },
                    "value": []
                }
            },
            "effects": [],
            "flags": {},
            "img": "systems/pf2e/icons/default-icons/lore.svg",
            "name": "Athletics",
            "sort": 1400000,
            "type": "lore"
        },
        {
            "_id": "CtCd0sUGvUKkHkgn",
            "data": {
                "description": {
                    "value": ""
                },
                "item": {
                    "value": 0
                },
                "mod": {
                    "value": 14
                },
                "proficient": {
                    "value": 0
                },
                "rules": [],
                "slug": null,
                "source": {
                    "value": ""
                },
                "traits": {
                    "custom": "",
                    "rarity": {
                        "value": "common"
                    },
                    "value": []
                }
            },
            "effects": [],
            "flags": {},
            "img": "systems/pf2e/icons/default-icons/lore.svg",
            "name": "Deception",
            "sort": 1500000,
            "type": "lore"
        },
        {
            "_id": "fLo8uFsftExYIRgA",
            "data": {
                "description": {
                    "value": ""
                },
                "item": {
                    "value": 0
                },
                "mod": {
                    "value": 14
                },
                "proficient": {
                    "value": 0
                },
                "rules": [],
                "slug": null,
                "source": {
                    "value": ""
                },
                "traits": {
                    "custom": "",
                    "rarity": {
                        "value": "common"
                    },
                    "value": []
                }
            },
            "effects": [],
            "flags": {},
            "img": "systems/pf2e/icons/default-icons/lore.svg",
            "name": "Diplomacy",
            "sort": 1600000,
            "type": "lore"
        },
        {
            "_id": "vvKUuEO1v0PbUCgS",
            "data": {
                "description": {
                    "value": ""
                },
                "item": {
                    "value": 0
                },
                "mod": {
                    "value": 16
                },
                "proficient": {
                    "value": 0
                },
                "rules": [],
                "slug": null,
                "source": {
                    "value": ""
                },
                "traits": {
                    "custom": "",
                    "rarity": {
                        "value": "common"
                    },
                    "value": []
                }
            },
            "effects": [],
            "flags": {},
            "img": "systems/pf2e/icons/default-icons/lore.svg",
            "name": "Intimidation",
            "sort": 1700000,
            "type": "lore"
        },
        {
            "_id": "9PrR48XhuDQhEg8V",
            "data": {
                "description": {
                    "value": ""
                },
                "item": {
                    "value": 0
                },
                "mod": {
                    "value": 14
                },
                "proficient": {
                    "value": 0
                },
                "rules": [],
                "slug": null,
                "source": {
                    "value": ""
                },
                "traits": {
                    "custom": "",
                    "rarity": {
                        "value": "common"
                    },
                    "value": []
                }
            },
            "effects": [],
            "flags": {},
            "img": "systems/pf2e/icons/default-icons/lore.svg",
            "name": "Society",
            "sort": 1800000,
            "type": "lore"
        },
        {
            "_id": "jGA2mmy3aNl6V6ZK",
            "data": {
                "description": {
                    "value": ""
                },
                "item": {
                    "value": 0
                },
                "mod": {
                    "value": 13
                },
                "proficient": {
                    "value": 0
                },
                "rules": [],
                "slug": null,
                "source": {
                    "value": ""
                },
                "traits": {
                    "custom": "",
                    "rarity": {
                        "value": "common"
                    },
                    "value": []
                }
            },
            "effects": [],
            "flags": {},
            "img": "systems/pf2e/icons/default-icons/lore.svg",
            "name": "Stealth",
            "sort": 1900000,
            "type": "lore"
        }
    ],
    "name": "Vampire Count",
    "token": {
        "disposition": -1,
        "height": 1,
        "img": "systems/pf2e/icons/default-icons/npc.svg",
        "name": "Vampire Count",
        "width": 1
    },
    "type": "npc"
}
