{
    "_id": "5dJJGiB3MUoFWEFi",
    "data": {
        "description": {
            "value": "<p><strong>Requirements</strong> The Charau-ka Butcher isn't @Compendium[pf2e.conditionitems.Fatigued]{Fatigued} or raging</p>\n<hr />\n<p>The Charau-ka Butcher taps into its inner fury and begins raging. The Charau-ka Butcher gains a number of temporary Hit Points equal to it's level plus it's Constitution modifier. This frenzy lasts for 1 minute, until there are no enemies they can perceive, or until they fall unconscious, whichever comes first. They can't voluntarily stop raging. While they are raging:</p>\n<ul>\n<li>They deal 2 additional damage on melee Strikes. This additional damage is halved if their weapon or unarmed attack is agile.</li>\n<li>They take a -1 penalty to AC.</li>\n<li>They can't use actions with the concentrate trait unless they also have the rage trait. They can Seek while raging.</li>\n</ul>\n<p>After they stop raging, they lose any remaining temporary Hit Points from Rage, and they can't Rage again for 1 minute.</p>"
        },
        "duration": {
            "expiry": "turn-start",
            "sustained": false,
            "unit": "minutes",
            "value": 1
        },
        "level": {
            "value": 1
        },
        "rules": [
            {
                "key": "PF2E.RuleElement.TempHP",
                "value": "@abilities.con.mod + @details.level.value"
            },
            {
                "key": "PF2E.RuleElement.SetProperty",
                "on": {
                    "added": true,
                    "removed": false
                },
                "property": "flags.pf2e.rollOptions.all.rage"
            },
            {
                "key": "PF2E.RuleElement.FlatModifier",
                "label": "Rage",
                "predicate": {
                    "all": [
                        "rage"
                    ]
                },
                "roll-options": [
                    "ac",
                    "all"
                ],
                "selector": "ac",
                "value": -1
            },
            {
                "key": "PF2E.RuleElement.FlatModifier",
                "label": "Rage",
                "predicate": {
                    "all": [
                        "rage"
                    ],
                    "not": [
                        "agile",
                        "ranged"
                    ]
                },
                "selector": "damage",
                "value": 2
            },
            {
                "key": "PF2E.RuleElement.FlatModifier",
                "label": "Rage",
                "predicate": {
                    "all": [
                        "rage",
                        "agile"
                    ],
                    "not": [
                        "ranged"
                    ]
                },
                "selector": "damage",
                "value": 1
            }
        ],
        "source": {
            "value": ""
        },
        "start": {
            "initiative": null,
            "value": 0
        },
        "target": null,
        "tokenIcon": {
            "show": true
        },
        "traits": {
            "custom": "",
            "rarity": {
                "value": "common"
            },
            "value": []
        }
    },
    "effects": [],
    "flags": {},
    "img": "systems/pf2e/icons/features/classes/rage.webp",
    "name": "Effect: Rage - Charau-ka Butcher",
    "type": "effect"
}
