{
    "_id": "Nr8LlIa0kRW71fJs",
    "data": {
        "attributes": {
            "ac": {
                "value": 10
            },
            "hardness": 0,
            "hasHealth": true,
            "hp": {
                "details": "",
                "max": 10,
                "temp": 0,
                "value": 10
            },
            "stealth": {
                "details": "<p>(trained)</p>",
                "value": 11
            }
        },
        "creatureType": "",
        "details": {
            "description": "<p>A cloud of invisible magical sensors in a 5-foot square surrounds an invisible rune on the wall or floor.</p>",
            "disable": "<p><span data-pf2-check=\"acrobatics\" data-pf2-label=\"Approach the Rune DC\" data-pf2-dc=\"15\" data-pf2-show-dc=\"gm\">Acrobatics</span> to approach without triggering the trap followed by <span data-pf2-check=\"thievery\" data-pf2-label=\"Erase the Rune DC\" data-pf2-dc=\"16\" data-pf2-show-dc=\"gm\">Thievery</span> (trained) to erase the rune, or <em>dispel magic</em> (1st level, counteract DC 15) to counteract the rune.</p>",
            "isComplex": false,
            "level": {
                "value": 0
            },
            "reset": "<p>Like its namesake creature, a phoenix rune is difficult to destroy. After it is triggered, a phoenix rune can immediately reset on a wall or floor within 120 feet, as long as it has not been disabled. When this happens, a PC who succeeds at a <span data-pf2-perception-check=\"True\" data-pf2-label=\"Spot the Phoenix Rune DC\" data-pf2-dc=\"13\" data-pf2-show-dc=\"gm\">Perception</span> check spots the shadowy form of a tiny phoenix \"flying\" along the wall or floor from the rune's old location to its new location.</p>",
            "routine": ""
        },
        "saves": {
            "fortitude": {
                "saveDetail": "",
                "value": 0
            },
            "reflex": {
                "saveDetail": "",
                "value": 0
            },
            "will": {
                "saveDetail": "",
                "value": 0
            }
        },
        "source": {
            "value": "Pathfinder Society Quest #2: Unforgiving Fire"
        },
        "statusEffects": [],
        "traits": {
            "ci": [],
            "di": {
                "custom": "",
                "selected": {},
                "value": []
            },
            "dr": [],
            "dv": [],
            "rarity": {
                "value": "common"
            },
            "size": {
                "value": "med"
            },
            "traits": {
                "custom": "",
                "value": [
                    "auditory",
                    "evocation",
                    "fire",
                    "magical",
                    "trap"
                ]
            }
        }
    },
    "effects": [],
    "flags": {},
    "img": "systems/pf2e/icons/default-icons/hazard.svg",
    "items": [
        {
            "_id": "kRDWzPAyQraavehX",
            "data": {
                "actionCategory": {
                    "value": "offensive"
                },
                "actionType": {
                    "value": "reaction"
                },
                "actions": {
                    "value": null
                },
                "description": {
                    "value": "<p data-visibility=\"gm\"><strong>Trigger</strong> A creature enters the sensor area or fails any check to disable the phoenix rune.</p>\n<p><strong>Effect</strong> A white-hot talon of flame bursts upward from the phoenix rune, dealing [[/r 1d8 #fire]]{1d8 fire damage} to a creature within the sensor area. This gout of fire is accompanied by the screech of a phoenix audible up to 500 feet away. Creatures within a 20-foot radius of the sensor area (including the triggering creature) must succeed at a <span data-pf2-check=\"fortitude\" data-pf2-traits=\"auditory\" data-pf2-label=\"Screeching Talon Deafened DC\" data-pf2-dc=\"13\" data-pf2-show-dc=\"gm\">Fortitude</span> save or be @Compendium[pf2e.conditionitems.Deafened]{Deafened} for 1 round.</p>"
                },
                "requirements": {
                    "value": ""
                },
                "rules": [],
                "slug": null,
                "source": {
                    "value": ""
                },
                "traits": {
                    "custom": "",
                    "rarity": {
                        "value": "common"
                    },
                    "value": []
                },
                "trigger": {
                    "value": ""
                },
                "weapon": {
                    "value": ""
                }
            },
            "effects": [],
            "flags": {},
            "img": "systems/pf2e/icons/actions/Reaction.webp",
            "name": "Screeching Talon",
            "sort": 0,
            "type": "action"
        }
    ],
    "name": "Phoenix Rune (1-2)",
    "token": {
        "disposition": 0,
        "height": 1,
        "img": "systems/pf2e/icons/default-icons/hazard.svg",
        "name": "Phoenix Rune",
        "width": 1
    },
    "type": "hazard"
}
